C                                                                       S      1
1H,,1H;,10HSolid Edge,15HAllen screw.igs,27HBy Siemens PLM Incorporated,G      1
26HXPlus GENERIC/IGES 23.0.61,32,38, 6,308,15,7HUnknown,1.000,2,2HMM,1, G      2
1.000,15H20230201.100905,1.0e-05,0.00,6HAuthor,5HTitle,11,0,15H20230201.G      3
100905;                                                                 G      4
     314       1       0       1       0       0       0       000010001D      1
     314       1       0       2       0       0       0               0D      2
     128       3       0       1       0       0       0       000010001D      3
     128       1       0      12       0       0       0               0D      4
     126      15       0       1       0       0       0       000010501D      5
     126       1       0       2       0       0       0               0D      6
     126      17       0       1       0       0       0       000010501D      7
     126       1       0       2       0       0       0               0D      8
     126      19       0       1       0       0       0       000010501D      9
     126       1       0       2       0       0       0               0D     10
     126      21       0       1       0       0       0       000010501D     11
     126       1       0       2       0       0       0               0D     12
     126      23       0       1       0       0       0       000010501D     13
     126       1       0       2       0       0       0               0D     14
     126      25       0       1       0       0       0       000010501D     15
     126       1       0       2       0       0       0               0D     16
     126      27       0       1       0       0       0       000010501D     17
     126       1       0       3       0       0       0               0D     18
     126      30       0       1       0       0       0       000010501D     19
     126       1       0       2       0       0       0               0D     20
     102      32       0       1       0       0       0       000010501D     21
     102       1       0       1       0       0       0               0D     22
     126      33       0       1       0       0       0       000010001D     23
     126       1       0       6       0       0       0               0D     24
     126      39       0       1       0       0       0       000010001D     25
     126       1       0       2       0       0       0               0D     26
     126      41       0       1       0       0       0       000010001D     27
     126       1       0       6       0       0       0               0D     28
     126      47       0       1       0       0       0       000010001D     29
     126       1       0       2       0       0       0               0D     30
     102      49       0       1       0       0       0       000010001D     31
     102       1       0       1       0       0       0               0D     32
     142      50       0       1       0       0       0       000010001D     33
     142       1       0       1       0       0       0               0D     34
     144      51       0       1       0       0       0       000000001D     35
     144       1      -1       1       0       0       0               0D     36
     314      52       0       1       0       0       0       000010001D     37
     314       1       0       2       0       0       0               0D     38
     128      54       0       1       0       0       0       000010001D     39
     128       1       0       3       0       0       0               0D     40
     126      57       0       1       0       0       0       000010501D     41
     126       1       0      34       0       0       0               0D     42
     102      91       0       1       0       0       0       000010501D     43
     102       1       0       1       0       0       0               0D     44
     126      92       0       1       0       0       0       000010001D     45
     126       1       0       6       0       0       0               0D     46
     102      98       0       1       0       0       0       000010001D     47
     102       1       0       1       0       0       0               0D     48
     142      99       0       1       0       0       0       000010001D     49
     142       1       0       1       0       0       0               0D     50
     144     100       0       1       0       0       0       000000001D     51
     144       1     -37       1       0       0       0               0D     52
     314     101       0       1       0       0       0       000010001D     53
     314       1       0       2       0       0       0               0D     54
     128     103       0       1       0       0       0       000010001D     55
     128       1       0      11       0       0       0               0D     56
     126     114       0       1       0       0       0       000010501D     57
     126       1       0       3       0       0       0               0D     58
     126     117       0       1       0       0       0       000010501D     59
     126       1       0       4       0       0       0               0D     60
     126     121       0       1       0       0       0       000010501D     61
     126       1       0       2       0       0       0               0D     62
     126     123       0       1       0       0       0       000010501D     63
     126       1       0       2       0       0       0               0D     64
     126     125       0       1       0       0       0       000010501D     65
     126       1       0       2       0       0       0               0D     66
     126     127       0       1       0       0       0       000010501D     67
     126       1       0       3       0       0       0               0D     68
     126     130       0       1       0       0       0       000010501D     69
     126       1       0       2       0       0       0               0D     70
     126     132       0       1       0       0       0       000010501D     71
     126       1       0       3       0       0       0               0D     72
     126     135       0       1       0       0       0       000010501D     73
     126       1       0       2       0       0       0               0D     74
     102     137       0       1       0       0       0       000010501D     75
     102       1       0       1       0       0       0               0D     76
     126     138       0       1       0       0       0       000010001D     77
     126       1       0       4       0       0       0               0D     78
     126     142       0       1       0       0       0       000010001D     79
     126       1       0       5       0       0       0               0D     80
     126     147       0       1       0       0       0       000010001D     81
     126       1       0       2       0       0       0               0D     82
     126     149       0       1       0       0       0       000010001D     83
     126       1       0       6       0       0       0               0D     84
     126     155       0       1       0       0       0       000010001D     85
     126       1       0       2       0       0       0               0D     86
     102     157       0       1       0       0       0       000010001D     87
     102       1       0       1       0       0       0               0D     88
     142     158       0       1       0       0       0       000010001D     89
     142       1       0       1       0       0       0               0D     90
     144     159       0       1       0       0       0       000000001D     91
     144       1     -53       1       0       0       0               0D     92
     314     160       0       1       0       0       0       000010001D     93
     314       1       0       2       0       0       0               0D     94
     128     162       0       1       0       0       0       000010001D     95
     128       1       0      11       0       0       0               0D     96
     126     173       0       1       0       0       0       000010501D     97
     126       1       0       2       0       0       0               0D     98
     126     175       0       1       0       0       0       000010501D     99
     126       1       0       3       0       0       0               0D    100
     126     178       0       1       0       0       0       000010501D    101
     126       1       0       2       0       0       0               0D    102
     126     180       0       1       0       0       0       000010501D    103
     126       1       0       2       0       0       0               0D    104
     126     182       0       1       0       0       0       000010501D    105
     126       1       0       2       0       0       0               0D    106
     126     184       0       1       0       0       0       000010501D    107
     126       1       0       4       0       0       0               0D    108
     126     188       0       1       0       0       0       000010501D    109
     126       1       0       3       0       0       0               0D    110
     126     191       0       1       0       0       0       000010501D    111
     126       1       0       2       0       0       0               0D    112
     126     193       0       1       0       0       0       000010501D    113
     126       1       0       2       0       0       0               0D    114
     102     195       0       1       0       0       0       000010501D    115
     102       1       0       1       0       0       0               0D    116
     126     196       0       1       0       0       0       000010001D    117
     126       1       0       4       0       0       0               0D    118
     126     200       0       1       0       0       0       000010001D    119
     126       1       0       5       0       0       0               0D    120
     126     205       0       1       0       0       0       000010001D    121
     126       1       0       2       0       0       0               0D    122
     126     207       0       1       0       0       0       000010001D    123
     126       1       0       5       0       0       0               0D    124
     126     212       0       1       0       0       0       000010001D    125
     126       1       0       4       0       0       0               0D    126
     126     216       0       1       0       0       0       000010001D    127
     126       1       0       2       0       0       0               0D    128
     102     218       0       1       0       0       0       000010001D    129
     102       1       0       1       0       0       0               0D    130
     142     219       0       1       0       0       0       000010001D    131
     142       1       0       1       0       0       0               0D    132
     144     220       0       1       0       0       0       000000001D    133
     144       1     -93       1       0       0       0               0D    134
     314     221       0       1       0       0       0       000010001D    135
     314       1       0       2       0       0       0               0D    136
     128     223       0       1       0       0       0       000010001D    137
     128       1       0       7       0       0       0               0D    138
     126     230       0       1       0       0       0       000010501D    139
     126       1       0       3       0       0       0               0D    140
     126     233       0       1       0       0       0       000010501D    141
     126       1       0       2       0       0       0               0D    142
     126     235       0       1       0       0       0       000010501D    143
     126       1       0       2       0       0       0               0D    144
     126     237       0       1       0       0       0       000010501D    145
     126       1       0       2       0       0       0               0D    146
     126     239       0       1       0       0       0       000010501D    147
     126       1       0       4       0       0       0               0D    148
     126     243       0       1       0       0       0       000010501D    149
     126       1       0       3       0       0       0               0D    150
     126     246       0       1       0       0       0       000010501D    151
     126       1       0       3       0       0       0               0D    152
     102     249       0       1       0       0       0       000010501D    153
     102       1       0       1       0       0       0               0D    154
     126     250       0       1       0       0       0       000010001D    155
     126       1       0       6       0       0       0               0D    156
     126     256       0       1       0       0       0       000010001D    157
     126       1       0       2       0       0       0               0D    158
     126     258       0       1       0       0       0       000010001D    159
     126       1       0       5       0       0       0               0D    160
     126     263       0       1       0       0       0       000010001D    161
     126       1       0       4       0       0       0               0D    162
     126     267       0       1       0       0       0       000010001D    163
     126       1       0       2       0       0       0               0D    164
     102     269       0       1       0       0       0       000010001D    165
     102       1       0       1       0       0       0               0D    166
     142     270       0       1       0       0       0       000010001D    167
     142       1       0       1       0       0       0               0D    168
     144     271       0       1       0       0       0       000000001D    169
     144       1    -135       1       0       0       0               0D    170
     314     272       0       1       0       0       0       000010001D    171
     314       1       0       2       0       0       0               0D    172
     128     274       0       1       0       0       0       000010001D    173
     128       1       0       3       0       0       0               0D    174
     126     277       0       1       0       0       0       000010501D    175
     126       1       0      34       0       0       0               0D    176
     102     311       0       1       0       0       0       000010501D    177
     102       1       0       1       0       0       0               0D    178
     126     312       0       1       0       0       0       000010001D    179
     126       1       0       6       0       0       0               0D    180
     102     318       0       1       0       0       0       000010001D    181
     102       1       0       1       0       0       0               0D    182
     142     319       0       1       0       0       0       000010001D    183
     142       1       0       1       0       0       0               0D    184
     126     320       0       1       0       0       0       000010501D    185
     126       1       0       3       0       0       0               0D    186
     126     323       0       1       0       0       0       000010501D    187
     126       1       0       3       0       0       0               0D    188
     126     326       0       1       0       0       0       000010501D    189
     126       1       0       3       0       0       0               0D    190
     126     329       0       1       0       0       0       000010501D    191
     126       1       0       3       0       0       0               0D    192
     126     332       0       1       0       0       0       000010501D    193
     126       1       0       3       0       0       0               0D    194
     126     335       0       1       0       0       0       000010501D    195
     126       1       0       3       0       0       0               0D    196
     102     338       0       1       0       0       0       000010501D    197
     102       1       0       1       0       0       0               0D    198
     126     339       0       1       0       0       0       000010001D    199
     126       1       0       3       0       0       0               0D    200
     126     342       0       1       0       0       0       000010001D    201
     126       1       0       3       0       0       0               0D    202
     126     345       0       1       0       0       0       000010001D    203
     126       1       0       3       0       0       0               0D    204
     126     348       0       1       0       0       0       000010001D    205
     126       1       0       3       0       0       0               0D    206
     126     351       0       1       0       0       0       000010001D    207
     126       1       0       3       0       0       0               0D    208
     126     354       0       1       0       0       0       000010001D    209
     126       1       0       3       0       0       0               0D    210
     102     357       0       1       0       0       0       000010001D    211
     102       1       0       1       0       0       0               0D    212
     142     358       0       1       0       0       0       000010001D    213
     142       1       0       1       0       0       0               0D    214
     144     359       0       1       0       0       0       000000001D    215
     144       1    -171       1       0       0       0               0D    216
     314     360       0       1       0       0       0       000010001D    217
     314       1       0       2       0       0       0               0D    218
     128     362       0       1       0       0       0       000010001D    219
     128       1       0       3       0       0       0               0D    220
     126     365       0       1       0       0       0       000010501D    221
     126       1       0       2       0       0       0               0D    222
     126     367       0       1       0       0       0       000010501D    223
     126       1       0       2       0       0       0               0D    224
     126     369       0       1       0       0       0       000010501D    225
     126       1       0       2       0       0       0               0D    226
     126     371       0       1       0       0       0       000010501D    227
     126       1       0       2       0       0       0               0D    228
     102     373       0       1       0       0       0       000010501D    229
     102       1       0       1       0       0       0               0D    230
     126     374       0       1       0       0       0       000010001D    231
     126       1       0       3       0       0       0               0D    232
     126     377       0       1       0       0       0       000010001D    233
     126       1       0       2       0       0       0               0D    234
     126     379       0       1       0       0       0       000010001D    235
     126       1       0       3       0       0       0               0D    236
     126     382       0       1       0       0       0       000010001D    237
     126       1       0       2       0       0       0               0D    238
     102     384       0       1       0       0       0       000010001D    239
     102       1       0       1       0       0       0               0D    240
     142     385       0       1       0       0       0       000010001D    241
     142       1       0       1       0       0       0               0D    242
     144     386       0       1       0       0       0       000000001D    243
     144       1    -217       1       0       0       0               0D    244
     314     387       0       1       0       0       0       000010001D    245
     314       1       0       2       0       0       0               0D    246
     128     389       0       1       0       0       0       000010001D    247
     128       1       0       3       0       0       0               0D    248
     126     392       0       1       0       0       0       000010501D    249
     126       1       0       2       0       0       0               0D    250
     126     394       0       1       0       0       0       000010501D    251
     126       1       0       2       0       0       0               0D    252
     126     396       0       1       0       0       0       000010501D    253
     126       1       0       2       0       0       0               0D    254
     126     398       0       1       0       0       0       000010501D    255
     126       1       0       2       0       0       0               0D    256
     102     400       0       1       0       0       0       000010501D    257
     102       1       0       1       0       0       0               0D    258
     126     401       0       1       0       0       0       000010001D    259
     126       1       0       3       0       0       0               0D    260
     126     404       0       1       0       0       0       000010001D    261
     126       1       0       2       0       0       0               0D    262
     126     406       0       1       0       0       0       000010001D    263
     126       1       0       3       0       0       0               0D    264
     126     409       0       1       0       0       0       000010001D    265
     126       1       0       2       0       0       0               0D    266
     102     411       0       1       0       0       0       000010001D    267
     102       1       0       1       0       0       0               0D    268
     142     412       0       1       0       0       0       000010001D    269
     142       1       0       1       0       0       0               0D    270
     144     413       0       1       0       0       0       000000001D    271
     144       1    -245       1       0       0       0               0D    272
     314     414       0       1       0       0       0       000010001D    273
     314       1       0       2       0       0       0               0D    274
     128     416       0       1       0       0       0       000010001D    275
     128       1       0       4       0       0       0               0D    276
     126     420       0       1       0       0       0       000010501D    277
     126       1       0       2       0       0       0               0D    278
     126     422       0       1       0       0       0       000010501D    279
     126       1       0       2       0       0       0               0D    280
     126     424       0       1       0       0       0       000010501D    281
     126       1       0       2       0       0       0               0D    282
     126     426       0       1       0       0       0       000010501D    283
     126       1       0       2       0       0       0               0D    284
     102     428       0       1       0       0       0       000010501D    285
     102       1       0       1       0       0       0               0D    286
     126     429       0       1       0       0       0       000010001D    287
     126       1       0       3       0       0       0               0D    288
     126     432       0       1       0       0       0       000010001D    289
     126       1       0       2       0       0       0               0D    290
     126     434       0       1       0       0       0       000010001D    291
     126       1       0       3       0       0       0               0D    292
     126     437       0       1       0       0       0       000010001D    293
     126       1       0       2       0       0       0               0D    294
     102     439       0       1       0       0       0       000010001D    295
     102       1       0       1       0       0       0               0D    296
     142     440       0       1       0       0       0       000010001D    297
     142       1       0       1       0       0       0               0D    298
     144     441       0       1       0       0       0       000000001D    299
     144       1    -273       1       0       0       0               0D    300
     314     442       0       1       0       0       0       000010001D    301
     314       1       0       2       0       0       0               0D    302
     128     444       0       1       0       0       0       000010001D    303
     128       1       0       3       0       0       0               0D    304
     126     447       0       1       0       0       0       000010501D    305
     126       1       0       2       0       0       0               0D    306
     126     449       0       1       0       0       0       000010501D    307
     126       1       0       2       0       0       0               0D    308
     126     451       0       1       0       0       0       000010501D    309
     126       1       0       2       0       0       0               0D    310
     126     453       0       1       0       0       0       000010501D    311
     126       1       0       2       0       0       0               0D    312
     102     455       0       1       0       0       0       000010501D    313
     102       1       0       1       0       0       0               0D    314
     126     456       0       1       0       0       0       000010001D    315
     126       1       0       3       0       0       0               0D    316
     126     459       0       1       0       0       0       000010001D    317
     126       1       0       2       0       0       0               0D    318
     126     461       0       1       0       0       0       000010001D    319
     126       1       0       3       0       0       0               0D    320
     126     464       0       1       0       0       0       000010001D    321
     126       1       0       2       0       0       0               0D    322
     102     466       0       1       0       0       0       000010001D    323
     102       1       0       1       0       0       0               0D    324
     142     467       0       1       0       0       0       000010001D    325
     142       1       0       1       0       0       0               0D    326
     144     468       0       1       0       0       0       000000001D    327
     144       1    -301       1       0       0       0               0D    328
     314     469       0       1       0       0       0       000010001D    329
     314       1       0       2       0       0       0               0D    330
     128     471       0       1       0       0       0       000010001D    331
     128       1       0       3       0       0       0               0D    332
     126     474       0       1       0       0       0       000010501D    333
     126       1       0       2       0       0       0               0D    334
     126     476       0       1       0       0       0       000010501D    335
     126       1       0       2       0       0       0               0D    336
     126     478       0       1       0       0       0       000010501D    337
     126       1       0       2       0       0       0               0D    338
     126     480       0       1       0       0       0       000010501D    339
     126       1       0       2       0       0       0               0D    340
     102     482       0       1       0       0       0       000010501D    341
     102       1       0       1       0       0       0               0D    342
     126     483       0       1       0       0       0       000010001D    343
     126       1       0       3       0       0       0               0D    344
     126     486       0       1       0       0       0       000010001D    345
     126       1       0       2       0       0       0               0D    346
     126     488       0       1       0       0       0       000010001D    347
     126       1       0       3       0       0       0               0D    348
     126     491       0       1       0       0       0       000010001D    349
     126       1       0       2       0       0       0               0D    350
     102     493       0       1       0       0       0       000010001D    351
     102       1       0       1       0       0       0               0D    352
     142     494       0       1       0       0       0       000010001D    353
     142       1       0       1       0       0       0               0D    354
     144     495       0       1       0       0       0       000000001D    355
     144       1    -329       1       0       0       0               0D    356
     314     496       0       1       0       0       0       000010001D    357
     314       1       0       2       0       0       0               0D    358
     128     498       0       1       0       0       0       000010001D    359
     128       1       0       3       0       0       0               0D    360
     126     501       0       1       0       0       0       000010501D    361
     126       1       0       2       0       0       0               0D    362
     126     503       0       1       0       0       0       000010501D    363
     126       1       0       2       0       0       0               0D    364
     126     505       0       1       0       0       0       000010501D    365
     126       1       0       2       0       0       0               0D    366
     126     507       0       1       0       0       0       000010501D    367
     126       1       0       2       0       0       0               0D    368
     102     509       0       1       0       0       0       000010501D    369
     102       1       0       1       0       0       0               0D    370
     126     510       0       1       0       0       0       000010001D    371
     126       1       0       3       0       0       0               0D    372
     126     513       0       1       0       0       0       000010001D    373
     126       1       0       2       0       0       0               0D    374
     126     515       0       1       0       0       0       000010001D    375
     126       1       0       3       0       0       0               0D    376
     126     518       0       1       0       0       0       000010001D    377
     126       1       0       2       0       0       0               0D    378
     102     520       0       1       0       0       0       000010001D    379
     102       1       0       1       0       0       0               0D    380
     142     521       0       1       0       0       0       000010001D    381
     142       1       0       1       0       0       0               0D    382
     144     522       0       1       0       0       0       000000001D    383
     144       1    -357       1       0       0       0               0D    384
     314     523       0       1       0       0       0       000010001D    385
     314       1       0       2       0       0       0               0D    386
     128     525       0       1       0       0       0       000010001D    387
     128       1       0       3       0       0       0               0D    388
     126     528       0       1       0       0       0       000010501D    389
     126       1       0       2       0       0       0               0D    390
     126     530       0       1       0       0       0       000010501D    391
     126       1       0       2       0       0       0               0D    392
     126     532       0       1       0       0       0       000010501D    393
     126       1       0       2       0       0       0               0D    394
     126     534       0       1       0       0       0       000010501D    395
     126       1       0       2       0       0       0               0D    396
     126     536       0       1       0       0       0       000010501D    397
     126       1       0       2       0       0       0               0D    398
     126     538       0       1       0       0       0       000010501D    399
     126       1       0       2       0       0       0               0D    400
     102     540       0       1       0       0       0       000010501D    401
     102       1       0       1       0       0       0               0D    402
     126     541       0       1       0       0       0       000010001D    403
     126       1       0       3       0       0       0               0D    404
     126     544       0       1       0       0       0       000010001D    405
     126       1       0       3       0       0       0               0D    406
     126     547       0       1       0       0       0       000010001D    407
     126       1       0       3       0       0       0               0D    408
     126     550       0       1       0       0       0       000010001D    409
     126       1       0       3       0       0       0               0D    410
     126     553       0       1       0       0       0       000010001D    411
     126       1       0       3       0       0       0               0D    412
     126     556       0       1       0       0       0       000010001D    413
     126       1       0       3       0       0       0               0D    414
     102     559       0       1       0       0       0       000010001D    415
     102       1       0       1       0       0       0               0D    416
     142     560       0       1       0       0       0       000010001D    417
     142       1       0       1       0       0       0               0D    418
     144     561       0       1       0       0       0       000000001D    419
     144       1    -385       1       0       0       0               0D    420
314,18.43137294054031,74.90196228027344,58.03921818733215,10HMix       1P      1
edColor;                                                               1P      2
128,6,2,3,1,1,0,0,1,0,0.,0.,0.,0.,0.5,0.5,0.5,1.,1.,1.,1.,             3P      3
-2.68421052631579,-2.68421052631579,0.,1.,1.,1.,                       3P      4
0.33333333333333,0.33333333333333,1.,0.33333333333333,                 3P      5
0.33333333333333,1.,1.,0.33333333333333,0.33333333333333,1.,           3P      6
0.33333333333333,0.33333333333333,1.,1.,0.33333333333333,              3P      7
0.33333333333333,1.,0.33333333333333,0.33333333333333,1.,-26.,         3P      8
0.,-1.5,-26.00000000000001,3.,-1.5,-26.00000000000001,3.,1.5,          3P      9
-26.,0.,1.5,-26.00000000000001,-3.,1.5,-26.00000000000001,-3.,         3P     10
-1.5,-26.,0.,-1.5,9.7,0.,-1.5,9.7,3.,-1.5,9.7,3.,1.5,9.7,0.,1.5,       3P     11
9.7,-3.,1.5,9.7,-3.,-1.5,9.7,0.,-1.5,23.,0.,-1.5,23.,3.,-1.5,          3P     12
23.,3.,1.5,23.,0.,1.5,23.,-3.,1.5,23.,-3.,-1.5,23.,0.,-1.5,0.,         3P     13
1.,-2.68421052631579,1.;                                               3P     14
126,1,1,1,0,1,0,0.,0.,6.28318530717959,6.28318530717959,1.,1.,         5P     15
0.,0.,0.,1.,0.,0.,0.,6.28318530717959,0.,0.,1.;                        5P     16
126,1,1,1,0,1,0,0.,0.,1.,1.,1.,1.,1.,0.,0.,1.,0.0245,0.,0.,1.,         7P     17
0.,0.,1.;                                                              7P     18
126,1,1,1,0,1,0,0.0112,0.0112,0.0245,0.0245,1.,1.,1.,0.0245,0.,        9P     19
1.,0.0112,0.,0.0112,0.0245,0.,0.,1.;                                   9P     20
126,1,1,1,0,1,0,0.,0.,1.,1.,1.,1.,1.,0.0112,0.,1.,1.,0.,0.,1.,        11P     21
0.,0.,1.;                                                             11P     22
126,1,1,1,0,1,0,-6.28318530717959,-6.28318530717959,0.,0.,1.,1.,      13P     23
1.,1.,0.,0.,1.,0.,-6.28318530717959,0.,0.,0.,1.;                      13P     24
126,1,1,1,0,1,0,0.,0.,1.,1.,1.,1.,0.,1.,0.,0.,-2.68421052631579,      15P     25
0.,0.,1.,0.,0.,1.;                                                    15P     26
126,1,1,1,0,1,0,-0.0245,-0.0245,-0.0112,-0.0112,1.,1.,0.,             17P     27
-2.68421052631579,0.,0.,-1.68421052631579,0.,-0.0245,-0.0112,0.,      17P     28
0.,1.;                                                                17P     29
126,1,1,1,0,1,0,0.,0.,1.,1.,1.,1.,0.,-1.68421052631579,0.,0.,0.,      19P     30
0.,0.,1.,0.,0.,1.;                                                    19P     31
102,8,5,7,9,11,13,15,17,19;                                           21P     32
126,6,3,0,1,0,1,0.,0.,0.,0.,3.14159265358979,3.14159265358979,        23P     33
3.14159265358979,6.28318530717959,6.28318530717959,                   23P     34
6.28318530717959,6.28318530717959,1.,0.33333333333333,                23P     35
0.33333333333333,1.,0.33333333333333,0.33333333333333,1.,9.7,0.,      23P     36
-1.5,9.7,3.,-1.5,9.7,3.,1.5,9.7,0.,1.5,9.7,-3.,1.5,9.7,-3.,-1.5,      23P     37
9.7,0.,-1.5,0.,6.28318530717959;                                      23P     38
126,1,1,0,0,1,0,0.0112,0.0112,0.0245,0.0245,1.,1.,9.7,0.,-1.5,        25P     39
23.,0.,-1.5,0.0112,0.0245;                                            25P     40
126,6,3,0,1,0,1,-6.28318530717959,-6.28318530717959,                  27P     41
-6.28318530717959,-6.28318530717959,-3.14159265358979,                27P     42
-3.14159265358979,-3.14159265358979,0.,0.,0.,0.,1.,                   27P     43
0.33333333333333,0.33333333333333,1.,0.33333333333333,                27P     44
0.33333333333333,1.,23.,0.,-1.5,23.,-3.,-1.5,23.,-3.,1.5,23.,0.,      27P     45
1.5,23.,3.,1.5,23.,3.,-1.5,23.,0.,-1.5,-6.28318530717959,0.;          27P     46
126,1,1,0,0,1,0,-0.0245,-0.0245,-0.0112,-0.0112,1.,1.,23.,0.,         29P     47
-1.5,9.7,0.,-1.5,-0.0245,-0.0112;                                     29P     48
102,4,23,25,27,29;                                                    31P     49
142,1,3,21,31,2;                                                      33P     50
144,3,1,0,33;                                                         35P     51
314,50.58823823928833,52.9411792755127,54.90196347236633,10HMixe      37P     52
dColor;                                                               37P     53
128,1,1,1,1,0,0,1,0,0,0.,0.,1.,1.,0.,0.,1.,1.,1.,1.,1.,1.,23.,        39P     54
-1.518,1.518,23.,-1.518,-1.518,23.,1.518,1.518,23.,1.518,-1.518,      39P     55
0.,1.,0.,1.;                                                          39P     56
126,32,2,1,1,1,1,0.,0.,0.,0.39269908169872,0.39269908169872,          41P     57
0.78539816339745,0.78539816339745,1.17809724509617,                   41P     58
1.17809724509617,1.5707963267949,1.5707963267949,                     41P     59
1.96349540849362,1.96349540849362,2.35619449019234,                   41P     60
2.35619449019234,2.74889357189107,2.74889357189107,                   41P     61
3.14159265358979,3.14159265358979,3.53429173528852,                   41P     62
3.53429173528852,3.92699081698724,3.92699081698724,                   41P     63
4.31968989868597,4.31968989868597,4.71238898038469,                   41P     64
4.71238898038469,5.10508806208341,5.10508806208341,                   41P     65
5.49778714378214,5.49778714378214,5.89048622548086,                   41P     66
5.89048622548086,6.28318530717959,6.28318530717959,                   41P     67
6.28318530717959,1.,1.,1.,1.,1.,1.,1.,1.,1.,1.,1.,1.,1.,1.,1.,        41P     68
1.,1.,1.,1.,1.,1.,1.,1.,1.,1.,1.,1.,1.,1.,1.,1.,1.,1.,                41P     69
0.99407114624506,0.5,0.,0.99407114624506,0.59827686135359,0.,         41P     70
0.9564622196202,0.68907284207761,0.,0.91885329299534,                 41P     71
0.77986882280164,0.,0.84936105789849,0.84936105789849,0.,             41P     72
0.77986882280164,0.91885329299534,0.,0.68907284207761,                41P     73
0.9564622196202,0.,0.59827686135359,0.99407114624506,0.,0.5,          41P     74
0.99407114624506,0.,0.40172313864641,0.99407114624506,0.,             41P     75
0.31092715792239,0.9564622196202,0.,0.22013117719836,                 41P     76
0.91885329299534,0.,0.15063894210151,0.84936105789849,0.,             41P     77
0.08114670700466,0.77986882280164,0.,0.0435377803798,                 41P     78
0.68907284207761,0.,0.00592885375494,0.59827686135359,0.,             41P     79
0.00592885375494,0.5,0.,0.00592885375494,0.40172313864641,0.,         41P     80
0.0435377803798,0.31092715792239,0.,0.08114670700466,                 41P     81
0.22013117719836,0.,0.15063894210151,0.15063894210151,0.,             41P     82
0.22013117719836,0.08114670700466,0.,0.31092715792239,                41P     83
0.0435377803798,0.,0.40172313864641,0.00592885375494,0.,0.5,          41P     84
0.00592885375494,0.,0.59827686135359,0.00592885375494,0.,             41P     85
0.68907284207761,0.0435377803798,0.,0.77986882280164,                 41P     86
0.08114670700466,0.,0.84936105789849,0.15063894210151,0.,             41P     87
0.91885329299534,0.22013117719836,0.,0.9564622196202,                 41P     88
0.31092715792239,0.,0.99407114624506,0.40172313864641,0.,             41P     89
0.99407114624506,0.5,0.,0.,6.28318530717959,0.,0.,1.;                 41P     90
102,1,41;                                                             43P     91
126,6,3,0,1,0,1,0.,0.,0.,0.,3.14159265358979,3.14159265358979,        45P     92
3.14159265358979,6.28318530717959,6.28318530717959,                   45P     93
6.28318530717959,6.28318530717959,1.,0.33333333333333,                45P     94
0.33333333333333,1.,0.33333333333333,0.33333333333333,1.,23.,0.,      45P     95
-1.5,23.,3.,-1.5,23.,3.,1.5,23.,0.,1.5,23.,-3.,1.5,23.,-3.,-1.5,      45P     96
23.,0.,-1.5,0.,6.28318530717959;                                      45P     97
102,1,45;                                                             47P     98
142,1,39,43,47,2;                                                     49P     99
144,39,1,0,49;                                                        51P    100
314,50.58823823928833,52.9411792755127,54.90196347236633,10HMixe      53P    101
dColor;                                                               53P    102
128,6,2,3,1,1,0,0,1,0,0.,0.,0.,0.,0.5,0.5,0.5,1.,1.,1.,1.,            55P    103
-1.41666666666667,-1.41666666666667,0.,1.,1.,1.,                      55P    104
0.33333333333333,0.33333333333333,1.,0.33333333333333,                55P    105
0.33333333333333,1.,1.,0.33333333333333,0.33333333333333,1.,          55P    106
0.33333333333333,0.33333333333333,1.,1.,0.33333333333333,             55P    107
0.33333333333333,1.,0.33333333333333,0.33333333333333,1.,-12.7,       55P    108
0.,-1.5,-12.7,3.,-1.5,-12.7,3.,1.5,-12.7,0.,1.5,-12.7,-3.,1.5,        55P    109
-12.7,-3.,-1.5,-12.7,0.,-1.5,0.9,0.,-1.5,0.9,3.,-1.5,0.9,3.,1.5,      55P    110
0.9,0.,1.5,0.9,-3.,1.5,0.9,-3.,-1.5,0.9,0.,-1.5,10.5,0.,-1.5,         55P    111
10.5,3.,-1.5,10.5,3.,1.5,10.5,0.,1.5,10.5,-3.,1.5,10.5,-3.,-1.5,      55P    112
10.5,0.,-1.5,0.,1.,-1.41666666666667,1.;                              55P    113
126,1,1,1,0,1,0,0.,0.,3.14159265358979,3.14159265358979,1.,1.,        57P    114
0.,0.08333333333333,0.,0.49999999999999,0.08333333333333,0.,0.,       57P    115
3.14159265358979,0.,0.,1.;                                            57P    116
126,1,1,1,0,1,0,3.14159265358979,3.14159265358979,                    59P    117
6.28318530717959,6.28318530717959,1.,1.,0.49999999999999,             59P    118
0.08333333333333,0.,1.,0.08333333333333,0.,3.14159265358979,          59P    119
6.28318530717959,0.,0.,1.;                                            59P    120
126,1,1,1,0,1,0,0.,0.,1.,1.,1.,1.,1.,0.08333333333333,0.,1.,          61P    121
0.09266666666667,0.,0.,1.,0.,0.,1.;                                   61P    122
126,1,1,1,0,1,0,0.0032,0.0032,0.0112,0.0112,1.,1.,1.,                 63P    123
0.09266666666667,0.,1.,0.086,0.,0.0032,0.0112,0.,0.,1.;               63P    124
126,1,1,1,0,1,0,0.,0.,1.,1.,1.,1.,1.,0.086,0.,1.,                     65P    125
0.91666666666667,0.,0.,1.,0.,0.,1.;                                   65P    126
126,1,1,1,0,1,0,-6.28318530717959,-6.28318530717959,0.,0.,1.,1.,      67P    127
1.,0.91666666666667,0.,0.,0.91666666666667,0.,-6.28318530717959,      67P    128
0.,0.,0.,1.;                                                          67P    129
126,1,1,1,0,1,0,0.,0.,1.,1.,1.,1.,0.,0.91666666666667,0.,0.,          69P    130
-1.41666666666667,0.,0.,1.,0.,0.,1.;                                  69P    131
126,1,1,1,0,1,0,-0.0112,-0.0112,-0.0032,-0.0032,1.,1.,0.,             71P    132
-1.41666666666667,0.,0.,-0.58333333333333,0.,-0.0112,-0.0032,0.,      71P    133
0.,1.;                                                                71P    134
126,1,1,1,0,1,0,0.,0.,1.,1.,1.,1.,0.,-0.58333333333333,0.,0.,         73P    135
0.08333333333333,0.,0.,1.,0.,0.,1.;                                   73P    136
102,9,57,59,61,63,65,67,69,71,73;                                     75P    137
126,3,3,0,0,0,0,0.,0.,0.,0.,3.14159265358979,3.14159265358979,        77P    138
3.14159265358979,3.14159265358979,1.,0.33333333333333,                77P    139
0.33333333333333,1.,1.7,0.,-1.5,1.7,3.,-1.5,1.7,3.,1.5,1.7,0.,        77P    140
1.5,0.,3.14159265358979;                                              77P    141
126,3,3,0,0,0,0,3.14159265358979,3.14159265358979,                    79P    142
3.14159265358979,3.14159265358979,6.28318530717959,                   79P    143
6.28318530717959,6.28318530717959,6.28318530717959,1.,                79P    144
0.33333333333333,0.33333333333333,1.,1.7,0.,1.5,1.7,-3.,1.5,1.7,      79P    145
-3.,-1.5,1.7,0.,-1.5,3.14159265358979,6.28318530717959;               79P    146
126,1,1,0,0,1,0,0.0032,0.0032,0.0112,0.0112,1.,1.,1.7,0.,-1.5,        81P    147
9.7,0.,-1.5,0.0032,0.0112;                                            81P    148
126,6,3,0,1,0,1,-6.28318530717959,-6.28318530717959,                  83P    149
-6.28318530717959,-6.28318530717959,-3.14159265358979,                83P    150
-3.14159265358979,-3.14159265358979,0.,0.,0.,0.,1.,                   83P    151
0.33333333333333,0.33333333333333,1.,0.33333333333333,                83P    152
0.33333333333333,1.,9.7,0.,-1.5,9.7,-3.,-1.5,9.7,-3.,1.5,9.7,0.,      83P    153
1.5,9.7,3.,1.5,9.7,3.,-1.5,9.7,0.,-1.5,-6.28318530717959,0.;          83P    154
126,1,1,0,0,1,0,-0.0112,-0.0112,-0.0032,-0.0032,1.,1.,9.7,0.,         85P    155
-1.5,1.7,0.,-1.5,-0.0112,-0.0032;                                     85P    156
102,5,77,79,81,83,85;                                                 87P    157
142,1,55,75,87,2;                                                     89P    158
144,55,1,0,89;                                                        91P    159
314,50.58823823928833,52.9411792755127,54.90196347236633,10HMixe      93P    160
dColor;                                                               93P    161
128,2,6,1,3,0,1,0,0,1,0.,0.,1.,1.90909090909091,                      95P    162
1.90909090909091,0.,0.,0.,0.,0.5,0.5,0.5,1.,1.,1.,1.,1.,1.,1.,        95P    163
0.33333333333333,0.33333333333333,0.33333333333333,                   95P    164
0.33333333333333,0.33333333333333,0.33333333333333,1.,1.,1.,          95P    165
0.33333333333333,0.33333333333333,0.33333333333333,                   95P    166
0.33333333333333,0.33333333333333,0.33333333333333,1.,1.,1.,          95P    167
0.05,0.,3.15,1.7,0.,1.5,3.2,0.,-0.,0.05,6.3,3.15,1.7,3.,1.5,3.2,      95P    168
-0.,-0.,0.05,6.3,-3.15,1.7,3.,-1.5,3.2,-0.,0.,0.05,0.,-3.15,1.7,      95P    169
0.,-1.5,3.2,0.,0.,0.05,-6.3,-3.15,1.7,-3.,-1.5,3.2,0.,0.,0.05,        95P    170
-6.3,3.15,1.7,-3.,1.5,3.2,0.,-0.,0.05,0.,3.15,1.7,0.,1.5,3.2,0.,      95P    171
-0.,0.,1.90909090909091,0.,1.;                                        95P    172
126,1,1,1,0,1,0,-3.14159265358979,-3.14159265358979,0.,0.,1.,1.,      97P    173
1.,0.,0.,1.,0.5,0.,-3.14159265358979,0.,0.,0.,1.;                     97P    174
126,1,1,1,0,1,0,-6.28318530717959,-6.28318530717959,                  99P    175
-3.14159265358979,-3.14159265358979,1.,1.,1.,0.5,0.,1.,1.,0.,         99P    176
-6.28318530717959,-3.14159265358979,0.,0.,1.;                         99P    177
126,1,1,1,0,1,0,0.,0.,1.,1.,1.,1.,1.,1.,0.,0.9980715269604,1.,       101P    178
0.,0.,1.,0.,0.,1.;                                                   101P    179
126,1,1,1,0,1,0,0.,0.,0.00212132034356,0.00212132034356,1.,1.,       103P    180
0.9980715269604,1.,0.,1.,1.,0.,0.,0.00212132034356,0.,0.,1.;         103P    181
126,1,1,1,0,1,0,0.,0.,1.,1.,1.,1.,1.,1.,0.,0.09090909090909,1.,      105P    182
0.,0.,1.,0.,0.,1.;                                                   105P    183
126,1,1,1,0,1,0,3.14159265358979,3.14159265358979,                   107P    184
6.28318530717959,6.28318530717959,1.,1.,0.09090909090909,1.,0.,      107P    185
0.09090909090909,0.5,0.,3.14159265358979,6.28318530717959,0.,0.,     107P    186
1.;                                                                  107P    187
126,1,1,1,0,1,0,0.,0.,3.14159265358979,3.14159265358979,1.,1.,       109P    188
0.09090909090909,0.5,0.,0.09090909090909,0.,0.,0.,                   109P    189
3.14159265358979,0.,0.,1.;                                           109P    190
126,1,1,1,0,1,0,0.,0.,1.,1.,1.,1.,0.09090909090909,0.,0.,            111P    191
1.90909090909091,0.,0.,0.,1.,0.,0.,1.;                               111P    192
126,1,1,1,0,1,0,-0.00212132034356,-0.00212132034356,0.,0.,1.,1.,     113P    193
1.90909090909091,0.,0.,1.,0.,0.,-0.00212132034356,0.,0.,0.,1.;       113P    194
102,9,97,99,101,103,105,107,109,111,113;                             115P    195
126,3,3,0,0,0,0,-3.14159265358979,-3.14159265358979,                 117P    196
-3.14159265358979,-3.14159265358979,0.,0.,0.,0.,1.,                  117P    197
0.33333333333333,0.33333333333333,1.,1.7,0.,1.5,1.7,3.,1.5,1.7,      117P    198
3.,-1.5,1.7,0.,-1.5,-3.14159265358979,0.;                            117P    199
126,3,3,0,0,0,0,-6.28318530717959,-6.28318530717959,                 119P    200
-6.28318530717959,-6.28318530717959,-3.14159265358979,               119P    201
-3.14159265358979,-3.14159265358979,-3.14159265358979,1.,            119P    202
0.33333333333333,0.33333333333333,1.,1.7,0.,-1.5,1.7,-3.,-1.5,       119P    203
1.7,-3.,1.5,1.7,0.,1.5,-6.28318530717959,-3.14159265358979;          119P    204
126,1,1,0,0,1,0,0.,0.,0.00212132034356,0.00212132034356,1.,1.,       121P    205
1.7,0.,1.5,0.2,0.,3.,0.,0.00212132034356;                            121P    206
126,3,3,0,0,0,0,3.14159265358979,3.14159265358979,                   123P    207
3.14159265358979,3.14159265358979,6.28318530717959,                  123P    208
6.28318530717959,6.28318530717959,6.28318530717959,1.,               123P    209
0.33333333333333,0.33333333333333,1.,0.2,0.,3.,0.2,-6.,3.,0.2,       123P    210
-6.,-3.,0.2,0.,-3.,3.14159265358979,6.28318530717959;                123P    211
126,3,3,0,0,0,0,0.,0.,0.,0.,3.14159265358979,3.14159265358979,       125P    212
3.14159265358979,3.14159265358979,1.,0.33333333333333,               125P    213
0.33333333333333,1.,0.2,0.,-3.,0.2,6.,-3.,0.2,6.,3.,0.2,0.,3.,       125P    214
0.,3.14159265358979;                                                 125P    215
126,1,1,0,0,1,0,-0.00212132034356,-0.00212132034356,0.,0.,1.,1.,     127P    216
0.2,0.,3.,1.7,0.,1.5,-0.00212132034356,0.;                           127P    217
102,6,117,119,121,123,125,127;                                       129P    218
142,1,95,115,129,2;                                                  131P    219
144,95,1,0,131;                                                      133P    220
314,50.58823823928833,52.9411792755127,54.90196347236633,10HMixe     135P    221
dColor;                                                              135P    222
128,6,1,3,1,1,0,0,1,0,0.,0.,0.,0.,0.5,0.5,0.5,1.,1.,1.,1.,0.,0.,     137P    223
1.,1.,1.,0.33333333333333,0.33333333333333,1.,0.33333333333333,      137P    224
0.33333333333333,1.,1.,0.33333333333333,0.33333333333333,1.,         137P    225
0.33333333333333,0.33333333333333,1.,-0.02,0.,-3.,-0.02,6.,-3.,      137P    226
-0.02,6.,3.,-0.02,0.,3.,-0.02,-6.,3.,-0.02,-6.,-3.,-0.02,0.,-3.,     137P    227
0.22,0.,-3.,0.22,6.,-3.,0.22,6.,3.,0.22,0.,3.,0.22,-6.,3.,0.22,      137P    228
-6.,-3.,0.22,0.,-3.,0.,1.,0.,1.;                                     137P    229
126,1,1,1,0,1,0,0.,0.,6.28318530717959,6.28318530717959,1.,1.,       139P    230
0.,0.08333333333333,0.,1.,0.08333333333333,0.,0.,                    139P    231
6.28318530717959,0.,0.,1.;                                           139P    232
126,1,1,1,0,1,0,0.,0.,1.,1.,1.,1.,1.,0.08333333333333,0.,1.,         141P    233
0.08475,0.,0.,1.,0.,0.,1.;                                           141P    234
126,1,1,1,0,1,0,0.0015,0.0015,0.0017,0.0017,1.,1.,1.,0.08475,0.,     143P    235
1.,0.08458333333333,0.,0.0015,0.0017,0.,0.,1.;                       143P    236
126,1,1,1,0,1,0,0.,0.,1.,1.,1.,1.,1.,0.08458333333333,0.,1.,         145P    237
0.91666666666667,0.,0.,1.,0.,0.,1.;                                  145P    238
126,1,1,1,0,1,0,-6.28318530717959,-6.28318530717959,                 147P    239
-3.14159265358979,-3.14159265358979,1.,1.,1.,0.91666666666667,       147P    240
0.,0.5,0.91666666666667,0.,-6.28318530717959,-3.14159265358979,      147P    241
0.,0.,1.;                                                            147P    242
126,1,1,1,0,1,0,-3.14159265358979,-3.14159265358979,0.,0.,1.,1.,     149P    243
0.5,0.91666666666667,0.,0.,0.91666666666667,0.,                      149P    244
-3.14159265358979,0.,0.,0.,1.;                                       149P    245
126,2,2,1,0,1,0,-0.0017,-0.0017,-0.0017,-0.0015,-0.0015,-0.0015,     151P    246
1.,1.,1.,0.,0.91666666666667,0.,0.,0.5,0.,0.,0.08333333333333,       151P    247
0.,-0.0017,-0.0015,0.,0.,1.;                                         151P    248
102,7,139,141,143,145,147,149,151;                                   153P    249
126,6,3,0,1,0,1,0.,0.,0.,0.,3.14159265358979,3.14159265358979,       155P    250
3.14159265358979,6.28318530717959,6.28318530717959,                  155P    251
6.28318530717959,6.28318530717959,1.,0.33333333333333,               155P    252
0.33333333333333,1.,0.33333333333333,0.33333333333333,1.,0.,0.,      155P    253
-3.,0.,6.,-3.,0.,6.,3.,0.,0.,3.,0.,-6.,3.,0.,-6.,-3.,0.,0.,-3.,      155P    254
0.,6.28318530717959;                                                 155P    255
126,1,1,0,0,1,0,0.0015,0.0015,0.0017,0.0017,1.,1.,0.,0.,-3.,0.2,     157P    256
0.,-3.,0.0015,0.0017;                                                157P    257
126,3,3,0,0,0,0,-6.28318530717959,-6.28318530717959,                 159P    258
-6.28318530717959,-6.28318530717959,-3.14159265358979,               159P    259
-3.14159265358979,-3.14159265358979,-3.14159265358979,1.,            159P    260
0.33333333333333,0.33333333333333,1.,0.2,0.,-3.,0.2,-6.,-3.,0.2,     159P    261
-6.,3.,0.2,0.,3.,-6.28318530717959,-3.14159265358979;                159P    262
126,3,3,0,0,0,0,-3.14159265358979,-3.14159265358979,                 161P    263
-3.14159265358979,-3.14159265358979,0.,0.,0.,0.,1.,                  161P    264
0.33333333333333,0.33333333333333,1.,0.2,0.,3.,0.2,6.,3.,0.2,6.,     161P    265
-3.,0.2,0.,-3.,-3.14159265358979,0.;                                 161P    266
126,1,1,0,0,1,0,-0.0017,-0.0017,-0.0015,-0.0015,1.,1.,0.2,0.,        163P    267
-3.,0.,0.,-3.,-0.0017,-0.0015;                                       163P    268
102,5,155,157,159,161,163;                                           165P    269
142,1,137,153,165,2;                                                 167P    270
144,137,1,0,167;                                                     169P    271
314,50.58823823928833,52.9411792755127,54.90196347236633,10HMixe     171P    272
dColor;                                                              171P    273
128,1,1,1,1,0,0,1,0,0,0.,0.,1.,1.,0.,0.,1.,1.,1.,1.,1.,1.,0.,        173P    274
-3.036,-3.036,0.,-3.036,3.036,0.,3.036,-3.036,0.,3.036,3.036,0.,     173P    275
1.,0.,1.;                                                            173P    276
126,32,2,1,1,1,1,-6.28318530717959,-6.28318530717959,                175P    277
-6.28318530717959,-5.89048622548086,-5.89048622548086,               175P    278
-5.49778714378214,-5.49778714378214,-5.10508806208341,               175P    279
-5.10508806208341,-4.71238898038469,-4.71238898038469,               175P    280
-4.31968989868597,-4.31968989868597,-3.92699081698724,               175P    281
-3.92699081698724,-3.53429173528852,-3.53429173528852,               175P    282
-3.14159265358979,-3.14159265358979,-2.74889357189107,               175P    283
-2.74889357189107,-2.35619449019234,-2.35619449019234,               175P    284
-1.96349540849362,-1.96349540849362,-1.5707963267949,                175P    285
-1.5707963267949,-1.17809724509617,-1.17809724509617,                175P    286
-0.78539816339745,-0.78539816339745,-0.39269908169872,               175P    287
-0.39269908169872,0.,0.,0.,1.,1.,1.,1.,1.,1.,1.,1.,1.,1.,1.,1.,      175P    288
1.,1.,1.,1.,1.,1.,1.,1.,1.,1.,1.,1.,1.,1.,1.,1.,1.,1.,1.,1.,1.,      175P    289
0.00592885375494,0.5,0.,0.00592885375494,0.40172313864641,0.,        175P    290
0.0435377803798,0.31092715792239,0.,0.08114670700466,                175P    291
0.22013117719836,0.,0.15063894210151,0.15063894210151,0.,            175P    292
0.22013117719836,0.08114670700466,0.,0.31092715792239,               175P    293
0.0435377803798,0.,0.40172313864641,0.00592885375494,0.,0.5,         175P    294
0.00592885375494,0.,0.59827686135359,0.00592885375494,0.,            175P    295
0.68907284207761,0.0435377803798,0.,0.77986882280164,                175P    296
0.08114670700466,0.,0.84936105789849,0.15063894210151,0.,            175P    297
0.91885329299534,0.22013117719836,0.,0.9564622196202,                175P    298
0.31092715792239,0.,0.99407114624506,0.40172313864641,0.,            175P    299
0.99407114624506,0.5,0.,0.99407114624506,0.59827686135359,0.,        175P    300
0.9564622196202,0.68907284207761,0.,0.91885329299534,                175P    301
0.77986882280164,0.,0.84936105789849,0.84936105789849,0.,            175P    302
0.77986882280164,0.91885329299534,0.,0.68907284207761,               175P    303
0.9564622196202,0.,0.59827686135359,0.99407114624506,0.,0.5,         175P    304
0.99407114624506,0.,0.40172313864641,0.99407114624506,0.,            175P    305
0.31092715792239,0.9564622196202,0.,0.22013117719836,                175P    306
0.91885329299534,0.,0.15063894210151,0.84936105789849,0.,            175P    307
0.08114670700466,0.77986882280164,0.,0.0435377803798,                175P    308
0.68907284207761,0.,0.00592885375494,0.59827686135359,0.,            175P    309
0.00592885375494,0.5,0.,-6.28318530717959,0.,0.,0.,1.;               175P    310
102,1,175;                                                           177P    311
126,6,3,0,1,0,1,-6.28318530717959,-6.28318530717959,                 179P    312
-6.28318530717959,-6.28318530717959,-3.14159265358979,               179P    313
-3.14159265358979,-3.14159265358979,0.,0.,0.,0.,1.,                  179P    314
0.33333333333333,0.33333333333333,1.,0.33333333333333,               179P    315
0.33333333333333,1.,0.,0.,-3.,0.,-6.,-3.,0.,-6.,3.,0.,0.,3.,0.,      179P    316
6.,3.,0.,6.,-3.,0.,0.,-3.,-6.28318530717959,0.;                      179P    317
102,1,179;                                                           181P    318
142,1,173,177,181,2;                                                 183P    319
126,1,1,1,0,1,0,-0.0012124355653,-0.0012124355653,0.,0.,1.,1.,       185P    320
0.40016176175081,0.67292490118577,0.,0.59983823824919,               185P    321
0.67292490118577,0.,-0.0012124355653,0.,0.,0.,1.;                    185P    322
126,1,1,1,0,1,0,-0.0012124355653,-0.0012124355653,0.,0.,1.,1.,       187P    323
0.59983823824919,0.67292490118577,0.,0.69967647649839,0.5,0.,        187P    324
-0.0012124355653,0.,0.,0.,1.;                                        187P    325
126,1,1,1,0,1,0,-0.0012124355653,-0.0012124355653,0.,0.,1.,1.,       189P    326
0.69967647649839,0.5,0.,0.59983823824919,0.32707509881423,0.,        189P    327
-0.0012124355653,0.,0.,0.,1.;                                        189P    328
126,1,1,1,0,1,0,-0.0012124355653,-0.0012124355653,0.,0.,1.,1.,       191P    329
0.59983823824919,0.32707509881423,0.,0.40016176175081,               191P    330
0.32707509881423,0.,-0.0012124355653,0.,0.,0.,1.;                    191P    331
126,1,1,1,0,1,0,-0.0012124355653,-0.0012124355653,0.,0.,1.,1.,       193P    332
0.40016176175081,0.32707509881423,0.,0.30032352350161,0.5,0.,        193P    333
-0.0012124355653,0.,0.,0.,1.;                                        193P    334
126,1,1,1,0,1,0,-0.0012124355653,-0.0012124355653,0.,0.,1.,1.,       195P    335
0.30032352350161,0.5,0.,0.40016176175081,0.67292490118577,0.,        195P    336
-0.0012124355653,0.,0.,0.,1.;                                        195P    337
102,6,185,187,189,191,193,195;                                       197P    338
126,1,1,0,0,1,0,-0.0012124355653,-0.0012124355653,0.,0.,1.,1.,       199P    339
0.,1.05,-0.60621778264911,0.,1.05,0.60621778264911,                  199P    340
-0.0012124355653,0.;                                                 199P    341
126,1,1,0,0,1,0,-0.0012124355653,-0.0012124355653,0.,0.,1.,1.,       201P    342
0.,1.05,0.60621778264911,0.,-0.,1.21243556529821,                    201P    343
-0.0012124355653,0.;                                                 201P    344
126,1,1,0,0,1,0,-0.0012124355653,-0.0012124355653,0.,0.,1.,1.,       203P    345
0.,0.,1.21243556529822,0.,-1.05,0.60621778264911,                    203P    346
-0.0012124355653,0.;                                                 203P    347
126,1,1,0,0,1,0,-0.0012124355653,-0.0012124355653,0.,0.,1.,1.,       205P    348
0.,-1.05,0.60621778264911,0.,-1.05,-0.6062177826491,                 205P    349
-0.0012124355653,0.;                                                 205P    350
126,1,1,0,0,1,0,-0.0012124355653,-0.0012124355653,0.,0.,1.,1.,       207P    351
0.,-1.05,-0.60621778264911,0.,-0.,-1.21243556529821,                 207P    352
-0.0012124355653,0.;                                                 207P    353
126,1,1,0,0,1,0,-0.0012124355653,-0.0012124355653,0.,0.,1.,1.,       209P    354
0.,-0.,-1.21243556529822,0.,1.05,-0.60621778264911,                  209P    355
-0.0012124355653,0.;                                                 209P    356
102,6,199,201,203,205,207,209;                                       211P    357
142,1,173,197,211,2;                                                 213P    358
144,173,1,1,183,213;                                                 215P    359
314,50.58823823928833,52.9411792755127,54.90196347236633,10HMixe     217P    360
dColor;                                                              217P    361
128,1,1,1,1,0,0,1,0,0,-1.,-1.,0.,0.,0.,0.,1.,1.,1.,1.,1.,1.,0.,      219P    362
1.05,0.60621778264911,0.,1.05,-0.60621778264911,1.2,1.05,            219P    363
0.60621778264911,1.2,1.05,-0.60621778264911,-1.,0.,0.,1.;            219P    364
126,1,1,1,0,1,0,0.,0.,0.0012124355653,0.0012124355653,1.,1.,-1.,     221P    365
0.,0.,0.,0.,0.,0.,0.0012124355653,0.,0.,1.;                          221P    366
126,1,1,1,0,1,0,-0.0012,-0.0012,0.,0.,1.,1.,0.,0.,0.,0.,1.,0.,       223P    367
-0.0012,0.,0.,0.,1.;                                                 223P    368
126,1,1,1,0,1,0,-0.0012124355653,-0.0012124355653,0.,0.,1.,1.,       225P    369
0.,1.,0.,-1.,1.,0.,-0.0012124355653,0.,0.,0.,1.;                     225P    370
126,1,1,1,0,1,0,0.,0.,0.0012,0.0012,1.,1.,-1.,1.,0.,-1.,0.,0.,       227P    371
0.,0.0012,0.,0.,1.;                                                  227P    372
102,4,221,223,225,227;                                               229P    373
126,1,1,0,0,1,0,0.,0.,0.0012124355653,0.0012124355653,1.,1.,0.,      231P    374
1.05,0.60621778264911,0.,1.05,-0.60621778264911,0.,                  231P    375
0.0012124355653;                                                     231P    376
126,1,1,0,0,1,0,-0.0012,-0.0012,0.,0.,1.,1.,0.,1.05,                 233P    377
-0.60621778264911,1.2,1.05,-0.60621778264911,-0.0012,0.;             233P    378
126,1,1,0,0,1,0,-0.0012124355653,-0.0012124355653,0.,0.,1.,1.,       235P    379
1.2,1.05,-0.60621778264911,1.2,1.05,0.60621778264911,                235P    380
-0.0012124355653,0.;                                                 235P    381
126,1,1,0,0,1,0,0.,0.,0.0012,0.0012,1.,1.,1.2,1.05,                  237P    382
0.60621778264911,0.,1.05,0.60621778264911,0.,0.0012;                 237P    383
102,4,231,233,235,237;                                               239P    384
142,1,219,229,239,2;                                                 241P    385
144,219,1,0,241;                                                     243P    386
314,50.58823823928833,52.9411792755127,54.90196347236633,10HMixe     245P    387
dColor;                                                              245P    388
128,1,1,1,1,0,0,1,0,0,-1.,-1.,0.,0.,0.,0.,1.,1.,1.,1.,1.,1.,-0.,     247P    389
1.05,-0.60621778264911,-0.,-0.,-1.21243556529822,1.2,1.05,           247P    390
-0.60621778264911,1.2,-0.,-1.21243556529822,-1.,0.,0.,1.;            247P    391
126,1,1,1,0,1,0,0.,0.,0.0012124355653,0.0012124355653,1.,1.,-1.,     249P    392
0.,0.,0.,0.,0.,0.,0.0012124355653,0.,0.,1.;                          249P    393
126,1,1,1,0,1,0,-0.0012,-0.0012,0.,0.,1.,1.,0.,0.,0.,0.,1.,0.,       251P    394
-0.0012,0.,0.,0.,1.;                                                 251P    395
126,1,1,1,0,1,0,-0.0012124355653,-0.0012124355653,0.,0.,1.,1.,       253P    396
0.,1.,0.,-1.,1.,0.,-0.0012124355653,0.,0.,0.,1.;                     253P    397
126,1,1,1,0,1,0,0.,0.,0.0012,0.0012,1.,1.,-1.,1.,0.,-1.,0.,0.,       255P    398
0.,0.0012,0.,0.,1.;                                                  255P    399
102,4,249,251,253,255;                                               257P    400
126,1,1,0,0,1,0,0.,0.,0.0012124355653,0.0012124355653,1.,1.,0.,      259P    401
1.05,-0.60621778264911,0.,-0.,-1.21243556529822,0.,                  259P    402
0.0012124355653;                                                     259P    403
126,1,1,0,0,1,0,-0.0012,-0.0012,0.,0.,1.,1.,0.,-0.,                  261P    404
-1.21243556529821,1.2,-0.,-1.21243556529821,-0.0012,0.;              261P    405
126,1,1,0,0,1,0,-0.0012124355653,-0.0012124355653,0.,0.,1.,1.,       263P    406
1.2,-0.,-1.21243556529822,1.2,1.05,-0.60621778264911,                263P    407
-0.0012124355653,0.;                                                 263P    408
126,1,1,0,0,1,0,0.,0.,0.0012,0.0012,1.,1.,1.2,1.05,                  265P    409
-0.60621778264911,0.,1.05,-0.60621778264911,0.,0.0012;               265P    410
102,4,259,261,263,265;                                               267P    411
142,1,247,257,267,2;                                                 269P    412
144,247,1,0,269;                                                     271P    413
314,50.58823823928833,52.9411792755127,54.90196347236633,10HMixe     273P    414
dColor;                                                              273P    415
128,1,1,1,1,0,0,1,0,0,-1.,-1.,0.,0.,0.,0.,1.,1.,1.,1.,1.,1.,         275P    416
0.00000000000001,-0.,-1.21243556529821,0.00000000000001,-1.05,       275P    417
-0.60621778264911,1.2,-0.,-1.21243556529821,1.2,-1.05,               275P    418
-0.60621778264911,-1.,0.,0.,1.;                                      275P    419
126,1,1,1,0,1,0,0.,0.,0.0012124355653,0.0012124355653,1.,1.,-1.,     277P    420
0.,0.,0.,0.,0.,0.,0.0012124355653,0.,0.,1.;                          277P    421
126,1,1,1,0,1,0,-0.0012,-0.0012,0.,0.,1.,1.,0.,0.,0.,0.,1.,0.,       279P    422
-0.0012,0.,0.,0.,1.;                                                 279P    423
126,1,1,1,0,1,0,-0.0012124355653,-0.0012124355653,0.,0.,1.,1.,       281P    424
0.,1.,0.,-1.,1.,0.,-0.0012124355653,0.,0.,0.,1.;                     281P    425
126,1,1,1,0,1,0,0.,0.,0.0012,0.0012,1.,1.,-1.,1.,0.,-1.,0.,0.,       283P    426
0.,0.0012,0.,0.,1.;                                                  283P    427
102,4,277,279,281,283;                                               285P    428
126,1,1,0,0,1,0,0.,0.,0.0012124355653,0.0012124355653,1.,1.,0.,      287P    429
-0.,-1.21243556529821,0.,-1.05,-0.60621778264911,0.,                 287P    430
0.0012124355653;                                                     287P    431
126,1,1,0,0,1,0,-0.0012,-0.0012,0.,0.,1.,1.,0.,-1.05,                289P    432
-0.6062177826491,1.2,-1.05,-0.6062177826491,-0.0012,0.;              289P    433
126,1,1,0,0,1,0,-0.0012124355653,-0.0012124355653,0.,0.,1.,1.,       291P    434
1.2,-1.05,-0.60621778264911,1.2,-0.,-1.21243556529821,               291P    435
-0.0012124355653,0.;                                                 291P    436
126,1,1,0,0,1,0,0.,0.,0.0012,0.0012,1.,1.,1.2,-0.,                   293P    437
-1.21243556529821,0.,-0.,-1.21243556529821,0.,0.0012;                293P    438
102,4,287,289,291,293;                                               295P    439
142,1,275,285,295,2;                                                 297P    440
144,275,1,0,297;                                                     299P    441
314,50.58823823928833,52.9411792755127,54.90196347236633,10HMixe     301P    442
dColor;                                                              301P    443
128,1,1,1,1,0,0,1,0,0,-1.,-1.,0.,0.,0.,0.,1.,1.,1.,1.,1.,1.,0.,      303P    444
-1.05,-0.6062177826491,0.,-1.05,0.60621778264911,1.2,-1.05,          303P    445
-0.6062177826491,1.2,-1.05,0.60621778264911,-1.,0.,0.,1.;            303P    446
126,1,1,1,0,1,0,0.,0.,0.0012124355653,0.0012124355653,1.,1.,-1.,     305P    447
0.,0.,0.,0.,0.,0.,0.0012124355653,0.,0.,1.;                          305P    448
126,1,1,1,0,1,0,-0.0012,-0.0012,0.,0.,1.,1.,0.,0.,0.,0.,1.,0.,       307P    449
-0.0012,0.,0.,0.,1.;                                                 307P    450
126,1,1,1,0,1,0,-0.0012124355653,-0.0012124355653,0.,0.,1.,1.,       309P    451
0.,1.,0.,-1.,1.,0.,-0.0012124355653,0.,0.,0.,1.;                     309P    452
126,1,1,1,0,1,0,0.,0.,0.0012,0.0012,1.,1.,-1.,1.,0.,-1.,0.,0.,       311P    453
0.,0.0012,0.,0.,1.;                                                  311P    454
102,4,305,307,309,311;                                               313P    455
126,1,1,0,0,1,0,0.,0.,0.0012124355653,0.0012124355653,1.,1.,0.,      315P    456
-1.05,-0.6062177826491,0.,-1.05,0.60621778264911,0.,                 315P    457
0.0012124355653;                                                     315P    458
126,1,1,0,0,1,0,-0.0012,-0.0012,0.,0.,1.,1.,0.,-1.05,                317P    459
0.60621778264911,1.2,-1.05,0.60621778264911,-0.0012,0.;              317P    460
126,1,1,0,0,1,0,-0.0012124355653,-0.0012124355653,0.,0.,1.,1.,       319P    461
1.2,-1.05,0.60621778264911,1.2,-1.05,-0.6062177826491,               319P    462
-0.0012124355653,0.;                                                 319P    463
126,1,1,0,0,1,0,0.,0.,0.0012,0.0012,1.,1.,1.2,-1.05,                 321P    464
-0.6062177826491,0.,-1.05,-0.6062177826491,0.,0.0012;                321P    465
102,4,315,317,319,321;                                               323P    466
142,1,303,313,323,2;                                                 325P    467
144,303,1,0,325;                                                     327P    468
314,50.58823823928833,52.9411792755127,54.90196347236633,10HMixe     329P    469
dColor;                                                              329P    470
128,1,1,1,1,0,0,1,0,0,-1.,-1.,0.,0.,0.,0.,1.,1.,1.,1.,1.,1.,-0.,     331P    471
-1.05,0.60621778264911,-0.,0.,1.21243556529822,1.2,-1.05,            331P    472
0.60621778264911,1.2,0.,1.21243556529822,-1.,0.,0.,1.;               331P    473
126,1,1,1,0,1,0,0.,0.,0.0012124355653,0.0012124355653,1.,1.,-1.,     333P    474
0.,0.,0.,0.,0.,0.,0.0012124355653,0.,0.,1.;                          333P    475
126,1,1,1,0,1,0,-0.0012,-0.0012,0.,0.,1.,1.,0.,0.,0.,0.,1.,0.,       335P    476
-0.0012,0.,0.,0.,1.;                                                 335P    477
126,1,1,1,0,1,0,-0.0012124355653,-0.0012124355653,0.,0.,1.,1.,       337P    478
0.,1.,0.,-1.,1.,0.,-0.0012124355653,0.,0.,0.,1.;                     337P    479
126,1,1,1,0,1,0,0.,0.,0.0012,0.0012,1.,1.,-1.,1.,0.,-1.,0.,0.,       339P    480
0.,0.0012,0.,0.,1.;                                                  339P    481
102,4,333,335,337,339;                                               341P    482
126,1,1,0,0,1,0,0.,0.,0.0012124355653,0.0012124355653,1.,1.,0.,      343P    483
-1.05,0.60621778264911,0.,0.,1.21243556529822,0.,                    343P    484
0.0012124355653;                                                     343P    485
126,1,1,0,0,1,0,-0.0012,-0.0012,0.,0.,1.,1.,0.,0.,                   345P    486
1.21243556529821,1.2,0.,1.21243556529821,-0.0012,0.;                 345P    487
126,1,1,0,0,1,0,-0.0012124355653,-0.0012124355653,0.,0.,1.,1.,       347P    488
1.2,0.,1.21243556529822,1.2,-1.05,0.60621778264911,                  347P    489
-0.0012124355653,0.;                                                 347P    490
126,1,1,0,0,1,0,0.,0.,0.0012,0.0012,1.,1.,1.2,-1.05,                 349P    491
0.60621778264911,0.,-1.05,0.60621778264911,0.,0.0012;                349P    492
102,4,343,345,347,349;                                               351P    493
142,1,331,341,351,2;                                                 353P    494
144,331,1,0,353;                                                     355P    495
314,50.58823823928833,52.9411792755127,54.90196347236633,10HMixe     357P    496
dColor;                                                              357P    497
128,1,1,1,1,0,0,1,0,0,-1.,-1.,0.,0.,0.,0.,1.,1.,1.,1.,1.,1.,0.,      359P    498
0.,1.21243556529821,0.,1.05,0.60621778264911,1.2,0.,                 359P    499
1.21243556529821,1.2,1.05,0.60621778264911,-1.,0.,0.,1.;             359P    500
126,1,1,1,0,1,0,0.,0.,0.0012124355653,0.0012124355653,1.,1.,-1.,     361P    501
0.,0.,0.,0.,0.,-0.,0.0012124355653,0.,0.,1.;                         361P    502
126,1,1,1,0,1,0,-0.0012,-0.0012,0.,0.,1.,1.,0.,0.,0.,0.,1.,0.,       363P    503
-0.0012,0.,0.,0.,1.;                                                 363P    504
126,1,1,1,0,1,0,-0.0012124355653,-0.0012124355653,0.,0.,1.,1.,       365P    505
0.,1.,0.,-1.,1.,0.,-0.0012124355653,0.,0.,0.,1.;                     365P    506
126,1,1,1,0,1,0,0.,0.,0.0012,0.0012,1.,1.,-1.,1.,0.,-1.,0.,0.,       367P    507
0.,0.0012,0.,0.,1.;                                                  367P    508
102,4,361,363,365,367;                                               369P    509
126,1,1,0,0,1,0,-0.,-0.,0.0012124355653,0.0012124355653,1.,1.,       371P    510
0.,-0.,1.21243556529821,0.,1.05,0.60621778264911,-0.,                371P    511
0.0012124355653;                                                     371P    512
126,1,1,0,0,1,0,-0.0012,-0.0012,0.,0.,1.,1.,0.,1.05,                 373P    513
0.60621778264911,1.2,1.05,0.60621778264911,-0.0012,0.;               373P    514
126,1,1,0,0,1,0,-0.0012124355653,-0.0012124355653,0.,0.,1.,1.,       375P    515
1.2,1.05,0.60621778264911,1.2,0.,1.21243556529821,                   375P    516
-0.0012124355653,0.;                                                 375P    517
126,1,1,0,0,1,0,0.,0.,0.0012,0.0012,1.,1.,1.2,0.,                    377P    518
1.21243556529821,0.,0.,1.21243556529821,0.,0.0012;                   377P    519
102,4,371,373,375,377;                                               379P    520
142,1,359,369,379,2;                                                 381P    521
144,359,1,0,381;                                                     383P    522
314,50.58823823928833,52.9411792755127,54.90196347236633,10HMixe     385P    523
dColor;                                                              385P    524
128,1,1,1,1,0,0,1,0,0,0.,0.,1.,1.,0.,0.,1.,1.,1.,1.,1.,1.,1.2,       387P    525
1.05,-1.21243556529821,1.2,-1.05,-1.21243556529821,1.2,1.05,         387P    526
1.21243556529821,1.2,-1.05,1.21243556529821,0.,1.,0.,1.;             387P    527
126,1,1,1,0,1,0,0.,0.,0.0012124355653,0.0012124355653,1.,1.,0.,      389P    528
0.75,0.,0.,0.25,0.,0.,0.0012124355653,0.,0.,1.;                      389P    529
126,1,1,1,0,1,0,0.,0.,0.0012124355653,0.0012124355653,1.,1.,0.,      391P    530
0.25,0.,0.5,0.,0.,0.,0.0012124355653,0.,0.,1.;                       391P    531
126,1,1,1,0,1,0,0.,0.,0.0012124355653,0.0012124355653,1.,1.,0.5,     393P    532
0.,0.,1.,0.25,0.,0.,0.0012124355653,0.,0.,1.;                        393P    533
126,1,1,1,0,1,0,0.,0.,0.0012124355653,0.0012124355653,1.,1.,1.,      395P    534
0.25,0.,1.,0.75,0.,0.,0.0012124355653,0.,0.,1.;                      395P    535
126,1,1,1,0,1,0,0.,0.,0.0012124355653,0.0012124355653,1.,1.,1.,      397P    536
0.75,0.,0.5,1.,0.,0.,0.0012124355653,0.,0.,1.;                       397P    537
126,1,1,1,0,1,0,0.,0.,0.0012124355653,0.0012124355653,1.,1.,0.5,     399P    538
1.,0.,0.,0.75,0.,0.,0.0012124355653,0.,0.,1.;                        399P    539
102,6,389,391,393,395,397,399;                                       401P    540
126,1,1,0,0,1,0,0.,0.,0.0012124355653,0.0012124355653,1.,1.,1.2,     403P    541
1.05,0.60621778264911,1.2,1.05,-0.60621778264911,0.,                 403P    542
0.0012124355653;                                                     403P    543
126,1,1,0,0,1,0,0.,0.,0.0012124355653,0.0012124355653,1.,1.,1.2,     405P    544
1.05,-0.60621778264911,1.2,-0.,-1.21243556529822,0.,                 405P    545
0.0012124355653;                                                     405P    546
126,1,1,0,0,1,0,0.,0.,0.0012124355653,0.0012124355653,1.,1.,1.2,     407P    547
-0.,-1.21243556529821,1.2,-1.05,-0.60621778264911,0.,                407P    548
0.0012124355653;                                                     407P    549
126,1,1,0,0,1,0,0.,0.,0.0012124355653,0.0012124355653,1.,1.,1.2,     409P    550
-1.05,-0.6062177826491,1.2,-1.05,0.60621778264911,0.,                409P    551
0.0012124355653;                                                     409P    552
126,1,1,0,0,1,0,0.,0.,0.0012124355653,0.0012124355653,1.,1.,1.2,     411P    553
-1.05,0.60621778264911,1.2,0.,1.21243556529822,0.,                   411P    554
0.0012124355653;                                                     411P    555
126,1,1,0,0,1,0,0.,0.,0.0012124355653,0.0012124355653,1.,1.,1.2,     413P    556
0.,1.21243556529821,1.2,1.05,0.60621778264911,0.,                    413P    557
0.0012124355653;                                                     413P    558
102,6,403,405,407,409,411,413;                                       415P    559
142,1,387,401,415,2;                                                 417P    560
144,387,1,0,417;                                                     419P    561
S      1G      4D    420P    561                                        T      1
