ISO-10303-21;
HEADER;
/* Generated by software containing ST-Developer
 * from STEP Tools, Inc. (www.steptools.com) 
 */
/* OPTION: strings as raw bytes, not using required /X/ escapes */

FILE_DESCRIPTION(
/* description */ ('Unknown'),
/* implementation_level */ '2;1');

FILE_NAME(
/* name */ 'Front acrylic plane',
/* time_stamp */ '2023-02-01T10:14:04-03:00',
/* author */ ('Unknown'),
/* organization */ ('Unknown'),
/* preprocessor_version */ 'ST-DEVELOPER v16.7',
/* originating_system */ 'Solid Edge',
/* authorisation */ 'Unknown');

FILE_SCHEMA (('AUTOMOTIVE_DESIGN {1 0 10303 214 3 1 1}'));
ENDSEC;

DATA;
#10=PROPERTY_DEFINITION_REPRESENTATION(#14,#12);
#11=PROPERTY_DEFINITION_REPRESENTATION(#15,#13);
#12=REPRESENTATION('',(#16),#1838);
#13=REPRESENTATION('',(#17),#1838);
#14=PROPERTY_DEFINITION('pmi validation property','',#1843);
#15=PROPERTY_DEFINITION('pmi validation property','',#1843);
#16=VALUE_REPRESENTATION_ITEM('number of annotations',COUNT_MEASURE(0.));
#17=VALUE_REPRESENTATION_ITEM('number of views',COUNT_MEASURE(0.));
#18=SHAPE_REPRESENTATION_RELATIONSHIP('','',#1112,#19);
#19=ADVANCED_BREP_SHAPE_REPRESENTATION('',(#1110),#1838);
#20=B_SPLINE_SURFACE_WITH_KNOTS('',3,1,((#1518,#1519),(#1520,#1521),(#1522,
#1523),(#1524,#1525),(#1526,#1527),(#1528,#1529),(#1530,#1531),(#1532,#1533),
(#1534,#1535),(#1536,#1537),(#1538,#1539),(#1540,#1541),(#1542,#1543),(#1544,
#1545),(#1546,#1547),(#1548,#1549),(#1550,#1551),(#1552,#1553),(#1554,#1555),
(#1556,#1557),(#1558,#1559)),.SURF_OF_LINEAR_EXTRUSION.,.F.,.F.,.F.,(4,
1,1,1,1,1,1,1,1,1,1,1,1,1,1,1,1,1,4),(2,2),(0.,0.0625,0.125,0.1875,0.25,
0.3125,0.375,0.4375,0.5,0.5625,0.625,0.6875,0.75,0.8125,0.875,0.90625,0.9375,
0.96875,1.),(0.,1.),.UNSPECIFIED.);
#21=B_SPLINE_SURFACE_WITH_KNOTS('',3,1,((#1666,#1667),(#1668,#1669),(#1670,
#1671),(#1672,#1673),(#1674,#1675),(#1676,#1677),(#1678,#1679),(#1680,#1681),
(#1682,#1683),(#1684,#1685),(#1686,#1687),(#1688,#1689),(#1690,#1691),(#1692,
#1693),(#1694,#1695),(#1696,#1697),(#1698,#1699),(#1700,#1701),(#1702,#1703),
(#1704,#1705),(#1706,#1707),(#1708,#1709)),.SURF_OF_LINEAR_EXTRUSION.,.F.,
 .F.,.F.,(4,1,1,1,1,1,1,1,1,1,1,1,1,1,1,1,1,1,1,4),(2,2),(0.,0.0625,0.125,
0.1875,0.25,0.3125,0.375,0.4375,0.5,0.5625,0.625,0.6875,0.75,0.8125,0.875,
0.90625,0.921875,0.9375,0.96875,1.),(0.,1.),.UNSPECIFIED.);
#22=B_SPLINE_CURVE_WITH_KNOTS('',3,(#1409,#1410,#1411,#1412,#1413,#1414,
#1415,#1416,#1417,#1418,#1419,#1420,#1421,#1422,#1423,#1424,#1425,#1426,
#1427,#1428,#1429,#1430,#1431,#1432,#1433,#1434,#1435,#1436,#1437,#1438,
#1439,#1440,#1441,#1442,#1443,#1444,#1445,#1446,#1447,#1448),
 .UNSPECIFIED.,.F.,.F.,(4,2,2,2,2,2,2,2,2,2,2,2,2,2,2,2,2,2,2,4),(0.,0.0348627834233383,
0.083513551259518,0.133081594240825,0.183583788079095,0.235038336883133,
0.287462835572333,0.340875654178453,0.395294941126464,0.450740339060424,
0.507230881541691,0.564786377185354,0.62342641301786,0.683172070271305,
0.744043821133558,0.806062912791173,0.869251477669825,0.933631260596485,
0.96642782729549,1.),.UNSPECIFIED.);
#23=B_SPLINE_CURVE_WITH_KNOTS('',3,(#1560,#1561,#1562,#1563,#1564,#1565,
#1566,#1567,#1568,#1569,#1570,#1571,#1572,#1573,#1574,#1575,#1576,#1577,
#1578,#1579,#1580,#1581,#1582,#1583,#1584,#1585,#1586,#1587,#1588,#1589,
#1590,#1591,#1592,#1593,#1594,#1595,#1596,#1597,#1598,#1599),
 .UNSPECIFIED.,.F.,.F.,(4,2,2,2,2,2,2,2,2,2,2,2,2,2,2,2,2,2,2,4),(0.,0.0348627834233383,
0.083513551259518,0.133081594240825,0.183583788079095,0.235038336883133,
0.287462835572333,0.340875654178453,0.395294941126464,0.450740339060424,
0.507230881541691,0.564786377185354,0.62342641301786,0.683172070271305,
0.744043821133558,0.806062912791173,0.869251477669825,0.933631260596485,
0.96642782729549,1.),.UNSPECIFIED.);
#24=B_SPLINE_CURVE_WITH_KNOTS('',3,(#1710,#1711,#1712,#1713,#1714,#1715,
#1716,#1717,#1718,#1719,#1720,#1721,#1722,#1723,#1724,#1725,#1726,#1727,
#1728,#1729,#1730,#1731,#1732,#1733,#1734,#1735,#1736,#1737,#1738,#1739,
#1740,#1741,#1742,#1743,#1744,#1745,#1746,#1747,#1748,#1749),
 .UNSPECIFIED.,.F.,.F.,(4,2,2,2,2,2,2,2,2,2,2,2,2,2,2,2,2,2,2,4),(0.,0.0348451912432681,
0.0834714093165119,0.133014439666806,0.183491149490298,0.234919733709782,
0.287317778366043,0.3407036442211,0.39509547054201,0.450512890060917,0.506974926734614,
0.564501379182526,0.62311182454725,0.682827333423038,0.743668367667248,
0.805656163744845,0.868812842913219,0.933160139026639,0.965940156183398,
1.),.UNSPECIFIED.);
#25=B_SPLINE_CURVE_WITH_KNOTS('',3,(#1753,#1754,#1755,#1756,#1757,#1758,
#1759,#1760,#1761,#1762,#1763,#1764,#1765,#1766,#1767,#1768,#1769,#1770,
#1771,#1772,#1773,#1774,#1775,#1776,#1777,#1778,#1779,#1780,#1781,#1782,
#1783,#1784,#1785,#1786,#1787,#1788,#1789,#1790,#1791,#1792),
 .UNSPECIFIED.,.F.,.F.,(4,2,2,2,2,2,2,2,2,2,2,2,2,2,2,2,2,2,2,4),(0.,0.0348451912432681,
0.0834714093165119,0.133014439666806,0.183491149490298,0.234919733709782,
0.287317778366043,0.3407036442211,0.39509547054201,0.450512890060917,0.506974926734614,
0.564501379182526,0.62311182454725,0.682827333423038,0.743668367667248,
0.805656163744845,0.868812842913219,0.933160139026639,0.965940156183398,
1.),.UNSPECIFIED.);
#26=LINE('',#1394,#91);
#27=LINE('',#1399,#92);
#28=LINE('',#1403,#93);
#29=LINE('',#1407,#94);
#30=LINE('',#1450,#95);
#31=LINE('',#1454,#96);
#32=LINE('',#1462,#97);
#33=LINE('',#1465,#98);
#34=LINE('',#1467,#99);
#35=LINE('',#1469,#100);
#36=LINE('',#1471,#101);
#37=LINE('',#1473,#102);
#38=LINE('',#1475,#103);
#39=LINE('',#1477,#104);
#40=LINE('',#1483,#105);
#41=LINE('',#1486,#106);
#42=LINE('',#1487,#107);
#43=LINE('',#1509,#108);
#44=LINE('',#1513,#109);
#45=LINE('',#1515,#110);
#46=LINE('',#1517,#111);
#47=LINE('',#1601,#112);
#48=LINE('',#1603,#113);
#49=LINE('',#1605,#114);
#50=LINE('',#1609,#115);
#51=LINE('',#1611,#116);
#52=LINE('',#1613,#117);
#53=LINE('',#1617,#118);
#54=LINE('',#1619,#119);
#55=LINE('',#1621,#120);
#56=LINE('',#1625,#121);
#57=LINE('',#1627,#122);
#58=LINE('',#1629,#123);
#59=LINE('',#1633,#124);
#60=LINE('',#1635,#125);
#61=LINE('',#1637,#126);
#62=LINE('',#1640,#127);
#63=LINE('',#1642,#128);
#64=LINE('',#1644,#129);
#65=LINE('',#1648,#130);
#66=LINE('',#1652,#131);
#67=LINE('',#1657,#132);
#68=LINE('',#1661,#133);
#69=LINE('',#1663,#134);
#70=LINE('',#1665,#135);
#71=LINE('',#1751,#136);
#72=LINE('',#1794,#137);
#73=LINE('',#1796,#138);
#74=LINE('',#1798,#139);
#75=LINE('',#1806,#140);
#76=LINE('',#1808,#141);
#77=LINE('',#1810,#142);
#78=LINE('',#1812,#143);
#79=LINE('',#1814,#144);
#80=LINE('',#1816,#145);
#81=LINE('',#1818,#146);
#82=LINE('',#1820,#147);
#83=LINE('',#1822,#148);
#84=LINE('',#1824,#149);
#85=LINE('',#1826,#150);
#86=LINE('',#1828,#151);
#87=LINE('',#1829,#152);
#88=LINE('',#1831,#153);
#89=LINE('',#1833,#154);
#90=LINE('',#1835,#155);
#91=VECTOR('',#1194,1000.);
#92=VECTOR('',#1197,1000.);
#93=VECTOR('',#1200,1000.);
#94=VECTOR('',#1203,1000.);
#95=VECTOR('',#1204,1000.);
#96=VECTOR('',#1207,1000.);
#97=VECTOR('',#1216,1000.);
#98=VECTOR('',#1217,1000.);
#99=VECTOR('',#1218,1000.);
#100=VECTOR('',#1219,1000.);
#101=VECTOR('',#1222,1000.);
#102=VECTOR('',#1223,1000.);
#103=VECTOR('',#1224,1000.);
#104=VECTOR('',#1227,1000.);
#105=VECTOR('',#1234,1000.);
#106=VECTOR('',#1235,1000.);
#107=VECTOR('',#1236,1000.);
#108=VECTOR('',#1263,1000.);
#109=VECTOR('',#1266,1000.);
#110=VECTOR('',#1269,1000.);
#111=VECTOR('',#1270,1000.);
#112=VECTOR('',#1271,1000.);
#113=VECTOR('',#1274,1000.);
#114=VECTOR('',#1275,1000.);
#115=VECTOR('',#1280,1000.);
#116=VECTOR('',#1283,1000.);
#117=VECTOR('',#1284,1000.);
#118=VECTOR('',#1289,1000.);
#119=VECTOR('',#1292,1000.);
#120=VECTOR('',#1293,1000.);
#121=VECTOR('',#1298,1000.);
#122=VECTOR('',#1301,1000.);
#123=VECTOR('',#1302,1000.);
#124=VECTOR('',#1307,1000.);
#125=VECTOR('',#1310,1000.);
#126=VECTOR('',#1313,1000.);
#127=VECTOR('',#1314,1000.);
#128=VECTOR('',#1315,1000.);
#129=VECTOR('',#1316,1000.);
#130=VECTOR('',#1321,1000.);
#131=VECTOR('',#1326,1000.);
#132=VECTOR('',#1329,1000.);
#133=VECTOR('',#1334,1000.);
#134=VECTOR('',#1335,1000.);
#135=VECTOR('',#1336,1000.);
#136=VECTOR('',#1337,1000.);
#137=VECTOR('',#1340,1000.);
#138=VECTOR('',#1341,1000.);
#139=VECTOR('',#1342,1000.);
#140=VECTOR('',#1355,1000.);
#141=VECTOR('',#1356,1000.);
#142=VECTOR('',#1357,1000.);
#143=VECTOR('',#1360,1000.);
#144=VECTOR('',#1361,1000.);
#145=VECTOR('',#1362,1000.);
#146=VECTOR('',#1365,1000.);
#147=VECTOR('',#1366,1000.);
#148=VECTOR('',#1369,1000.);
#149=VECTOR('',#1370,1000.);
#150=VECTOR('',#1373,1000.);
#151=VECTOR('',#1374,1000.);
#152=VECTOR('',#1375,1000.);
#153=VECTOR('',#1378,1000.);
#154=VECTOR('',#1379,1000.);
#155=VECTOR('',#1382,1000.);
#156=PLANE('',#1118);
#157=PLANE('',#1126);
#158=PLANE('',#1127);
#159=PLANE('',#1131);
#160=PLANE('',#1146);
#161=PLANE('',#1147);
#162=PLANE('',#1150);
#163=PLANE('',#1153);
#164=PLANE('',#1156);
#165=PLANE('',#1159);
#166=PLANE('',#1160);
#167=PLANE('',#1167);
#168=PLANE('',#1168);
#169=PLANE('',#1174);
#170=PLANE('',#1175);
#171=PLANE('',#1176);
#172=PLANE('',#1177);
#173=PLANE('',#1178);
#174=PLANE('',#1179);
#175=PLANE('',#1180);
#176=PLANE('',#1181);
#177=VERTEX_LOOP('',#557);
#178=VERTEX_LOOP('',#571);
#179=CONICAL_SURFACE('',#1117,2.5,1.02974425867665);
#180=CONICAL_SURFACE('',#1124,2.5,1.02974425867665);
#181=SURFACE_STYLE_RENDERING_WITH_PROPERTIES(.CONSTANT_SHADING.,#257,(#219));
#182=SURFACE_STYLE_RENDERING_WITH_PROPERTIES(.CONSTANT_SHADING.,#257,(#220));
#183=SURFACE_STYLE_RENDERING_WITH_PROPERTIES(.CONSTANT_SHADING.,#257,(#221));
#184=SURFACE_STYLE_RENDERING_WITH_PROPERTIES(.CONSTANT_SHADING.,#257,(#222));
#185=SURFACE_STYLE_RENDERING_WITH_PROPERTIES(.CONSTANT_SHADING.,#257,(#223));
#186=SURFACE_STYLE_RENDERING_WITH_PROPERTIES(.CONSTANT_SHADING.,#257,(#224));
#187=SURFACE_STYLE_RENDERING_WITH_PROPERTIES(.CONSTANT_SHADING.,#257,(#225));
#188=SURFACE_STYLE_RENDERING_WITH_PROPERTIES(.CONSTANT_SHADING.,#257,(#226));
#189=SURFACE_STYLE_RENDERING_WITH_PROPERTIES(.CONSTANT_SHADING.,#257,(#227));
#190=SURFACE_STYLE_RENDERING_WITH_PROPERTIES(.CONSTANT_SHADING.,#257,(#228));
#191=SURFACE_STYLE_RENDERING_WITH_PROPERTIES(.CONSTANT_SHADING.,#257,(#229));
#192=SURFACE_STYLE_RENDERING_WITH_PROPERTIES(.CONSTANT_SHADING.,#257,(#230));
#193=SURFACE_STYLE_RENDERING_WITH_PROPERTIES(.CONSTANT_SHADING.,#257,(#231));
#194=SURFACE_STYLE_RENDERING_WITH_PROPERTIES(.CONSTANT_SHADING.,#257,(#232));
#195=SURFACE_STYLE_RENDERING_WITH_PROPERTIES(.CONSTANT_SHADING.,#257,(#233));
#196=SURFACE_STYLE_RENDERING_WITH_PROPERTIES(.CONSTANT_SHADING.,#257,(#234));
#197=SURFACE_STYLE_RENDERING_WITH_PROPERTIES(.CONSTANT_SHADING.,#257,(#235));
#198=SURFACE_STYLE_RENDERING_WITH_PROPERTIES(.CONSTANT_SHADING.,#257,(#236));
#199=SURFACE_STYLE_RENDERING_WITH_PROPERTIES(.CONSTANT_SHADING.,#257,(#237));
#200=SURFACE_STYLE_RENDERING_WITH_PROPERTIES(.CONSTANT_SHADING.,#257,(#238));
#201=SURFACE_STYLE_RENDERING_WITH_PROPERTIES(.CONSTANT_SHADING.,#257,(#239));
#202=SURFACE_STYLE_RENDERING_WITH_PROPERTIES(.CONSTANT_SHADING.,#257,(#240));
#203=SURFACE_STYLE_RENDERING_WITH_PROPERTIES(.CONSTANT_SHADING.,#257,(#241));
#204=SURFACE_STYLE_RENDERING_WITH_PROPERTIES(.CONSTANT_SHADING.,#257,(#242));
#205=SURFACE_STYLE_RENDERING_WITH_PROPERTIES(.CONSTANT_SHADING.,#257,(#243));
#206=SURFACE_STYLE_RENDERING_WITH_PROPERTIES(.CONSTANT_SHADING.,#257,(#244));
#207=SURFACE_STYLE_RENDERING_WITH_PROPERTIES(.CONSTANT_SHADING.,#257,(#245));
#208=SURFACE_STYLE_RENDERING_WITH_PROPERTIES(.CONSTANT_SHADING.,#257,(#246));
#209=SURFACE_STYLE_RENDERING_WITH_PROPERTIES(.CONSTANT_SHADING.,#257,(#247));
#210=SURFACE_STYLE_RENDERING_WITH_PROPERTIES(.CONSTANT_SHADING.,#257,(#248));
#211=SURFACE_STYLE_RENDERING_WITH_PROPERTIES(.CONSTANT_SHADING.,#257,(#249));
#212=SURFACE_STYLE_RENDERING_WITH_PROPERTIES(.CONSTANT_SHADING.,#257,(#250));
#213=SURFACE_STYLE_RENDERING_WITH_PROPERTIES(.CONSTANT_SHADING.,#257,(#251));
#214=SURFACE_STYLE_RENDERING_WITH_PROPERTIES(.CONSTANT_SHADING.,#257,(#252));
#215=SURFACE_STYLE_RENDERING_WITH_PROPERTIES(.CONSTANT_SHADING.,#257,(#253));
#216=SURFACE_STYLE_RENDERING_WITH_PROPERTIES(.CONSTANT_SHADING.,#257,(#254));
#217=SURFACE_STYLE_RENDERING_WITH_PROPERTIES(.CONSTANT_SHADING.,#257,(#255));
#218=SURFACE_STYLE_RENDERING_WITH_PROPERTIES(.CONSTANT_SHADING.,#257,(#256));
#219=SURFACE_STYLE_TRANSPARENT(0.699999988079071);
#220=SURFACE_STYLE_TRANSPARENT(0.699999988079071);
#221=SURFACE_STYLE_TRANSPARENT(0.699999988079071);
#222=SURFACE_STYLE_TRANSPARENT(0.699999988079071);
#223=SURFACE_STYLE_TRANSPARENT(0.699999988079071);
#224=SURFACE_STYLE_TRANSPARENT(0.699999988079071);
#225=SURFACE_STYLE_TRANSPARENT(0.699999988079071);
#226=SURFACE_STYLE_TRANSPARENT(0.699999988079071);
#227=SURFACE_STYLE_TRANSPARENT(0.699999988079071);
#228=SURFACE_STYLE_TRANSPARENT(0.699999988079071);
#229=SURFACE_STYLE_TRANSPARENT(0.699999988079071);
#230=SURFACE_STYLE_TRANSPARENT(0.699999988079071);
#231=SURFACE_STYLE_TRANSPARENT(0.699999988079071);
#232=SURFACE_STYLE_TRANSPARENT(0.699999988079071);
#233=SURFACE_STYLE_TRANSPARENT(0.699999988079071);
#234=SURFACE_STYLE_TRANSPARENT(0.699999988079071);
#235=SURFACE_STYLE_TRANSPARENT(0.699999988079071);
#236=SURFACE_STYLE_TRANSPARENT(0.699999988079071);
#237=SURFACE_STYLE_TRANSPARENT(0.699999988079071);
#238=SURFACE_STYLE_TRANSPARENT(0.699999988079071);
#239=SURFACE_STYLE_TRANSPARENT(0.699999988079071);
#240=SURFACE_STYLE_TRANSPARENT(0.699999988079071);
#241=SURFACE_STYLE_TRANSPARENT(0.699999988079071);
#242=SURFACE_STYLE_TRANSPARENT(0.699999988079071);
#243=SURFACE_STYLE_TRANSPARENT(0.699999988079071);
#244=SURFACE_STYLE_TRANSPARENT(0.699999988079071);
#245=SURFACE_STYLE_TRANSPARENT(0.699999988079071);
#246=SURFACE_STYLE_TRANSPARENT(0.699999988079071);
#247=SURFACE_STYLE_TRANSPARENT(0.699999988079071);
#248=SURFACE_STYLE_TRANSPARENT(0.699999988079071);
#249=SURFACE_STYLE_TRANSPARENT(0.699999988079071);
#250=SURFACE_STYLE_TRANSPARENT(0.699999988079071);
#251=SURFACE_STYLE_TRANSPARENT(0.699999988079071);
#252=SURFACE_STYLE_TRANSPARENT(0.699999988079071);
#253=SURFACE_STYLE_TRANSPARENT(0.699999988079071);
#254=SURFACE_STYLE_TRANSPARENT(0.699999988079071);
#255=SURFACE_STYLE_TRANSPARENT(0.699999988079071);
#256=SURFACE_STYLE_TRANSPARENT(0.699999988079071);
#257=DRAUGHTING_PRE_DEFINED_COLOUR('white');
#258=ORIENTED_EDGE('',*,*,#456,.T.);
#259=ORIENTED_EDGE('',*,*,#457,.F.);
#260=ORIENTED_EDGE('',*,*,#456,.F.);
#261=ORIENTED_EDGE('',*,*,#458,.F.);
#262=ORIENTED_EDGE('',*,*,#459,.T.);
#263=ORIENTED_EDGE('',*,*,#460,.F.);
#264=ORIENTED_EDGE('',*,*,#461,.F.);
#265=ORIENTED_EDGE('',*,*,#462,.F.);
#266=ORIENTED_EDGE('',*,*,#463,.F.);
#267=ORIENTED_EDGE('',*,*,#464,.F.);
#268=ORIENTED_EDGE('',*,*,#465,.F.);
#269=ORIENTED_EDGE('',*,*,#466,.F.);
#270=ORIENTED_EDGE('',*,*,#467,.F.);
#271=ORIENTED_EDGE('',*,*,#468,.F.);
#272=ORIENTED_EDGE('',*,*,#469,.T.);
#273=ORIENTED_EDGE('',*,*,#470,.F.);
#274=ORIENTED_EDGE('',*,*,#471,.T.);
#275=ORIENTED_EDGE('',*,*,#472,.T.);
#276=ORIENTED_EDGE('',*,*,#473,.F.);
#277=ORIENTED_EDGE('',*,*,#474,.T.);
#278=ORIENTED_EDGE('',*,*,#475,.T.);
#279=ORIENTED_EDGE('',*,*,#476,.T.);
#280=ORIENTED_EDGE('',*,*,#477,.T.);
#281=ORIENTED_EDGE('',*,*,#471,.F.);
#282=ORIENTED_EDGE('',*,*,#478,.F.);
#283=ORIENTED_EDGE('',*,*,#479,.T.);
#284=ORIENTED_EDGE('',*,*,#476,.F.);
#285=ORIENTED_EDGE('',*,*,#480,.F.);
#286=ORIENTED_EDGE('',*,*,#481,.F.);
#287=ORIENTED_EDGE('',*,*,#482,.T.);
#288=ORIENTED_EDGE('',*,*,#478,.T.);
#289=ORIENTED_EDGE('',*,*,#483,.T.);
#290=ORIENTED_EDGE('',*,*,#484,.F.);
#291=ORIENTED_EDGE('',*,*,#485,.F.);
#292=ORIENTED_EDGE('',*,*,#486,.F.);
#293=ORIENTED_EDGE('',*,*,#487,.F.);
#294=ORIENTED_EDGE('',*,*,#488,.F.);
#295=ORIENTED_EDGE('',*,*,#489,.F.);
#296=ORIENTED_EDGE('',*,*,#490,.F.);
#297=ORIENTED_EDGE('',*,*,#491,.F.);
#298=ORIENTED_EDGE('',*,*,#463,.T.);
#299=ORIENTED_EDGE('',*,*,#492,.F.);
#300=ORIENTED_EDGE('',*,*,#493,.T.);
#301=ORIENTED_EDGE('',*,*,#494,.T.);
#302=ORIENTED_EDGE('',*,*,#464,.T.);
#303=ORIENTED_EDGE('',*,*,#494,.F.);
#304=ORIENTED_EDGE('',*,*,#495,.T.);
#305=ORIENTED_EDGE('',*,*,#496,.T.);
#306=ORIENTED_EDGE('',*,*,#465,.T.);
#307=ORIENTED_EDGE('',*,*,#496,.F.);
#308=ORIENTED_EDGE('',*,*,#497,.T.);
#309=ORIENTED_EDGE('',*,*,#498,.T.);
#310=ORIENTED_EDGE('',*,*,#466,.T.);
#311=ORIENTED_EDGE('',*,*,#498,.F.);
#312=ORIENTED_EDGE('',*,*,#499,.T.);
#313=ORIENTED_EDGE('',*,*,#500,.T.);
#314=ORIENTED_EDGE('',*,*,#467,.T.);
#315=ORIENTED_EDGE('',*,*,#500,.F.);
#316=ORIENTED_EDGE('',*,*,#501,.T.);
#317=ORIENTED_EDGE('',*,*,#502,.T.);
#318=ORIENTED_EDGE('',*,*,#503,.T.);
#319=ORIENTED_EDGE('',*,*,#504,.T.);
#320=ORIENTED_EDGE('',*,*,#468,.T.);
#321=ORIENTED_EDGE('',*,*,#502,.F.);
#322=ORIENTED_EDGE('',*,*,#505,.F.);
#323=ORIENTED_EDGE('',*,*,#506,.F.);
#324=ORIENTED_EDGE('',*,*,#469,.F.);
#325=ORIENTED_EDGE('',*,*,#504,.F.);
#326=ORIENTED_EDGE('',*,*,#507,.T.);
#327=ORIENTED_EDGE('',*,*,#508,.T.);
#328=ORIENTED_EDGE('',*,*,#458,.T.);
#329=ORIENTED_EDGE('',*,*,#506,.T.);
#330=ORIENTED_EDGE('',*,*,#509,.F.);
#331=ORIENTED_EDGE('',*,*,#510,.F.);
#332=ORIENTED_EDGE('',*,*,#459,.F.);
#333=ORIENTED_EDGE('',*,*,#508,.F.);
#334=ORIENTED_EDGE('',*,*,#460,.T.);
#335=ORIENTED_EDGE('',*,*,#510,.T.);
#336=ORIENTED_EDGE('',*,*,#511,.T.);
#337=ORIENTED_EDGE('',*,*,#512,.T.);
#338=ORIENTED_EDGE('',*,*,#461,.T.);
#339=ORIENTED_EDGE('',*,*,#512,.F.);
#340=ORIENTED_EDGE('',*,*,#513,.T.);
#341=ORIENTED_EDGE('',*,*,#514,.T.);
#342=ORIENTED_EDGE('',*,*,#462,.T.);
#343=ORIENTED_EDGE('',*,*,#514,.F.);
#344=ORIENTED_EDGE('',*,*,#515,.T.);
#345=ORIENTED_EDGE('',*,*,#492,.T.);
#346=ORIENTED_EDGE('',*,*,#516,.F.);
#347=ORIENTED_EDGE('',*,*,#517,.F.);
#348=ORIENTED_EDGE('',*,*,#518,.T.);
#349=ORIENTED_EDGE('',*,*,#519,.F.);
#350=ORIENTED_EDGE('',*,*,#518,.F.);
#351=ORIENTED_EDGE('',*,*,#520,.F.);
#352=ORIENTED_EDGE('',*,*,#521,.T.);
#353=ORIENTED_EDGE('',*,*,#522,.F.);
#354=ORIENTED_EDGE('',*,*,#523,.F.);
#355=ORIENTED_EDGE('',*,*,#524,.F.);
#356=ORIENTED_EDGE('',*,*,#525,.T.);
#357=ORIENTED_EDGE('',*,*,#526,.F.);
#358=ORIENTED_EDGE('',*,*,#525,.F.);
#359=ORIENTED_EDGE('',*,*,#527,.F.);
#360=ORIENTED_EDGE('',*,*,#528,.T.);
#361=ORIENTED_EDGE('',*,*,#529,.F.);
#362=ORIENTED_EDGE('',*,*,#528,.F.);
#363=ORIENTED_EDGE('',*,*,#530,.F.);
#364=ORIENTED_EDGE('',*,*,#531,.T.);
#365=ORIENTED_EDGE('',*,*,#532,.F.);
#366=ORIENTED_EDGE('',*,*,#531,.F.);
#367=ORIENTED_EDGE('',*,*,#533,.F.);
#368=ORIENTED_EDGE('',*,*,#534,.T.);
#369=ORIENTED_EDGE('',*,*,#535,.F.);
#370=ORIENTED_EDGE('',*,*,#534,.F.);
#371=ORIENTED_EDGE('',*,*,#536,.F.);
#372=ORIENTED_EDGE('',*,*,#516,.T.);
#373=ORIENTED_EDGE('',*,*,#537,.F.);
#374=ORIENTED_EDGE('',*,*,#470,.T.);
#375=ORIENTED_EDGE('',*,*,#538,.F.);
#376=ORIENTED_EDGE('',*,*,#521,.F.);
#377=ORIENTED_EDGE('',*,*,#539,.F.);
#378=ORIENTED_EDGE('',*,*,#540,.T.);
#379=ORIENTED_EDGE('',*,*,#541,.F.);
#380=ORIENTED_EDGE('',*,*,#542,.T.);
#381=ORIENTED_EDGE('',*,*,#543,.F.);
#382=ORIENTED_EDGE('',*,*,#544,.T.);
#383=ORIENTED_EDGE('',*,*,#481,.T.);
#384=ORIENTED_EDGE('',*,*,#489,.T.);
#385=ORIENTED_EDGE('',*,*,#491,.T.);
#386=ORIENTED_EDGE('',*,*,#487,.T.);
#387=ORIENTED_EDGE('',*,*,#485,.T.);
#388=ORIENTED_EDGE('',*,*,#479,.F.);
#389=ORIENTED_EDGE('',*,*,#482,.F.);
#390=ORIENTED_EDGE('',*,*,#544,.F.);
#391=ORIENTED_EDGE('',*,*,#545,.F.);
#392=ORIENTED_EDGE('',*,*,#546,.F.);
#393=ORIENTED_EDGE('',*,*,#472,.F.);
#394=ORIENTED_EDGE('',*,*,#477,.F.);
#395=ORIENTED_EDGE('',*,*,#473,.T.);
#396=ORIENTED_EDGE('',*,*,#546,.T.);
#397=ORIENTED_EDGE('',*,*,#547,.T.);
#398=ORIENTED_EDGE('',*,*,#548,.T.);
#399=ORIENTED_EDGE('',*,*,#490,.T.);
#400=ORIENTED_EDGE('',*,*,#488,.T.);
#401=ORIENTED_EDGE('',*,*,#486,.T.);
#402=ORIENTED_EDGE('',*,*,#484,.T.);
#403=ORIENTED_EDGE('',*,*,#549,.T.);
#404=ORIENTED_EDGE('',*,*,#550,.T.);
#405=ORIENTED_EDGE('',*,*,#526,.T.);
#406=ORIENTED_EDGE('',*,*,#529,.T.);
#407=ORIENTED_EDGE('',*,*,#532,.T.);
#408=ORIENTED_EDGE('',*,*,#535,.T.);
#409=ORIENTED_EDGE('',*,*,#537,.T.);
#410=ORIENTED_EDGE('',*,*,#519,.T.);
#411=ORIENTED_EDGE('',*,*,#522,.T.);
#412=ORIENTED_EDGE('',*,*,#541,.T.);
#413=ORIENTED_EDGE('',*,*,#551,.T.);
#414=ORIENTED_EDGE('',*,*,#542,.F.);
#415=ORIENTED_EDGE('',*,*,#483,.F.);
#416=ORIENTED_EDGE('',*,*,#480,.T.);
#417=ORIENTED_EDGE('',*,*,#475,.F.);
#418=ORIENTED_EDGE('',*,*,#474,.F.);
#419=ORIENTED_EDGE('',*,*,#548,.F.);
#420=ORIENTED_EDGE('',*,*,#552,.F.);
#421=ORIENTED_EDGE('',*,*,#553,.F.);
#422=ORIENTED_EDGE('',*,*,#523,.T.);
#423=ORIENTED_EDGE('',*,*,#550,.F.);
#424=ORIENTED_EDGE('',*,*,#536,.T.);
#425=ORIENTED_EDGE('',*,*,#533,.T.);
#426=ORIENTED_EDGE('',*,*,#530,.T.);
#427=ORIENTED_EDGE('',*,*,#527,.T.);
#428=ORIENTED_EDGE('',*,*,#524,.T.);
#429=ORIENTED_EDGE('',*,*,#553,.T.);
#430=ORIENTED_EDGE('',*,*,#554,.T.);
#431=ORIENTED_EDGE('',*,*,#539,.T.);
#432=ORIENTED_EDGE('',*,*,#520,.T.);
#433=ORIENTED_EDGE('',*,*,#517,.T.);
#434=ORIENTED_EDGE('',*,*,#515,.F.);
#435=ORIENTED_EDGE('',*,*,#513,.F.);
#436=ORIENTED_EDGE('',*,*,#511,.F.);
#437=ORIENTED_EDGE('',*,*,#509,.T.);
#438=ORIENTED_EDGE('',*,*,#507,.F.);
#439=ORIENTED_EDGE('',*,*,#505,.T.);
#440=ORIENTED_EDGE('',*,*,#503,.F.);
#441=ORIENTED_EDGE('',*,*,#501,.F.);
#442=ORIENTED_EDGE('',*,*,#499,.F.);
#443=ORIENTED_EDGE('',*,*,#497,.F.);
#444=ORIENTED_EDGE('',*,*,#495,.F.);
#445=ORIENTED_EDGE('',*,*,#493,.F.);
#446=ORIENTED_EDGE('',*,*,#457,.T.);
#447=ORIENTED_EDGE('',*,*,#554,.F.);
#448=ORIENTED_EDGE('',*,*,#552,.T.);
#449=ORIENTED_EDGE('',*,*,#549,.F.);
#450=ORIENTED_EDGE('',*,*,#547,.F.);
#451=ORIENTED_EDGE('',*,*,#545,.T.);
#452=ORIENTED_EDGE('',*,*,#543,.T.);
#453=ORIENTED_EDGE('',*,*,#551,.F.);
#454=ORIENTED_EDGE('',*,*,#540,.F.);
#455=ORIENTED_EDGE('',*,*,#538,.T.);
#456=EDGE_CURVE('',#555,#555,#627,.T.);
#457=EDGE_CURVE('',#556,#556,#628,.T.);
#458=EDGE_CURVE('',#558,#559,#26,.T.);
#459=EDGE_CURVE('',#558,#560,#629,.F.);
#460=EDGE_CURVE('',#561,#560,#27,.T.);
#461=EDGE_CURVE('',#562,#561,#630,.T.);
#462=EDGE_CURVE('',#563,#562,#28,.T.);
#463=EDGE_CURVE('',#564,#563,#631,.F.);
#464=EDGE_CURVE('',#565,#564,#29,.T.);
#465=EDGE_CURVE('',#566,#565,#22,.F.);
#466=EDGE_CURVE('',#567,#566,#30,.T.);
#467=EDGE_CURVE('',#568,#567,#632,.F.);
#468=EDGE_CURVE('',#569,#568,#31,.T.);
#469=EDGE_CURVE('',#569,#559,#633,.F.);
#470=EDGE_CURVE('',#570,#570,#634,.T.);
#471=EDGE_CURVE('',#572,#573,#32,.T.);
#472=EDGE_CURVE('',#573,#574,#33,.T.);
#473=EDGE_CURVE('',#575,#574,#34,.T.);
#474=EDGE_CURVE('',#575,#572,#35,.T.);
#475=EDGE_CURVE('',#572,#576,#36,.T.);
#476=EDGE_CURVE('',#576,#577,#37,.F.);
#477=EDGE_CURVE('',#577,#573,#38,.T.);
#478=EDGE_CURVE('',#578,#579,#39,.T.);
#479=EDGE_CURVE('',#578,#577,#635,.T.);
#480=EDGE_CURVE('',#579,#576,#636,.T.);
#481=EDGE_CURVE('',#580,#581,#40,.T.);
#482=EDGE_CURVE('',#580,#578,#41,.T.);
#483=EDGE_CURVE('',#579,#581,#42,.T.);
#484=EDGE_CURVE('',#582,#582,#637,.T.);
#485=EDGE_CURVE('',#583,#583,#638,.T.);
#486=EDGE_CURVE('',#584,#584,#639,.T.);
#487=EDGE_CURVE('',#585,#585,#640,.T.);
#488=EDGE_CURVE('',#586,#586,#641,.T.);
#489=EDGE_CURVE('',#587,#587,#642,.T.);
#490=EDGE_CURVE('',#588,#588,#643,.T.);
#491=EDGE_CURVE('',#589,#589,#644,.T.);
#492=EDGE_CURVE('',#590,#563,#43,.T.);
#493=EDGE_CURVE('',#590,#591,#645,.T.);
#494=EDGE_CURVE('',#591,#564,#44,.T.);
#495=EDGE_CURVE('',#591,#592,#45,.T.);
#496=EDGE_CURVE('',#592,#565,#46,.T.);
#497=EDGE_CURVE('',#592,#593,#23,.T.);
#498=EDGE_CURVE('',#593,#566,#47,.T.);
#499=EDGE_CURVE('',#593,#594,#48,.T.);
#500=EDGE_CURVE('',#594,#567,#49,.T.);
#501=EDGE_CURVE('',#594,#595,#646,.T.);
#502=EDGE_CURVE('',#595,#568,#50,.T.);
#503=EDGE_CURVE('',#595,#596,#51,.T.);
#504=EDGE_CURVE('',#596,#569,#52,.F.);
#505=EDGE_CURVE('',#597,#596,#647,.T.);
#506=EDGE_CURVE('',#559,#597,#53,.T.);
#507=EDGE_CURVE('',#597,#598,#54,.T.);
#508=EDGE_CURVE('',#598,#558,#55,.F.);
#509=EDGE_CURVE('',#599,#598,#648,.T.);
#510=EDGE_CURVE('',#560,#599,#56,.T.);
#511=EDGE_CURVE('',#599,#600,#57,.T.);
#512=EDGE_CURVE('',#600,#561,#58,.T.);
#513=EDGE_CURVE('',#600,#601,#649,.T.);
#514=EDGE_CURVE('',#601,#562,#59,.T.);
#515=EDGE_CURVE('',#601,#590,#60,.T.);
#516=EDGE_CURVE('',#602,#603,#61,.T.);
#517=EDGE_CURVE('',#604,#602,#62,.T.);
#518=EDGE_CURVE('',#604,#605,#63,.T.);
#519=EDGE_CURVE('',#603,#605,#64,.T.);
#520=EDGE_CURVE('',#606,#604,#650,.T.);
#521=EDGE_CURVE('',#606,#607,#65,.T.);
#522=EDGE_CURVE('',#605,#607,#651,.T.);
#523=EDGE_CURVE('',#608,#609,#66,.T.);
#524=EDGE_CURVE('',#610,#608,#652,.T.);
#525=EDGE_CURVE('',#610,#611,#67,.T.);
#526=EDGE_CURVE('',#609,#611,#653,.F.);
#527=EDGE_CURVE('',#612,#610,#68,.T.);
#528=EDGE_CURVE('',#612,#613,#69,.T.);
#529=EDGE_CURVE('',#611,#613,#70,.T.);
#530=EDGE_CURVE('',#614,#612,#24,.T.);
#531=EDGE_CURVE('',#614,#615,#71,.T.);
#532=EDGE_CURVE('',#613,#615,#25,.F.);
#533=EDGE_CURVE('',#616,#614,#72,.T.);
#534=EDGE_CURVE('',#616,#617,#73,.T.);
#535=EDGE_CURVE('',#615,#617,#74,.T.);
#536=EDGE_CURVE('',#602,#616,#654,.T.);
#537=EDGE_CURVE('',#617,#603,#655,.F.);
#538=EDGE_CURVE('',#618,#618,#656,.T.);
#539=EDGE_CURVE('',#619,#606,#75,.T.);
#540=EDGE_CURVE('',#619,#620,#76,.T.);
#541=EDGE_CURVE('',#607,#620,#77,.T.);
#542=EDGE_CURVE('',#581,#621,#78,.T.);
#543=EDGE_CURVE('',#622,#621,#79,.T.);
#544=EDGE_CURVE('',#622,#580,#80,.T.);
#545=EDGE_CURVE('',#623,#622,#81,.T.);
#546=EDGE_CURVE('',#574,#623,#82,.T.);
#547=EDGE_CURVE('',#623,#624,#83,.T.);
#548=EDGE_CURVE('',#624,#575,#84,.T.);
#549=EDGE_CURVE('',#624,#625,#85,.T.);
#550=EDGE_CURVE('',#625,#609,#86,.T.);
#551=EDGE_CURVE('',#620,#621,#87,.T.);
#552=EDGE_CURVE('',#626,#625,#88,.T.);
#553=EDGE_CURVE('',#608,#626,#89,.T.);
#554=EDGE_CURVE('',#626,#619,#90,.T.);
#555=VERTEX_POINT('',#1388);
#556=VERTEX_POINT('',#1390);
#557=VERTEX_POINT('',#1392);
#558=VERTEX_POINT('',#1395);
#559=VERTEX_POINT('',#1396);
#560=VERTEX_POINT('',#1398);
#561=VERTEX_POINT('',#1400);
#562=VERTEX_POINT('',#1402);
#563=VERTEX_POINT('',#1404);
#564=VERTEX_POINT('',#1406);
#565=VERTEX_POINT('',#1408);
#566=VERTEX_POINT('',#1449);
#567=VERTEX_POINT('',#1451);
#568=VERTEX_POINT('',#1453);
#569=VERTEX_POINT('',#1455);
#570=VERTEX_POINT('',#1459);
#571=VERTEX_POINT('',#1460);
#572=VERTEX_POINT('',#1463);
#573=VERTEX_POINT('',#1464);
#574=VERTEX_POINT('',#1466);
#575=VERTEX_POINT('',#1468);
#576=VERTEX_POINT('',#1472);
#577=VERTEX_POINT('',#1474);
#578=VERTEX_POINT('',#1478);
#579=VERTEX_POINT('',#1479);
#580=VERTEX_POINT('',#1484);
#581=VERTEX_POINT('',#1485);
#582=VERTEX_POINT('',#1490);
#583=VERTEX_POINT('',#1492);
#584=VERTEX_POINT('',#1495);
#585=VERTEX_POINT('',#1497);
#586=VERTEX_POINT('',#1500);
#587=VERTEX_POINT('',#1502);
#588=VERTEX_POINT('',#1505);
#589=VERTEX_POINT('',#1507);
#590=VERTEX_POINT('',#1510);
#591=VERTEX_POINT('',#1512);
#592=VERTEX_POINT('',#1516);
#593=VERTEX_POINT('',#1600);
#594=VERTEX_POINT('',#1604);
#595=VERTEX_POINT('',#1608);
#596=VERTEX_POINT('',#1612);
#597=VERTEX_POINT('',#1616);
#598=VERTEX_POINT('',#1620);
#599=VERTEX_POINT('',#1624);
#600=VERTEX_POINT('',#1628);
#601=VERTEX_POINT('',#1632);
#602=VERTEX_POINT('',#1638);
#603=VERTEX_POINT('',#1639);
#604=VERTEX_POINT('',#1641);
#605=VERTEX_POINT('',#1643);
#606=VERTEX_POINT('',#1647);
#607=VERTEX_POINT('',#1649);
#608=VERTEX_POINT('',#1653);
#609=VERTEX_POINT('',#1654);
#610=VERTEX_POINT('',#1656);
#611=VERTEX_POINT('',#1658);
#612=VERTEX_POINT('',#1662);
#613=VERTEX_POINT('',#1664);
#614=VERTEX_POINT('',#1750);
#615=VERTEX_POINT('',#1752);
#616=VERTEX_POINT('',#1795);
#617=VERTEX_POINT('',#1797);
#618=VERTEX_POINT('',#1804);
#619=VERTEX_POINT('',#1807);
#620=VERTEX_POINT('',#1809);
#621=VERTEX_POINT('',#1813);
#622=VERTEX_POINT('',#1815);
#623=VERTEX_POINT('',#1819);
#624=VERTEX_POINT('',#1823);
#625=VERTEX_POINT('',#1827);
#626=VERTEX_POINT('',#1832);
#627=CIRCLE('',#1115,2.5);
#628=CIRCLE('',#1116,2.5);
#629=CIRCLE('',#1119,1.);
#630=CIRCLE('',#1120,49.58);
#631=CIRCLE('',#1121,10.0710680748209);
#632=CIRCLE('',#1122,17.9999998388135);
#633=CIRCLE('',#1123,1.);
#634=CIRCLE('',#1125,2.5);
#635=CIRCLE('',#1129,5.);
#636=CIRCLE('',#1130,5.);
#637=CIRCLE('',#1133,4.2);
#638=CIRCLE('',#1134,4.19999999999998);
#639=CIRCLE('',#1136,4.2);
#640=CIRCLE('',#1137,4.20000000000001);
#641=CIRCLE('',#1139,4.2);
#642=CIRCLE('',#1140,4.2);
#643=CIRCLE('',#1142,4.2);
#644=CIRCLE('',#1143,4.2);
#645=CIRCLE('',#1145,10.0710680748209);
#646=CIRCLE('',#1149,17.9999998388135);
#647=CIRCLE('',#1152,1.);
#648=CIRCLE('',#1155,1.);
#649=CIRCLE('',#1158,49.58);
#650=CIRCLE('',#1162,52.58);
#651=CIRCLE('',#1163,52.58);
#652=CIRCLE('',#1165,14.9999998388135);
#653=CIRCLE('',#1166,14.9999998388135);
#654=CIRCLE('',#1170,7.07106807482092);
#655=CIRCLE('',#1171,7.07106807482092);
#656=CIRCLE('',#1173,2.5);
#657=EDGE_LOOP('',(#258));
#658=EDGE_LOOP('',(#259));
#659=EDGE_LOOP('',(#260));
#660=EDGE_LOOP('',(#261,#262,#263,#264,#265,#266,#267,#268,#269,#270,#271,
#272));
#661=EDGE_LOOP('',(#273));
#662=EDGE_LOOP('',(#274,#275,#276,#277));
#663=EDGE_LOOP('',(#278,#279,#280,#281));
#664=EDGE_LOOP('',(#282,#283,#284,#285));
#665=EDGE_LOOP('',(#286,#287,#288,#289));
#666=EDGE_LOOP('',(#290));
#667=EDGE_LOOP('',(#291));
#668=EDGE_LOOP('',(#292));
#669=EDGE_LOOP('',(#293));
#670=EDGE_LOOP('',(#294));
#671=EDGE_LOOP('',(#295));
#672=EDGE_LOOP('',(#296));
#673=EDGE_LOOP('',(#297));
#674=EDGE_LOOP('',(#298,#299,#300,#301));
#675=EDGE_LOOP('',(#302,#303,#304,#305));
#676=EDGE_LOOP('',(#306,#307,#308,#309));
#677=EDGE_LOOP('',(#310,#311,#312,#313));
#678=EDGE_LOOP('',(#314,#315,#316,#317));
#679=EDGE_LOOP('',(#318,#319,#320,#321));
#680=EDGE_LOOP('',(#322,#323,#324,#325));
#681=EDGE_LOOP('',(#326,#327,#328,#329));
#682=EDGE_LOOP('',(#330,#331,#332,#333));
#683=EDGE_LOOP('',(#334,#335,#336,#337));
#684=EDGE_LOOP('',(#338,#339,#340,#341));
#685=EDGE_LOOP('',(#342,#343,#344,#345));
#686=EDGE_LOOP('',(#346,#347,#348,#349));
#687=EDGE_LOOP('',(#350,#351,#352,#353));
#688=EDGE_LOOP('',(#354,#355,#356,#357));
#689=EDGE_LOOP('',(#358,#359,#360,#361));
#690=EDGE_LOOP('',(#362,#363,#364,#365));
#691=EDGE_LOOP('',(#366,#367,#368,#369));
#692=EDGE_LOOP('',(#370,#371,#372,#373));
#693=EDGE_LOOP('',(#374));
#694=EDGE_LOOP('',(#375));
#695=EDGE_LOOP('',(#376,#377,#378,#379));
#696=EDGE_LOOP('',(#380,#381,#382,#383));
#697=EDGE_LOOP('',(#384));
#698=EDGE_LOOP('',(#385));
#699=EDGE_LOOP('',(#386));
#700=EDGE_LOOP('',(#387));
#701=EDGE_LOOP('',(#388,#389,#390,#391,#392,#393,#394));
#702=EDGE_LOOP('',(#395,#396,#397,#398));
#703=EDGE_LOOP('',(#399));
#704=EDGE_LOOP('',(#400));
#705=EDGE_LOOP('',(#401));
#706=EDGE_LOOP('',(#402));
#707=EDGE_LOOP('',(#403,#404,#405,#406,#407,#408,#409,#410,#411,#412,#413,
#414,#415,#416,#417,#418,#419));
#708=EDGE_LOOP('',(#420,#421,#422,#423));
#709=EDGE_LOOP('',(#424,#425,#426,#427,#428,#429,#430,#431,#432,#433));
#710=EDGE_LOOP('',(#434,#435,#436,#437,#438,#439,#440,#441,#442,#443,#444,
#445));
#711=EDGE_LOOP('',(#446));
#712=EDGE_LOOP('',(#447,#448,#449,#450,#451,#452,#453,#454));
#713=EDGE_LOOP('',(#455));
#714=FACE_BOUND('',#657,.T.);
#715=FACE_BOUND('',#658,.T.);
#716=FACE_BOUND('',#659,.T.);
#717=FACE_BOUND('',#177,.T.);
#718=FACE_BOUND('',#660,.T.);
#719=FACE_BOUND('',#661,.T.);
#720=FACE_BOUND('',#178,.T.);
#721=FACE_BOUND('',#662,.T.);
#722=FACE_BOUND('',#663,.T.);
#723=FACE_BOUND('',#664,.T.);
#724=FACE_BOUND('',#665,.T.);
#725=FACE_BOUND('',#666,.T.);
#726=FACE_BOUND('',#667,.T.);
#727=FACE_BOUND('',#668,.T.);
#728=FACE_BOUND('',#669,.T.);
#729=FACE_BOUND('',#670,.T.);
#730=FACE_BOUND('',#671,.T.);
#731=FACE_BOUND('',#672,.T.);
#732=FACE_BOUND('',#673,.T.);
#733=FACE_BOUND('',#674,.T.);
#734=FACE_BOUND('',#675,.T.);
#735=FACE_BOUND('',#676,.T.);
#736=FACE_BOUND('',#677,.T.);
#737=FACE_BOUND('',#678,.T.);
#738=FACE_BOUND('',#679,.T.);
#739=FACE_BOUND('',#680,.T.);
#740=FACE_BOUND('',#681,.T.);
#741=FACE_BOUND('',#682,.T.);
#742=FACE_BOUND('',#683,.T.);
#743=FACE_BOUND('',#684,.T.);
#744=FACE_BOUND('',#685,.T.);
#745=FACE_BOUND('',#686,.T.);
#746=FACE_BOUND('',#687,.T.);
#747=FACE_BOUND('',#688,.T.);
#748=FACE_BOUND('',#689,.T.);
#749=FACE_BOUND('',#690,.T.);
#750=FACE_BOUND('',#691,.T.);
#751=FACE_BOUND('',#692,.T.);
#752=FACE_BOUND('',#693,.T.);
#753=FACE_BOUND('',#694,.T.);
#754=FACE_BOUND('',#695,.T.);
#755=FACE_BOUND('',#696,.T.);
#756=FACE_BOUND('',#697,.T.);
#757=FACE_BOUND('',#698,.T.);
#758=FACE_BOUND('',#699,.T.);
#759=FACE_BOUND('',#700,.T.);
#760=FACE_BOUND('',#701,.T.);
#761=FACE_BOUND('',#702,.T.);
#762=FACE_BOUND('',#703,.T.);
#763=FACE_BOUND('',#704,.T.);
#764=FACE_BOUND('',#705,.T.);
#765=FACE_BOUND('',#706,.T.);
#766=FACE_BOUND('',#707,.T.);
#767=FACE_BOUND('',#708,.T.);
#768=FACE_BOUND('',#709,.T.);
#769=FACE_BOUND('',#710,.T.);
#770=FACE_BOUND('',#711,.T.);
#771=FACE_BOUND('',#712,.T.);
#772=FACE_BOUND('',#713,.T.);
#773=CYLINDRICAL_SURFACE('',#1114,2.5);
#774=CYLINDRICAL_SURFACE('',#1128,5.);
#775=CYLINDRICAL_SURFACE('',#1132,4.2);
#776=CYLINDRICAL_SURFACE('',#1135,4.2);
#777=CYLINDRICAL_SURFACE('',#1138,4.2);
#778=CYLINDRICAL_SURFACE('',#1141,4.2);
#779=CYLINDRICAL_SURFACE('',#1144,10.0710680748209);
#780=CYLINDRICAL_SURFACE('',#1148,17.9999998388135);
#781=CYLINDRICAL_SURFACE('',#1151,1.);
#782=CYLINDRICAL_SURFACE('',#1154,1.);
#783=CYLINDRICAL_SURFACE('',#1157,49.58);
#784=CYLINDRICAL_SURFACE('',#1161,52.58);
#785=CYLINDRICAL_SURFACE('',#1164,14.9999998388135);
#786=CYLINDRICAL_SURFACE('',#1169,7.07106807482092);
#787=CYLINDRICAL_SURFACE('',#1172,2.5);
#788=STYLED_ITEM('',(#828),#1069);
#789=STYLED_ITEM('',(#829),#1070);
#790=STYLED_ITEM('',(#830),#1071);
#791=STYLED_ITEM('',(#831),#1072);
#792=STYLED_ITEM('',(#832),#1073);
#793=STYLED_ITEM('',(#833),#1074);
#794=STYLED_ITEM('',(#834),#1075);
#795=STYLED_ITEM('',(#835),#1076);
#796=STYLED_ITEM('',(#836),#1077);
#797=STYLED_ITEM('',(#837),#1078);
#798=STYLED_ITEM('',(#838),#1079);
#799=STYLED_ITEM('',(#839),#1080);
#800=STYLED_ITEM('',(#840),#1081);
#801=STYLED_ITEM('',(#841),#1082);
#802=STYLED_ITEM('',(#842),#1083);
#803=STYLED_ITEM('',(#843),#1084);
#804=STYLED_ITEM('',(#844),#1085);
#805=STYLED_ITEM('',(#845),#1086);
#806=STYLED_ITEM('',(#846),#1087);
#807=STYLED_ITEM('',(#847),#1088);
#808=STYLED_ITEM('',(#848),#1089);
#809=STYLED_ITEM('',(#849),#1090);
#810=STYLED_ITEM('',(#850),#1091);
#811=STYLED_ITEM('',(#851),#1092);
#812=STYLED_ITEM('',(#852),#1093);
#813=STYLED_ITEM('',(#853),#1094);
#814=STYLED_ITEM('',(#854),#1095);
#815=STYLED_ITEM('',(#855),#1096);
#816=STYLED_ITEM('',(#856),#1097);
#817=STYLED_ITEM('',(#857),#1098);
#818=STYLED_ITEM('',(#858),#1099);
#819=STYLED_ITEM('',(#859),#1100);
#820=STYLED_ITEM('',(#860),#1101);
#821=STYLED_ITEM('',(#861),#1102);
#822=STYLED_ITEM('',(#862),#1103);
#823=STYLED_ITEM('',(#863),#1104);
#824=STYLED_ITEM('',(#864),#1105);
#825=STYLED_ITEM('',(#865),#1106);
#826=STYLED_ITEM('',(#866),#1107);
#827=STYLED_ITEM('',(#867),#1108);
#828=PRESENTATION_STYLE_ASSIGNMENT((#868));
#829=PRESENTATION_STYLE_ASSIGNMENT((#869));
#830=PRESENTATION_STYLE_ASSIGNMENT((#870));
#831=PRESENTATION_STYLE_ASSIGNMENT((#871));
#832=PRESENTATION_STYLE_ASSIGNMENT((#872));
#833=PRESENTATION_STYLE_ASSIGNMENT((#873));
#834=PRESENTATION_STYLE_ASSIGNMENT((#874));
#835=PRESENTATION_STYLE_ASSIGNMENT((#875));
#836=PRESENTATION_STYLE_ASSIGNMENT((#876));
#837=PRESENTATION_STYLE_ASSIGNMENT((#877));
#838=PRESENTATION_STYLE_ASSIGNMENT((#878));
#839=PRESENTATION_STYLE_ASSIGNMENT((#879));
#840=PRESENTATION_STYLE_ASSIGNMENT((#880));
#841=PRESENTATION_STYLE_ASSIGNMENT((#881));
#842=PRESENTATION_STYLE_ASSIGNMENT((#882));
#843=PRESENTATION_STYLE_ASSIGNMENT((#883));
#844=PRESENTATION_STYLE_ASSIGNMENT((#884));
#845=PRESENTATION_STYLE_ASSIGNMENT((#885));
#846=PRESENTATION_STYLE_ASSIGNMENT((#886));
#847=PRESENTATION_STYLE_ASSIGNMENT((#887));
#848=PRESENTATION_STYLE_ASSIGNMENT((#888));
#849=PRESENTATION_STYLE_ASSIGNMENT((#889));
#850=PRESENTATION_STYLE_ASSIGNMENT((#890));
#851=PRESENTATION_STYLE_ASSIGNMENT((#891));
#852=PRESENTATION_STYLE_ASSIGNMENT((#892));
#853=PRESENTATION_STYLE_ASSIGNMENT((#893));
#854=PRESENTATION_STYLE_ASSIGNMENT((#894));
#855=PRESENTATION_STYLE_ASSIGNMENT((#895));
#856=PRESENTATION_STYLE_ASSIGNMENT((#896));
#857=PRESENTATION_STYLE_ASSIGNMENT((#897));
#858=PRESENTATION_STYLE_ASSIGNMENT((#898));
#859=PRESENTATION_STYLE_ASSIGNMENT((#899));
#860=PRESENTATION_STYLE_ASSIGNMENT((#900));
#861=PRESENTATION_STYLE_ASSIGNMENT((#901));
#862=PRESENTATION_STYLE_ASSIGNMENT((#902));
#863=PRESENTATION_STYLE_ASSIGNMENT((#903));
#864=PRESENTATION_STYLE_ASSIGNMENT((#904));
#865=PRESENTATION_STYLE_ASSIGNMENT((#905));
#866=PRESENTATION_STYLE_ASSIGNMENT((#906));
#867=PRESENTATION_STYLE_ASSIGNMENT((#907));
#868=SURFACE_STYLE_USAGE(.BOTH.,#908);
#869=SURFACE_STYLE_USAGE(.BOTH.,#909);
#870=SURFACE_STYLE_USAGE(.BOTH.,#910);
#871=SURFACE_STYLE_USAGE(.BOTH.,#911);
#872=SURFACE_STYLE_USAGE(.BOTH.,#912);
#873=SURFACE_STYLE_USAGE(.BOTH.,#913);
#874=SURFACE_STYLE_USAGE(.BOTH.,#914);
#875=SURFACE_STYLE_USAGE(.BOTH.,#915);
#876=SURFACE_STYLE_USAGE(.BOTH.,#916);
#877=SURFACE_STYLE_USAGE(.BOTH.,#917);
#878=SURFACE_STYLE_USAGE(.BOTH.,#918);
#879=SURFACE_STYLE_USAGE(.BOTH.,#919);
#880=SURFACE_STYLE_USAGE(.BOTH.,#920);
#881=SURFACE_STYLE_USAGE(.BOTH.,#921);
#882=SURFACE_STYLE_USAGE(.BOTH.,#922);
#883=SURFACE_STYLE_USAGE(.BOTH.,#923);
#884=SURFACE_STYLE_USAGE(.BOTH.,#924);
#885=SURFACE_STYLE_USAGE(.BOTH.,#925);
#886=SURFACE_STYLE_USAGE(.BOTH.,#926);
#887=SURFACE_STYLE_USAGE(.BOTH.,#927);
#888=SURFACE_STYLE_USAGE(.BOTH.,#928);
#889=SURFACE_STYLE_USAGE(.BOTH.,#929);
#890=SURFACE_STYLE_USAGE(.BOTH.,#930);
#891=SURFACE_STYLE_USAGE(.BOTH.,#931);
#892=SURFACE_STYLE_USAGE(.BOTH.,#932);
#893=SURFACE_STYLE_USAGE(.BOTH.,#933);
#894=SURFACE_STYLE_USAGE(.BOTH.,#934);
#895=SURFACE_STYLE_USAGE(.BOTH.,#935);
#896=SURFACE_STYLE_USAGE(.BOTH.,#936);
#897=SURFACE_STYLE_USAGE(.BOTH.,#937);
#898=SURFACE_STYLE_USAGE(.BOTH.,#938);
#899=SURFACE_STYLE_USAGE(.BOTH.,#939);
#900=SURFACE_STYLE_USAGE(.BOTH.,#940);
#901=SURFACE_STYLE_USAGE(.BOTH.,#941);
#902=SURFACE_STYLE_USAGE(.BOTH.,#942);
#903=SURFACE_STYLE_USAGE(.BOTH.,#943);
#904=SURFACE_STYLE_USAGE(.BOTH.,#944);
#905=SURFACE_STYLE_USAGE(.BOTH.,#945);
#906=SURFACE_STYLE_USAGE(.BOTH.,#946);
#907=SURFACE_STYLE_USAGE(.BOTH.,#947);
#908=SURFACE_SIDE_STYLE('',(#948));
#909=SURFACE_SIDE_STYLE('',(#949,#181));
#910=SURFACE_SIDE_STYLE('',(#950,#182));
#911=SURFACE_SIDE_STYLE('',(#951,#183));
#912=SURFACE_SIDE_STYLE('',(#952,#184));
#913=SURFACE_SIDE_STYLE('',(#953,#185));
#914=SURFACE_SIDE_STYLE('',(#954,#186));
#915=SURFACE_SIDE_STYLE('',(#955,#187));
#916=SURFACE_SIDE_STYLE('',(#956,#188));
#917=SURFACE_SIDE_STYLE('',(#957,#189));
#918=SURFACE_SIDE_STYLE('',(#958,#190));
#919=SURFACE_SIDE_STYLE('',(#959,#191));
#920=SURFACE_SIDE_STYLE('',(#960,#192));
#921=SURFACE_SIDE_STYLE('',(#961,#193));
#922=SURFACE_SIDE_STYLE('',(#962,#194));
#923=SURFACE_SIDE_STYLE('',(#963,#195));
#924=SURFACE_SIDE_STYLE('',(#964,#196));
#925=SURFACE_SIDE_STYLE('',(#965,#197));
#926=SURFACE_SIDE_STYLE('',(#966,#198));
#927=SURFACE_SIDE_STYLE('',(#967,#199));
#928=SURFACE_SIDE_STYLE('',(#968,#200));
#929=SURFACE_SIDE_STYLE('',(#969,#201));
#930=SURFACE_SIDE_STYLE('',(#970,#202));
#931=SURFACE_SIDE_STYLE('',(#971,#203));
#932=SURFACE_SIDE_STYLE('',(#972,#204));
#933=SURFACE_SIDE_STYLE('',(#973,#205));
#934=SURFACE_SIDE_STYLE('',(#974,#206));
#935=SURFACE_SIDE_STYLE('',(#975,#207));
#936=SURFACE_SIDE_STYLE('',(#976,#208));
#937=SURFACE_SIDE_STYLE('',(#977,#209));
#938=SURFACE_SIDE_STYLE('',(#978,#210));
#939=SURFACE_SIDE_STYLE('',(#979));
#940=SURFACE_SIDE_STYLE('',(#980,#211));
#941=SURFACE_SIDE_STYLE('',(#981,#212));
#942=SURFACE_SIDE_STYLE('',(#982,#213));
#943=SURFACE_SIDE_STYLE('',(#983,#214));
#944=SURFACE_SIDE_STYLE('',(#984,#215));
#945=SURFACE_SIDE_STYLE('',(#985,#216));
#946=SURFACE_SIDE_STYLE('',(#986,#217));
#947=SURFACE_SIDE_STYLE('',(#987,#218));
#948=SURFACE_STYLE_FILL_AREA(#988);
#949=SURFACE_STYLE_FILL_AREA(#989);
#950=SURFACE_STYLE_FILL_AREA(#990);
#951=SURFACE_STYLE_FILL_AREA(#991);
#952=SURFACE_STYLE_FILL_AREA(#992);
#953=SURFACE_STYLE_FILL_AREA(#993);
#954=SURFACE_STYLE_FILL_AREA(#994);
#955=SURFACE_STYLE_FILL_AREA(#995);
#956=SURFACE_STYLE_FILL_AREA(#996);
#957=SURFACE_STYLE_FILL_AREA(#997);
#958=SURFACE_STYLE_FILL_AREA(#998);
#959=SURFACE_STYLE_FILL_AREA(#999);
#960=SURFACE_STYLE_FILL_AREA(#1000);
#961=SURFACE_STYLE_FILL_AREA(#1001);
#962=SURFACE_STYLE_FILL_AREA(#1002);
#963=SURFACE_STYLE_FILL_AREA(#1003);
#964=SURFACE_STYLE_FILL_AREA(#1004);
#965=SURFACE_STYLE_FILL_AREA(#1005);
#966=SURFACE_STYLE_FILL_AREA(#1006);
#967=SURFACE_STYLE_FILL_AREA(#1007);
#968=SURFACE_STYLE_FILL_AREA(#1008);
#969=SURFACE_STYLE_FILL_AREA(#1009);
#970=SURFACE_STYLE_FILL_AREA(#1010);
#971=SURFACE_STYLE_FILL_AREA(#1011);
#972=SURFACE_STYLE_FILL_AREA(#1012);
#973=SURFACE_STYLE_FILL_AREA(#1013);
#974=SURFACE_STYLE_FILL_AREA(#1014);
#975=SURFACE_STYLE_FILL_AREA(#1015);
#976=SURFACE_STYLE_FILL_AREA(#1016);
#977=SURFACE_STYLE_FILL_AREA(#1017);
#978=SURFACE_STYLE_FILL_AREA(#1018);
#979=SURFACE_STYLE_FILL_AREA(#1019);
#980=SURFACE_STYLE_FILL_AREA(#1020);
#981=SURFACE_STYLE_FILL_AREA(#1021);
#982=SURFACE_STYLE_FILL_AREA(#1022);
#983=SURFACE_STYLE_FILL_AREA(#1023);
#984=SURFACE_STYLE_FILL_AREA(#1024);
#985=SURFACE_STYLE_FILL_AREA(#1025);
#986=SURFACE_STYLE_FILL_AREA(#1026);
#987=SURFACE_STYLE_FILL_AREA(#1027);
#988=FILL_AREA_STYLE('',(#1028));
#989=FILL_AREA_STYLE('',(#1029));
#990=FILL_AREA_STYLE('',(#1030));
#991=FILL_AREA_STYLE('',(#1031));
#992=FILL_AREA_STYLE('',(#1032));
#993=FILL_AREA_STYLE('',(#1033));
#994=FILL_AREA_STYLE('',(#1034));
#995=FILL_AREA_STYLE('',(#1035));
#996=FILL_AREA_STYLE('',(#1036));
#997=FILL_AREA_STYLE('',(#1037));
#998=FILL_AREA_STYLE('',(#1038));
#999=FILL_AREA_STYLE('',(#1039));
#1000=FILL_AREA_STYLE('',(#1040));
#1001=FILL_AREA_STYLE('',(#1041));
#1002=FILL_AREA_STYLE('',(#1042));
#1003=FILL_AREA_STYLE('',(#1043));
#1004=FILL_AREA_STYLE('',(#1044));
#1005=FILL_AREA_STYLE('',(#1045));
#1006=FILL_AREA_STYLE('',(#1046));
#1007=FILL_AREA_STYLE('',(#1047));
#1008=FILL_AREA_STYLE('',(#1048));
#1009=FILL_AREA_STYLE('',(#1049));
#1010=FILL_AREA_STYLE('',(#1050));
#1011=FILL_AREA_STYLE('',(#1051));
#1012=FILL_AREA_STYLE('',(#1052));
#1013=FILL_AREA_STYLE('',(#1053));
#1014=FILL_AREA_STYLE('',(#1054));
#1015=FILL_AREA_STYLE('',(#1055));
#1016=FILL_AREA_STYLE('',(#1056));
#1017=FILL_AREA_STYLE('',(#1057));
#1018=FILL_AREA_STYLE('',(#1058));
#1019=FILL_AREA_STYLE('',(#1059));
#1020=FILL_AREA_STYLE('',(#1060));
#1021=FILL_AREA_STYLE('',(#1061));
#1022=FILL_AREA_STYLE('',(#1062));
#1023=FILL_AREA_STYLE('',(#1063));
#1024=FILL_AREA_STYLE('',(#1064));
#1025=FILL_AREA_STYLE('',(#1065));
#1026=FILL_AREA_STYLE('',(#1066));
#1027=FILL_AREA_STYLE('',(#1067));
#1028=FILL_AREA_STYLE_COLOUR('',#1068);
#1029=FILL_AREA_STYLE_COLOUR('',#257);
#1030=FILL_AREA_STYLE_COLOUR('',#257);
#1031=FILL_AREA_STYLE_COLOUR('',#257);
#1032=FILL_AREA_STYLE_COLOUR('',#257);
#1033=FILL_AREA_STYLE_COLOUR('',#257);
#1034=FILL_AREA_STYLE_COLOUR('',#257);
#1035=FILL_AREA_STYLE_COLOUR('',#257);
#1036=FILL_AREA_STYLE_COLOUR('',#257);
#1037=FILL_AREA_STYLE_COLOUR('',#257);
#1038=FILL_AREA_STYLE_COLOUR('',#257);
#1039=FILL_AREA_STYLE_COLOUR('',#257);
#1040=FILL_AREA_STYLE_COLOUR('',#257);
#1041=FILL_AREA_STYLE_COLOUR('',#257);
#1042=FILL_AREA_STYLE_COLOUR('',#257);
#1043=FILL_AREA_STYLE_COLOUR('',#257);
#1044=FILL_AREA_STYLE_COLOUR('',#257);
#1045=FILL_AREA_STYLE_COLOUR('',#257);
#1046=FILL_AREA_STYLE_COLOUR('',#257);
#1047=FILL_AREA_STYLE_COLOUR('',#257);
#1048=FILL_AREA_STYLE_COLOUR('',#257);
#1049=FILL_AREA_STYLE_COLOUR('',#257);
#1050=FILL_AREA_STYLE_COLOUR('',#257);
#1051=FILL_AREA_STYLE_COLOUR('',#257);
#1052=FILL_AREA_STYLE_COLOUR('',#257);
#1053=FILL_AREA_STYLE_COLOUR('',#257);
#1054=FILL_AREA_STYLE_COLOUR('',#257);
#1055=FILL_AREA_STYLE_COLOUR('',#257);
#1056=FILL_AREA_STYLE_COLOUR('',#257);
#1057=FILL_AREA_STYLE_COLOUR('',#257);
#1058=FILL_AREA_STYLE_COLOUR('',#257);
#1059=FILL_AREA_STYLE_COLOUR('',#1068);
#1060=FILL_AREA_STYLE_COLOUR('',#257);
#1061=FILL_AREA_STYLE_COLOUR('',#257);
#1062=FILL_AREA_STYLE_COLOUR('',#257);
#1063=FILL_AREA_STYLE_COLOUR('',#257);
#1064=FILL_AREA_STYLE_COLOUR('',#257);
#1065=FILL_AREA_STYLE_COLOUR('',#257);
#1066=FILL_AREA_STYLE_COLOUR('',#257);
#1067=FILL_AREA_STYLE_COLOUR('',#257);
#1068=COLOUR_RGB('',0.1875,0.75,0.581249892711639);
#1069=ADVANCED_FACE('',(#714,#715),#773,.F.);
#1070=ADVANCED_FACE('',(#716,#717),#179,.F.);
#1071=ADVANCED_FACE('',(#718),#156,.F.);
#1072=ADVANCED_FACE('',(#719,#720),#180,.F.);
#1073=ADVANCED_FACE('',(#721),#157,.T.);
#1074=ADVANCED_FACE('',(#722),#158,.T.);
#1075=ADVANCED_FACE('',(#723),#774,.F.);
#1076=ADVANCED_FACE('',(#724),#159,.F.);
#1077=ADVANCED_FACE('',(#725,#726),#775,.F.);
#1078=ADVANCED_FACE('',(#727,#728),#776,.F.);
#1079=ADVANCED_FACE('',(#729,#730),#777,.F.);
#1080=ADVANCED_FACE('',(#731,#732),#778,.F.);
#1081=ADVANCED_FACE('',(#733),#779,.F.);
#1082=ADVANCED_FACE('',(#734),#160,.T.);
#1083=ADVANCED_FACE('',(#735),#20,.T.);
#1084=ADVANCED_FACE('',(#736),#161,.T.);
#1085=ADVANCED_FACE('',(#737),#780,.F.);
#1086=ADVANCED_FACE('',(#738),#162,.T.);
#1087=ADVANCED_FACE('',(#739),#781,.T.);
#1088=ADVANCED_FACE('',(#740),#163,.T.);
#1089=ADVANCED_FACE('',(#741),#782,.T.);
#1090=ADVANCED_FACE('',(#742),#164,.T.);
#1091=ADVANCED_FACE('',(#743),#783,.T.);
#1092=ADVANCED_FACE('',(#744),#165,.T.);
#1093=ADVANCED_FACE('',(#745),#166,.F.);
#1094=ADVANCED_FACE('',(#746),#784,.F.);
#1095=ADVANCED_FACE('',(#747),#785,.T.);
#1096=ADVANCED_FACE('',(#748),#167,.F.);
#1097=ADVANCED_FACE('',(#749),#21,.F.);
#1098=ADVANCED_FACE('',(#750),#168,.F.);
#1099=ADVANCED_FACE('',(#751),#786,.T.);
#1100=ADVANCED_FACE('',(#752,#753),#787,.F.);
#1101=ADVANCED_FACE('',(#754),#169,.F.);
#1102=ADVANCED_FACE('',(#755),#170,.F.);
#1103=ADVANCED_FACE('',(#756,#757,#758,#759,#760),#171,.T.);
#1104=ADVANCED_FACE('',(#761),#172,.T.);
#1105=ADVANCED_FACE('',(#762,#763,#764,#765,#766),#173,.F.);
#1106=ADVANCED_FACE('',(#767),#174,.F.);
#1107=ADVANCED_FACE('',(#768,#769),#175,.F.);
#1108=ADVANCED_FACE('',(#770,#771,#772),#176,.F.);
#1109=CLOSED_SHELL('',(#1069,#1070,#1071,#1072,#1073,#1074,#1075,#1076,
#1077,#1078,#1079,#1080,#1081,#1082,#1083,#1084,#1085,#1086,#1087,#1088,
#1089,#1090,#1091,#1092,#1093,#1094,#1095,#1096,#1097,#1098,#1099,#1100,
#1101,#1102,#1103,#1104,#1105,#1106,#1107,#1108));
#1110=MANIFOLD_SOLID_BREP('',#1109);
#1111=SHAPE_DEFINITION_REPRESENTATION(#1843,#1112);
#1112=SHAPE_REPRESENTATION('Front acrylic plane',(#1113),#1838);
#1113=AXIS2_PLACEMENT_3D('',#1385,#1182,#1183);
#1114=AXIS2_PLACEMENT_3D('',#1386,#1184,#1185);
#1115=AXIS2_PLACEMENT_3D('',#1387,#1186,#1187);
#1116=AXIS2_PLACEMENT_3D('',#1389,#1188,#1189);
#1117=AXIS2_PLACEMENT_3D('',#1391,#1190,#1191);
#1118=AXIS2_PLACEMENT_3D('',#1393,#1192,#1193);
#1119=AXIS2_PLACEMENT_3D('',#1397,#1195,#1196);
#1120=AXIS2_PLACEMENT_3D('',#1401,#1198,#1199);
#1121=AXIS2_PLACEMENT_3D('',#1405,#1201,#1202);
#1122=AXIS2_PLACEMENT_3D('',#1452,#1205,#1206);
#1123=AXIS2_PLACEMENT_3D('',#1456,#1208,#1209);
#1124=AXIS2_PLACEMENT_3D('',#1457,#1210,#1211);
#1125=AXIS2_PLACEMENT_3D('',#1458,#1212,#1213);
#1126=AXIS2_PLACEMENT_3D('',#1461,#1214,#1215);
#1127=AXIS2_PLACEMENT_3D('',#1470,#1220,#1221);
#1128=AXIS2_PLACEMENT_3D('',#1476,#1225,#1226);
#1129=AXIS2_PLACEMENT_3D('',#1480,#1228,#1229);
#1130=AXIS2_PLACEMENT_3D('',#1481,#1230,#1231);
#1131=AXIS2_PLACEMENT_3D('',#1482,#1232,#1233);
#1132=AXIS2_PLACEMENT_3D('',#1488,#1237,#1238);
#1133=AXIS2_PLACEMENT_3D('',#1489,#1239,#1240);
#1134=AXIS2_PLACEMENT_3D('',#1491,#1241,#1242);
#1135=AXIS2_PLACEMENT_3D('',#1493,#1243,#1244);
#1136=AXIS2_PLACEMENT_3D('',#1494,#1245,#1246);
#1137=AXIS2_PLACEMENT_3D('',#1496,#1247,#1248);
#1138=AXIS2_PLACEMENT_3D('',#1498,#1249,#1250);
#1139=AXIS2_PLACEMENT_3D('',#1499,#1251,#1252);
#1140=AXIS2_PLACEMENT_3D('',#1501,#1253,#1254);
#1141=AXIS2_PLACEMENT_3D('',#1503,#1255,#1256);
#1142=AXIS2_PLACEMENT_3D('',#1504,#1257,#1258);
#1143=AXIS2_PLACEMENT_3D('',#1506,#1259,#1260);
#1144=AXIS2_PLACEMENT_3D('',#1508,#1261,#1262);
#1145=AXIS2_PLACEMENT_3D('',#1511,#1264,#1265);
#1146=AXIS2_PLACEMENT_3D('',#1514,#1267,#1268);
#1147=AXIS2_PLACEMENT_3D('',#1602,#1272,#1273);
#1148=AXIS2_PLACEMENT_3D('',#1606,#1276,#1277);
#1149=AXIS2_PLACEMENT_3D('',#1607,#1278,#1279);
#1150=AXIS2_PLACEMENT_3D('',#1610,#1281,#1282);
#1151=AXIS2_PLACEMENT_3D('',#1614,#1285,#1286);
#1152=AXIS2_PLACEMENT_3D('',#1615,#1287,#1288);
#1153=AXIS2_PLACEMENT_3D('',#1618,#1290,#1291);
#1154=AXIS2_PLACEMENT_3D('',#1622,#1294,#1295);
#1155=AXIS2_PLACEMENT_3D('',#1623,#1296,#1297);
#1156=AXIS2_PLACEMENT_3D('',#1626,#1299,#1300);
#1157=AXIS2_PLACEMENT_3D('',#1630,#1303,#1304);
#1158=AXIS2_PLACEMENT_3D('',#1631,#1305,#1306);
#1159=AXIS2_PLACEMENT_3D('',#1634,#1308,#1309);
#1160=AXIS2_PLACEMENT_3D('',#1636,#1311,#1312);
#1161=AXIS2_PLACEMENT_3D('',#1645,#1317,#1318);
#1162=AXIS2_PLACEMENT_3D('',#1646,#1319,#1320);
#1163=AXIS2_PLACEMENT_3D('',#1650,#1322,#1323);
#1164=AXIS2_PLACEMENT_3D('',#1651,#1324,#1325);
#1165=AXIS2_PLACEMENT_3D('',#1655,#1327,#1328);
#1166=AXIS2_PLACEMENT_3D('',#1659,#1330,#1331);
#1167=AXIS2_PLACEMENT_3D('',#1660,#1332,#1333);
#1168=AXIS2_PLACEMENT_3D('',#1793,#1338,#1339);
#1169=AXIS2_PLACEMENT_3D('',#1799,#1343,#1344);
#1170=AXIS2_PLACEMENT_3D('',#1800,#1345,#1346);
#1171=AXIS2_PLACEMENT_3D('',#1801,#1347,#1348);
#1172=AXIS2_PLACEMENT_3D('',#1802,#1349,#1350);
#1173=AXIS2_PLACEMENT_3D('',#1803,#1351,#1352);
#1174=AXIS2_PLACEMENT_3D('',#1805,#1353,#1354);
#1175=AXIS2_PLACEMENT_3D('',#1811,#1358,#1359);
#1176=AXIS2_PLACEMENT_3D('',#1817,#1363,#1364);
#1177=AXIS2_PLACEMENT_3D('',#1821,#1367,#1368);
#1178=AXIS2_PLACEMENT_3D('',#1825,#1371,#1372);
#1179=AXIS2_PLACEMENT_3D('',#1830,#1376,#1377);
#1180=AXIS2_PLACEMENT_3D('',#1834,#1380,#1381);
#1181=AXIS2_PLACEMENT_3D('',#1836,#1383,#1384);
#1182=DIRECTION('',(0.,0.,1.));
#1183=DIRECTION('',(1.,0.,0.));
#1184=DIRECTION('',(0.,0.,1.));
#1185=DIRECTION('',(0.,1.,0.));
#1186=DIRECTION('',(0.,0.,1.));
#1187=DIRECTION('',(0.,-1.,0.));
#1188=DIRECTION('',(0.,0.,1.));
#1189=DIRECTION('',(1.,0.,0.));
#1190=DIRECTION('',(0.,0.,-1.));
#1191=DIRECTION('',(0.,-1.,0.));
#1192=DIRECTION('',(0.,1.,0.));
#1193=DIRECTION('',(0.,0.,1.));
#1194=DIRECTION('',(-1.,0.,-1.36370483560057E-13));
#1195=DIRECTION('',(0.,1.,0.));
#1196=DIRECTION('',(0.,0.,1.));
#1197=DIRECTION('',(1.37227084265744E-13,0.,-1.));
#1198=DIRECTION('',(0.,1.,0.));
#1199=DIRECTION('',(0.,0.,1.));
#1200=DIRECTION('',(1.,0.,1.36370483560057E-13));
#1201=DIRECTION('',(0.,1.,0.));
#1202=DIRECTION('',(0.,0.,1.));
#1203=DIRECTION('',(1.1882372053224E-11,0.,-1.));
#1204=DIRECTION('',(-1.,0.,-1.01016394536568E-9));
#1205=DIRECTION('',(0.,1.,0.));
#1206=DIRECTION('',(0.,0.,1.));
#1207=DIRECTION('',(9.44298936157837E-17,0.,1.));
#1208=DIRECTION('',(0.,1.,0.));
#1209=DIRECTION('',(0.,0.,1.));
#1210=DIRECTION('',(0.,0.,-1.));
#1211=DIRECTION('',(0.,-1.,0.));
#1212=DIRECTION('',(0.,0.,1.));
#1213=DIRECTION('',(0.,-1.,0.));
#1214=DIRECTION('',(0.,0.,1.));
#1215=DIRECTION('',(1.,0.,0.));
#1216=DIRECTION('',(0.,1.,0.));
#1217=DIRECTION('',(-1.,0.,0.));
#1218=DIRECTION('',(0.,1.,0.));
#1219=DIRECTION('',(1.,0.,0.));
#1220=DIRECTION('',(1.,0.,0.));
#1221=DIRECTION('',(0.,0.,-1.));
#1222=DIRECTION('',(0.,0.,-1.));
#1223=DIRECTION('',(0.,-1.,0.));
#1224=DIRECTION('',(-1.26161707343768E-16,0.,1.));
#1225=DIRECTION('',(0.,-1.,0.));
#1226=DIRECTION('',(0.,0.,-1.));
#1227=DIRECTION('',(0.,-1.,0.));
#1228=DIRECTION('',(0.,1.,0.));
#1229=DIRECTION('',(0.,0.,1.));
#1230=DIRECTION('',(0.,1.,0.));
#1231=DIRECTION('',(0.,0.,1.));
#1232=DIRECTION('',(-3.85494105772624E-17,0.,-1.));
#1233=DIRECTION('',(-1.,0.,3.85494105772624E-17));
#1234=DIRECTION('',(0.,-1.,0.));
#1235=DIRECTION('',(-1.,0.,0.));
#1236=DIRECTION('',(1.,0.,-3.85494105772624E-17));
#1237=DIRECTION('',(0.,1.,0.));
#1238=DIRECTION('',(0.,0.,-1.));
#1239=DIRECTION('',(0.,1.,0.));
#1240=DIRECTION('',(0.,0.,-1.));
#1241=DIRECTION('',(0.,-1.,0.));
#1242=DIRECTION('',(-1.,0.,0.));
#1243=DIRECTION('',(0.,1.,0.));
#1244=DIRECTION('',(1.,0.,-6.12323399573677E-17));
#1245=DIRECTION('',(0.,1.,0.));
#1246=DIRECTION('',(1.,0.,-6.12323399573677E-17));
#1247=DIRECTION('',(0.,-1.,0.));
#1248=DIRECTION('',(-1.,0.,0.));
#1249=DIRECTION('',(0.,1.,0.));
#1250=DIRECTION('',(1.22464679914735E-16,0.,1.));
#1251=DIRECTION('',(0.,1.,0.));
#1252=DIRECTION('',(1.22464679914735E-16,0.,1.));
#1253=DIRECTION('',(0.,-1.,0.));
#1254=DIRECTION('',(-1.,0.,0.));
#1255=DIRECTION('',(0.,1.,0.));
#1256=DIRECTION('',(-1.,0.,1.83697019872103E-16));
#1257=DIRECTION('',(0.,1.,0.));
#1258=DIRECTION('',(-1.,0.,1.83697019872103E-16));
#1259=DIRECTION('',(0.,-1.,0.));
#1260=DIRECTION('',(-1.,0.,0.));
#1261=DIRECTION('',(0.,-1.,0.));
#1262=DIRECTION('',(0.,0.,-1.));
#1263=DIRECTION('',(0.,-1.,0.));
#1264=DIRECTION('',(0.,1.,0.));
#1265=DIRECTION('',(1.,0.,1.36370483560057E-13));
#1266=DIRECTION('',(0.,-1.,0.));
#1267=DIRECTION('',(1.,0.,1.1882372053224E-11));
#1268=DIRECTION('',(1.1882372053224E-11,0.,-1.));
#1269=DIRECTION('',(-1.1882372053224E-11,0.,1.));
#1270=DIRECTION('',(0.,-1.,0.));
#1271=DIRECTION('',(0.,-1.,0.));
#1272=DIRECTION('',(1.01016394536568E-9,0.,-1.));
#1273=DIRECTION('',(-1.,0.,-1.01016394536568E-9));
#1274=DIRECTION('',(1.,0.,1.01016394536568E-9));
#1275=DIRECTION('',(0.,-1.,0.));
#1276=DIRECTION('',(0.,-1.,0.));
#1277=DIRECTION('',(0.,0.,-1.));
#1278=DIRECTION('',(0.,1.,0.));
#1279=DIRECTION('',(-1.,0.,-1.36370483560057E-13));
#1280=DIRECTION('',(0.,-1.,0.));
#1281=DIRECTION('',(-1.,0.,9.44298936157837E-17));
#1282=DIRECTION('',(9.44298936157837E-17,0.,1.));
#1283=DIRECTION('',(-9.44298936157837E-17,0.,-1.));
#1284=DIRECTION('',(0.,1.,0.));
#1285=DIRECTION('',(0.,1.,0.));
#1286=DIRECTION('',(0.,0.,1.));
#1287=DIRECTION('',(0.,1.,0.));
#1288=DIRECTION('',(0.,0.,1.));
#1289=DIRECTION('',(0.,1.,0.));
#1290=DIRECTION('',(1.36370483560057E-13,0.,-1.));
#1291=DIRECTION('',(-1.,0.,-1.36370483560057E-13));
#1292=DIRECTION('',(1.,0.,1.36370483560057E-13));
#1293=DIRECTION('',(0.,1.,0.));
#1294=DIRECTION('',(0.,1.,0.));
#1295=DIRECTION('',(0.,0.,1.));
#1296=DIRECTION('',(0.,1.,0.));
#1297=DIRECTION('',(0.,0.,1.));
#1298=DIRECTION('',(0.,1.,0.));
#1299=DIRECTION('',(1.,0.,1.37227084265744E-13));
#1300=DIRECTION('',(1.37227084265744E-13,0.,-1.));
#1301=DIRECTION('',(-1.37227084265744E-13,0.,1.));
#1302=DIRECTION('',(0.,-1.,0.));
#1303=DIRECTION('',(0.,-1.,0.));
#1304=DIRECTION('',(0.,0.,-1.));
#1305=DIRECTION('',(0.,-1.,0.));
#1306=DIRECTION('',(1.,0.,1.36370483560057E-13));
#1307=DIRECTION('',(0.,-1.,0.));
#1308=DIRECTION('',(-1.36370483560057E-13,0.,1.));
#1309=DIRECTION('',(1.,0.,1.36370483560057E-13));
#1310=DIRECTION('',(-1.,0.,-1.24898812500042E-13));
#1311=DIRECTION('',(-1.36734567171934E-13,0.,1.));
#1312=DIRECTION('',(1.,0.,1.36734567171934E-13));
#1313=DIRECTION('',(0.,-1.,0.));
#1314=DIRECTION('',(-1.,0.,-1.24898812500042E-13));
#1315=DIRECTION('',(0.,-1.,0.));
#1316=DIRECTION('',(1.,0.,1.36734567171934E-13));
#1317=DIRECTION('',(0.,-1.,0.));
#1318=DIRECTION('',(0.,0.,-1.));
#1319=DIRECTION('',(0.,-1.,0.));
#1320=DIRECTION('',(-1.,0.,-1.36370483560057E-13));
#1321=DIRECTION('',(0.,-1.,0.));
#1322=DIRECTION('',(0.,1.,0.));
#1323=DIRECTION('',(0.,0.,1.));
#1324=DIRECTION('',(0.,-1.,0.));
#1325=DIRECTION('',(0.,0.,-1.));
#1326=DIRECTION('',(0.,-1.,0.));
#1327=DIRECTION('',(0.,1.,0.));
#1328=DIRECTION('',(-1.,0.,-1.36370483560057E-13));
#1329=DIRECTION('',(0.,-1.,0.));
#1330=DIRECTION('',(0.,1.,0.));
#1331=DIRECTION('',(0.,0.,1.));
#1332=DIRECTION('',(1.0745060462329E-8,0.,-1.));
#1333=DIRECTION('',(-1.,0.,-1.0745060462329E-8));
#1334=DIRECTION('',(1.,0.,1.0745060462329E-8));
#1335=DIRECTION('',(0.,-1.,0.));
#1336=DIRECTION('',(-1.,0.,-1.0745060462329E-8));
#1337=DIRECTION('',(0.,-1.,0.));
#1338=DIRECTION('',(1.,0.,1.18820888566773E-11));
#1339=DIRECTION('',(1.18820888566773E-11,0.,-1.));
#1340=DIRECTION('',(-1.18820888566773E-11,0.,1.));
#1341=DIRECTION('',(0.,-1.,0.));
#1342=DIRECTION('',(1.18820888566773E-11,0.,-1.));
#1343=DIRECTION('',(0.,-1.,0.));
#1344=DIRECTION('',(0.,0.,-1.));
#1345=DIRECTION('',(0.,1.,0.));
#1346=DIRECTION('',(1.,0.,1.36370483560057E-13));
#1347=DIRECTION('',(0.,1.,0.));
#1348=DIRECTION('',(0.,0.,1.));
#1349=DIRECTION('',(0.,0.,1.));
#1350=DIRECTION('',(0.,1.,0.));
#1351=DIRECTION('',(0.,0.,1.));
#1352=DIRECTION('',(0.,1.,0.));
#1353=DIRECTION('',(1.,0.,1.36370483560057E-13));
#1354=DIRECTION('',(1.36370483560057E-13,0.,-1.));
#1355=DIRECTION('',(-1.36370483560057E-13,0.,1.));
#1356=DIRECTION('',(0.,-1.,0.));
#1357=DIRECTION('',(1.36370483560057E-13,0.,-1.));
#1358=DIRECTION('',(-1.,0.,0.));
#1359=DIRECTION('',(0.,0.,1.));
#1360=DIRECTION('',(0.,0.,-1.));
#1361=DIRECTION('',(0.,-1.,0.));
#1362=DIRECTION('',(-3.46944695195361E-16,0.,1.));
#1363=DIRECTION('',(0.,1.,0.));
#1364=DIRECTION('',(0.,0.,1.));
#1365=DIRECTION('',(1.,0.,0.));
#1366=DIRECTION('',(0.,0.,-1.));
#1367=DIRECTION('',(-1.,0.,0.));
#1368=DIRECTION('',(0.,0.,1.));
#1369=DIRECTION('',(0.,-1.,0.));
#1370=DIRECTION('',(0.,0.,1.));
#1371=DIRECTION('',(0.,1.,0.));
#1372=DIRECTION('',(0.,0.,1.));
#1373=DIRECTION('',(1.,0.,0.));
#1374=DIRECTION('',(-2.21853474452287E-15,0.,1.));
#1375=DIRECTION('',(1.,0.,0.));
#1376=DIRECTION('',(-1.,0.,-2.21853474452287E-15));
#1377=DIRECTION('',(-2.21853474452287E-15,0.,1.));
#1378=DIRECTION('',(0.,-1.,0.));
#1379=DIRECTION('',(2.21853474452287E-15,0.,-1.));
#1380=DIRECTION('',(0.,1.,0.));
#1381=DIRECTION('',(0.,0.,1.));
#1382=DIRECTION('',(1.,0.,1.36370483560057E-13));
#1383=DIRECTION('',(0.,0.,1.));
#1384=DIRECTION('',(1.,0.,0.));
#1385=CARTESIAN_POINT('',(0.,0.,0.));
#1386=CARTESIAN_POINT('',(113.71,-6.29999999999998,-110.));
#1387=CARTESIAN_POINT('',(113.71,-6.29999999999998,-95.));
#1388=CARTESIAN_POINT('',(113.71,-8.79999999999998,-95.));
#1389=CARTESIAN_POINT('',(113.71,-6.29999999999998,-110.));
#1390=CARTESIAN_POINT('',(116.21,-6.29999999999998,-110.));
#1391=CARTESIAN_POINT('',(113.71,-6.29999999999998,-95.));
#1392=CARTESIAN_POINT('',(113.71,-6.29999999999998,-93.4978484524311));
#1393=CARTESIAN_POINT('',(0.,-12.,0.));
#1394=CARTESIAN_POINT('',(1.45916417409293E-11,-12.,-108.500000000023));
#1395=CARTESIAN_POINT('',(168.18,-12.,-108.500000000001));
#1396=CARTESIAN_POINT('',(128.4,-12.,-108.500000000006));
#1397=CARTESIAN_POINT('',(168.18,-12.,-107.500000000001));
#1398=CARTESIAN_POINT('',(169.18,-12.,-107.5));
#1399=CARTESIAN_POINT('',(169.179999999985,-12.,2.32160781160765E-11));
#1400=CARTESIAN_POINT('',(169.179999999997,-12.,-90.7990002626934));
#1401=CARTESIAN_POINT('',(119.599999999997,-12.,-90.7990002627002));
#1402=CARTESIAN_POINT('',(119.599999999991,-12.,-41.2190002627002));
#1403=CARTESIAN_POINT('',(5.62105499768877E-12,-12.,-41.2190002627165));
#1404=CARTESIAN_POINT('',(80.2732206907013,-12.,-41.2190002627056));
#1405=CARTESIAN_POINT('',(80.2732206905802,-12.,-31.1479321878847));
#1406=CARTESIAN_POINT('',(70.2021526157593,-12.,-31.1479321880043));
#1407=CARTESIAN_POINT('',(70.2021526153892,-12.,8.34168096313267E-10));
#1408=CARTESIAN_POINT('',(70.202152615177,-12.,17.856153380774));
#1409=CARTESIAN_POINT('',(70.202152615177,-12.,17.856153380774));
#1410=CARTESIAN_POINT('',(70.2021412474342,-12.,22.3691464362074));
#1411=CARTESIAN_POINT('',(69.7693692760568,-12.,26.8785424918145));
#1412=CARTESIAN_POINT('',(67.7221175527447,-12.,37.4891730730513));
#1413=CARTESIAN_POINT('',(65.7109223015783,-12.,43.4998328961754));
#1414=CARTESIAN_POINT('',(60.1626149539041,-12.,54.9161076393099));
#1415=CARTESIAN_POINT('',(56.603584017283,-12.,60.2955308898077));
#1416=CARTESIAN_POINT('',(48.1422780601365,-12.,70.0568220255002));
#1417=CARTESIAN_POINT('',(43.2259765714736,-12.,74.4064080282165));
#1418=CARTESIAN_POINT('',(32.3382798331063,-12.,81.7725936593798));
#1419=CARTESIAN_POINT('',(26.3603695108437,-12.,84.7546263706761));
#1420=CARTESIAN_POINT('',(13.7165980838306,-12.,89.1284393405131));
#1421=CARTESIAN_POINT('',(7.05423310297574,-12.,90.4842182165917));
#1422=CARTESIAN_POINT('',(-6.52655500407191,-12.,91.4530434343764));
#1423=CARTESIAN_POINT('',(-13.4332464906918,-12.,91.0317320493003));
#1424=CARTESIAN_POINT('',(-27.0395521045272,-12.,88.4065100934712));
#1425=CARTESIAN_POINT('',(-33.7179578183867,-12.,86.1720186882801));
#1426=CARTESIAN_POINT('',(-46.4018100430346,-12.,80.0077098575012));
#1427=CARTESIAN_POINT('',(-52.3795094158177,-12.,76.0528744930259));
#1428=CARTESIAN_POINT('',(-63.2258998025624,-12.,66.6513446539151));
#1429=CARTESIAN_POINT('',(-68.0601558627025,-12.,61.1878149372612));
#1430=CARTESIAN_POINT('',(-76.2462028716779,-12.,49.0880891837957));
#1431=CARTESIAN_POINT('',(-79.5603192377803,-12.,42.4435529601016));
#1432=CARTESIAN_POINT('',(-84.4208833437514,-12.,28.3912846743148));
#1433=CARTESIAN_POINT('',(-85.9279662342964,-12.,20.9855916642467));
#1434=CARTESIAN_POINT('',(-87.0043218954485,-12.,5.88957796587003));
#1435=CARTESIAN_POINT('',(-86.5355114368503,-12.,-1.78881338311043));
#1436=CARTESIAN_POINT('',(-83.6197012740591,-12.,-16.9119482093816));
#1437=CARTESIAN_POINT('',(-81.1379046429971,-12.,-24.3364641783112));
#1438=CARTESIAN_POINT('',(-74.2762388248513,-12.,-38.4456944670121));
#1439=CARTESIAN_POINT('',(-69.87027963074,-12.,-45.0975497891656));
#1440=CARTESIAN_POINT('',(-59.4442745675189,-12.,-57.1345761502282));
#1441=CARTESIAN_POINT('',(-53.3990053893577,-12.,-62.4845542403701));
#1442=CARTESIAN_POINT('',(-39.859291720939,-12.,-71.6613881836066));
#1443=CARTESIAN_POINT('',(-32.3467225139338,-12.,-75.467874308553));
#1444=CARTESIAN_POINT('',(-20.8277697209653,-12.,-79.3017606632993));
#1445=CARTESIAN_POINT('',(-16.9623178579475,-12.,-80.2431210089308));
#1446=CARTESIAN_POINT('',(-8.93473231320954,-12.,-81.792769847212));
#1447=CARTESIAN_POINT('',(-4.7682759139784,-12.,-82.3928719779823));
#1448=CARTESIAN_POINT('',(-0.313671765965522,-12.,-83.0000002629532));
#1449=CARTESIAN_POINT('',(-0.313671765965522,-12.,-83.0000002629532));
#1450=CARTESIAN_POINT('',(8.3843607730657E-8,-12.,-83.0000002626363));
#1451=CARTESIAN_POINT('',(109.400000161183,-12.,-83.000000161644));
#1452=CARTESIAN_POINT('',(109.400000161187,-12.,-101.000000000455));
#1453=CARTESIAN_POINT('',(127.4,-12.,-101.000000000453));
#1454=CARTESIAN_POINT('',(127.4,-12.,-1.20303684466508E-14));
#1455=CARTESIAN_POINT('',(127.4,-12.,-107.500000000006));
#1456=CARTESIAN_POINT('',(128.4,-12.,-107.500000000006));
#1457=CARTESIAN_POINT('',(183.,-6.29999999999999,-95.));
#1458=CARTESIAN_POINT('',(183.,-6.29999999999999,-95.));
#1459=CARTESIAN_POINT('',(183.,-8.79999999999999,-95.));
#1460=CARTESIAN_POINT('',(183.,-6.29999999999999,-93.4978484524311));
#1461=CARTESIAN_POINT('',(-100.,-10.,100.));
#1462=CARTESIAN_POINT('',(100.,-10.,100.));
#1463=CARTESIAN_POINT('',(100.,-12.,100.));
#1464=CARTESIAN_POINT('',(100.,1.72500000000002,100.));
#1465=CARTESIAN_POINT('',(100.,1.72500000000002,100.));
#1466=CARTESIAN_POINT('',(-100.,1.72500000000002,100.));
#1467=CARTESIAN_POINT('',(-100.,-10.,100.));
#1468=CARTESIAN_POINT('',(-100.,-12.,100.));
#1469=CARTESIAN_POINT('',(-100.,-12.,100.));
#1470=CARTESIAN_POINT('',(100.,-10.,100.));
#1471=CARTESIAN_POINT('',(100.,-12.,100.));
#1472=CARTESIAN_POINT('',(100.,-12.,-25.));
#1473=CARTESIAN_POINT('',(100.,-10.,-25.));
#1474=CARTESIAN_POINT('',(100.,1.72500000000002,-25.));
#1475=CARTESIAN_POINT('',(100.,1.72500000000002,-9.99999999999998));
#1476=CARTESIAN_POINT('',(105.,-1.34999999999999,-25.));
#1477=CARTESIAN_POINT('',(105.,-1.34999999999999,-30.));
#1478=CARTESIAN_POINT('',(105.,1.72500000000002,-30.));
#1479=CARTESIAN_POINT('',(105.,-12.,-30.));
#1480=CARTESIAN_POINT('',(105.,1.72500000000002,-25.));
#1481=CARTESIAN_POINT('',(105.,-12.,-25.));
#1482=CARTESIAN_POINT('',(100.,-1.34999999999999,-30.));
#1483=CARTESIAN_POINT('',(190.,-1.34999999999999,-30.));
#1484=CARTESIAN_POINT('',(190.,1.72500000000002,-30.));
#1485=CARTESIAN_POINT('',(190.,-12.,-30.));
#1486=CARTESIAN_POINT('',(190.,1.72500000000002,-30.));
#1487=CARTESIAN_POINT('',(100.,-12.,-30.));
#1488=CARTESIAN_POINT('',(-91.9238815542512,-12.,91.9238815542512));
#1489=CARTESIAN_POINT('',(-91.9238815542512,-12.,91.9238815542512));
#1490=CARTESIAN_POINT('',(-91.9238815542512,-12.,87.7238815542512));
#1491=CARTESIAN_POINT('',(-91.9238815542512,1.72500000000002,91.9238815542512));
#1492=CARTESIAN_POINT('',(-96.1238815542512,1.72500000000002,91.9238815542512));
#1493=CARTESIAN_POINT('',(-91.9238815542512,-12.,-91.9238815542512));
#1494=CARTESIAN_POINT('',(-91.9238815542512,-12.,-91.9238815542512));
#1495=CARTESIAN_POINT('',(-87.7238815542512,-12.,-91.9238815542512));
#1496=CARTESIAN_POINT('',(-91.9238815542512,1.72500000000002,-91.9238815542512));
#1497=CARTESIAN_POINT('',(-96.1238815542512,1.72500000000002,-91.9238815542512));
#1498=CARTESIAN_POINT('',(91.9238815542512,-12.,-91.9238815542512));
#1499=CARTESIAN_POINT('',(91.9238815542512,-12.,-91.9238815542512));
#1500=CARTESIAN_POINT('',(91.9238815542512,-12.,-87.7238815542512));
#1501=CARTESIAN_POINT('',(91.9238815542512,1.72500000000002,-91.9238815542512));
#1502=CARTESIAN_POINT('',(87.7238815542512,1.72500000000002,-91.9238815542512));
#1503=CARTESIAN_POINT('',(91.9238815542512,-12.,91.9238815542512));
#1504=CARTESIAN_POINT('',(91.9238815542512,-12.,91.9238815542512));
#1505=CARTESIAN_POINT('',(87.7238815542512,-12.,91.9238815542512));
#1506=CARTESIAN_POINT('',(91.9238815542512,1.72500000000002,91.9238815542512));
#1507=CARTESIAN_POINT('',(87.7238815542512,1.72500000000002,91.9238815542512));
#1508=CARTESIAN_POINT('',(80.2732206905802,-10.975,-31.1479321878847));
#1509=CARTESIAN_POINT('',(80.2732206907013,-10.975,-41.2190002627056));
#1510=CARTESIAN_POINT('',(80.2732206907013,-9.94999999999998,-41.2190002627056));
#1511=CARTESIAN_POINT('',(80.2732206905802,-9.94999999999998,-31.1479321878847));
#1512=CARTESIAN_POINT('',(70.2021526157593,-9.94999999999998,-31.1479321880043));
#1513=CARTESIAN_POINT('',(70.2021526157593,-10.975,-31.1479321880043));
#1514=CARTESIAN_POINT('',(70.2021526157593,-10.975,-31.1479321880043));
#1515=CARTESIAN_POINT('',(70.2021526157593,-9.94999999999998,-31.1479321880043));
#1516=CARTESIAN_POINT('',(70.202152615177,-9.94999999999998,17.856153380774));
#1517=CARTESIAN_POINT('',(70.202152615177,-10.975,17.856153380774));
#1518=CARTESIAN_POINT('',(70.202152615177,-9.94999999999998,17.856153380774));
#1519=CARTESIAN_POINT('',(70.202152615177,-12.,17.856153380774));
#1520=CARTESIAN_POINT('',(70.2021322357392,-9.94999999999998,25.9467886734158));
#1521=CARTESIAN_POINT('',(70.2021322357392,-12.,25.9467886734158));
#1522=CARTESIAN_POINT('',(67.3924725398301,-9.94999999999999,42.1078806213395));
#1523=CARTESIAN_POINT('',(67.3924725398301,-12.,42.1078806213395));
#1524=CARTESIAN_POINT('',(55.4514322406175,-9.94999999999999,63.5604121396103));
#1525=CARTESIAN_POINT('',(55.4514322406175,-12.,63.5604121396103));
#1526=CARTESIAN_POINT('',(37.2704958488505,-9.94999999999998,79.9882757032904));
#1527=CARTESIAN_POINT('',(37.2704958488505,-12.,79.9882757032904));
#1528=CARTESIAN_POINT('',(14.8869538412824,-9.94999999999999,89.8330771660494));
#1529=CARTESIAN_POINT('',(14.8869538412824,-12.,89.8330771660494));
#1530=CARTESIAN_POINT('',(-9.39502843643551,-9.94999999999998,92.2935026878705));
#1531=CARTESIAN_POINT('',(-9.39502843643551,-12.,92.2935026878705));
#1532=CARTESIAN_POINT('',(-33.2453650163377,-9.94999999999999,87.3221464835903));
#1533=CARTESIAN_POINT('',(-33.2453650163377,-12.,87.3221464835903));
#1534=CARTESIAN_POINT('',(-54.5265038596264,-9.94999999999998,75.5483650509514));
#1535=CARTESIAN_POINT('',(-54.5265038596264,-12.,75.5483650509514));
#1536=CARTESIAN_POINT('',(-71.4613557770661,-9.94999999999999,58.1452693022293));
#1537=CARTESIAN_POINT('',(-71.4613557770661,-12.,58.1452693022293));
#1538=CARTESIAN_POINT('',(-82.7473259701441,-9.94999999999998,36.6874899247575));
#1539=CARTESIAN_POINT('',(-82.7473259701441,-12.,36.6874899247575));
#1540=CARTESIAN_POINT('',(-87.6095881489399,-9.94999999999999,12.9708167058749));
#1541=CARTESIAN_POINT('',(-87.6095881489399,-12.,12.9708167058749));
#1542=CARTESIAN_POINT('',(-85.8259218222578,-9.94999999999998,-11.1348387483195));
#1543=CARTESIAN_POINT('',(-85.8259218222578,-12.,-11.1348387483195));
#1544=CARTESIAN_POINT('',(-77.6590795942677,-9.94999999999998,-33.8583132564755));
#1545=CARTESIAN_POINT('',(-77.6590795942677,-12.,-33.8583132564755));
#1546=CARTESIAN_POINT('',(-63.8306004725478,-9.94999999999999,-53.6132632199978));
#1547=CARTESIAN_POINT('',(-63.8306004725478,-12.,-53.6132632199978));
#1548=CARTESIAN_POINT('',(-48.5221596590829,-9.94999999999998,-66.4779937401535));
#1549=CARTESIAN_POINT('',(-48.5221596590829,-12.,-66.4779937401535));
#1550=CARTESIAN_POINT('',(-34.4323514008039,-9.94999999999999,-74.3689708329049));
#1551=CARTESIAN_POINT('',(-34.4323514008039,-12.,-74.3689708329049));
#1552=CARTESIAN_POINT('',(-23.3397261835951,-9.94999999999999,-78.7557399012026));
#1553=CARTESIAN_POINT('',(-23.3397261835951,-12.,-78.7557399012026));
#1554=CARTESIAN_POINT('',(-12.2506803240791,-9.94999999999998,-81.3159503136207));
#1555=CARTESIAN_POINT('',(-12.2506803240791,-12.,-81.3159503136207));
#1556=CARTESIAN_POINT('',(-4.46015286656763,-9.94999999999998,-82.4348667795671));
#1557=CARTESIAN_POINT('',(-4.46015286656763,-12.,-82.4348667795671));
#1558=CARTESIAN_POINT('',(-0.313671765965522,-9.94999999999998,-83.0000002629532));
#1559=CARTESIAN_POINT('',(-0.313671765965522,-12.,-83.0000002629532));
#1560=CARTESIAN_POINT('',(70.202152615177,-9.94999999999998,17.856153380774));
#1561=CARTESIAN_POINT('',(70.2021412474342,-9.94999999999998,22.3691464362074));
#1562=CARTESIAN_POINT('',(69.7693692760568,-9.94999999999998,26.8785424918145));
#1563=CARTESIAN_POINT('',(67.7221175527447,-9.94999999999998,37.4891730730513));
#1564=CARTESIAN_POINT('',(65.7109223015783,-9.94999999999998,43.4998328961754));
#1565=CARTESIAN_POINT('',(60.1626149539041,-9.94999999999998,54.9161076393099));
#1566=CARTESIAN_POINT('',(56.603584017283,-9.94999999999998,60.2955308898077));
#1567=CARTESIAN_POINT('',(48.1422780601365,-9.94999999999998,70.0568220255002));
#1568=CARTESIAN_POINT('',(43.2259765714736,-9.94999999999998,74.4064080282165));
#1569=CARTESIAN_POINT('',(32.3382798331063,-9.94999999999998,81.7725936593798));
#1570=CARTESIAN_POINT('',(26.3603695108437,-9.94999999999998,84.7546263706761));
#1571=CARTESIAN_POINT('',(13.7165980838306,-9.94999999999998,89.1284393405131));
#1572=CARTESIAN_POINT('',(7.05423310297574,-9.94999999999998,90.4842182165917));
#1573=CARTESIAN_POINT('',(-6.52655500407191,-9.94999999999998,91.4530434343764));
#1574=CARTESIAN_POINT('',(-13.4332464906918,-9.94999999999998,91.0317320493003));
#1575=CARTESIAN_POINT('',(-27.0395521045272,-9.94999999999998,88.4065100934712));
#1576=CARTESIAN_POINT('',(-33.7179578183867,-9.94999999999998,86.1720186882801));
#1577=CARTESIAN_POINT('',(-46.4018100430346,-9.94999999999998,80.0077098575012));
#1578=CARTESIAN_POINT('',(-52.3795094158177,-9.94999999999998,76.0528744930259));
#1579=CARTESIAN_POINT('',(-63.2258998025624,-9.94999999999998,66.6513446539151));
#1580=CARTESIAN_POINT('',(-68.0601558627025,-9.94999999999998,61.1878149372612));
#1581=CARTESIAN_POINT('',(-76.2462028716779,-9.94999999999998,49.0880891837957));
#1582=CARTESIAN_POINT('',(-79.5603192377803,-9.94999999999998,42.4435529601016));
#1583=CARTESIAN_POINT('',(-84.4208833437514,-9.94999999999998,28.3912846743148));
#1584=CARTESIAN_POINT('',(-85.9279662342964,-9.94999999999998,20.9855916642467));
#1585=CARTESIAN_POINT('',(-87.0043218954485,-9.94999999999998,5.88957796587003));
#1586=CARTESIAN_POINT('',(-86.5355114368503,-9.94999999999998,-1.78881338311043));
#1587=CARTESIAN_POINT('',(-83.6197012740591,-9.94999999999998,-16.9119482093816));
#1588=CARTESIAN_POINT('',(-81.1379046429971,-9.94999999999998,-24.3364641783112));
#1589=CARTESIAN_POINT('',(-74.2762388248513,-9.94999999999998,-38.4456944670121));
#1590=CARTESIAN_POINT('',(-69.87027963074,-9.94999999999998,-45.0975497891656));
#1591=CARTESIAN_POINT('',(-59.4442745675189,-9.94999999999998,-57.1345761502282));
#1592=CARTESIAN_POINT('',(-53.3990053893577,-9.94999999999998,-62.4845542403701));
#1593=CARTESIAN_POINT('',(-39.859291720939,-9.94999999999998,-71.6613881836066));
#1594=CARTESIAN_POINT('',(-32.3467225139338,-9.94999999999998,-75.467874308553));
#1595=CARTESIAN_POINT('',(-20.8277697209653,-9.94999999999998,-79.3017606632993));
#1596=CARTESIAN_POINT('',(-16.9623178579475,-9.94999999999998,-80.2431210089308));
#1597=CARTESIAN_POINT('',(-8.93473231320954,-9.94999999999998,-81.792769847212));
#1598=CARTESIAN_POINT('',(-4.7682759139784,-9.94999999999998,-82.3928719779823));
#1599=CARTESIAN_POINT('',(-0.313671765965522,-9.94999999999998,-83.0000002629532));
#1600=CARTESIAN_POINT('',(-0.313671765965522,-9.94999999999998,-83.0000002629532));
#1601=CARTESIAN_POINT('',(-0.313671765965522,-10.975,-83.0000002629532));
#1602=CARTESIAN_POINT('',(-0.313671765965522,-10.975,-83.0000002629532));
#1603=CARTESIAN_POINT('',(-0.313671765965522,-9.94999999999998,-83.0000002629532));
#1604=CARTESIAN_POINT('',(109.400000161183,-9.94999999999998,-83.000000161644));
#1605=CARTESIAN_POINT('',(109.400000161183,-10.975,-83.000000161644));
#1606=CARTESIAN_POINT('',(109.400000161187,-10.975,-101.000000000455));
#1607=CARTESIAN_POINT('',(109.400000161187,-9.94999999999998,-101.000000000455));
#1608=CARTESIAN_POINT('',(127.4,-9.94999999999998,-101.000000000453));
#1609=CARTESIAN_POINT('',(127.4,-10.975,-101.000000000453));
#1610=CARTESIAN_POINT('',(127.4,-10.975,-101.000000000453));
#1611=CARTESIAN_POINT('',(127.4,-9.94999999999998,-101.000000000453));
#1612=CARTESIAN_POINT('',(127.4,-9.94999999999998,-107.500000000006));
#1613=CARTESIAN_POINT('',(127.4,-10.975,-107.500000000006));
#1614=CARTESIAN_POINT('',(128.4,-10.975,-107.500000000006));
#1615=CARTESIAN_POINT('',(128.4,-9.94999999999998,-107.500000000006));
#1616=CARTESIAN_POINT('',(128.4,-9.94999999999998,-108.500000000006));
#1617=CARTESIAN_POINT('',(128.4,-10.975,-108.500000000006));
#1618=CARTESIAN_POINT('',(127.4,-10.975,-108.500000000006));
#1619=CARTESIAN_POINT('',(127.4,-9.94999999999998,-108.500000000006));
#1620=CARTESIAN_POINT('',(168.18,-9.94999999999998,-108.500000000001));
#1621=CARTESIAN_POINT('',(168.18,-10.975,-108.500000000001));
#1622=CARTESIAN_POINT('',(168.18,-10.975,-107.500000000001));
#1623=CARTESIAN_POINT('',(168.18,-9.94999999999998,-107.500000000001));
#1624=CARTESIAN_POINT('',(169.18,-9.94999999999998,-107.5));
#1625=CARTESIAN_POINT('',(169.18,-10.975,-107.5));
#1626=CARTESIAN_POINT('',(169.18,-10.975,-107.));
#1627=CARTESIAN_POINT('',(169.18,-9.94999999999998,-107.));
#1628=CARTESIAN_POINT('',(169.179999999997,-9.94999999999998,-90.7990002626934));
#1629=CARTESIAN_POINT('',(169.179999999997,-10.975,-90.7990002626934));
#1630=CARTESIAN_POINT('',(119.599999999997,-10.975,-90.7990002627002));
#1631=CARTESIAN_POINT('',(119.599999999997,-9.94999999999998,-90.7990002627002));
#1632=CARTESIAN_POINT('',(119.599999999991,-9.94999999999998,-41.2190002627002));
#1633=CARTESIAN_POINT('',(119.599999999991,-10.975,-41.2190002627002));
#1634=CARTESIAN_POINT('',(118.3902557757,-10.975,-41.2190002627004));
#1635=CARTESIAN_POINT('',(119.599999999991,-9.94999999999998,-41.2190002627002));
#1636=CARTESIAN_POINT('',(118.3902557757,-10.975,-38.2190002627004));
#1637=CARTESIAN_POINT('',(80.2732206906652,-10.975,-38.2190002627056));
#1638=CARTESIAN_POINT('',(80.2732206906652,-9.94999999999998,-38.2190002627056));
#1639=CARTESIAN_POINT('',(80.2732206906652,-12.,-38.2190002627056));
#1640=CARTESIAN_POINT('',(118.3902557757,-9.94999999999998,-38.2190002627004));
#1641=CARTESIAN_POINT('',(119.59999999999,-9.94999999999998,-38.2190002627002));
#1642=CARTESIAN_POINT('',(119.59999999999,-10.975,-38.2190002627002));
#1643=CARTESIAN_POINT('',(119.59999999999,-12.,-38.2190002627002));
#1644=CARTESIAN_POINT('',(5.2258584586666E-12,-12.,-38.2190002627166));
#1645=CARTESIAN_POINT('',(119.599999999997,-10.975,-90.7990002627002));
#1646=CARTESIAN_POINT('',(119.599999999997,-9.94999999999998,-90.7990002627002));
#1647=CARTESIAN_POINT('',(172.179999999997,-9.94999999999998,-90.799000262693));
#1648=CARTESIAN_POINT('',(172.179999999997,-10.975,-90.799000262693));
#1649=CARTESIAN_POINT('',(172.179999999997,-12.,-90.799000262693));
#1650=CARTESIAN_POINT('',(119.599999999997,-12.,-90.7990002627002));
#1651=CARTESIAN_POINT('',(109.400000161187,-10.975,-101.000000000455));
#1652=CARTESIAN_POINT('',(124.4,-10.975,-101.000000000453));
#1653=CARTESIAN_POINT('',(124.4,-9.94999999999998,-101.000000000453));
#1654=CARTESIAN_POINT('',(124.4,-12.,-101.000000000453));
#1655=CARTESIAN_POINT('',(109.400000161187,-9.94999999999998,-101.000000000455));
#1656=CARTESIAN_POINT('',(109.400000161183,-9.94999999999998,-86.000000161644));
#1657=CARTESIAN_POINT('',(109.400000161183,-10.975,-86.000000161644));
#1658=CARTESIAN_POINT('',(109.400000161183,-12.,-86.000000161644));
#1659=CARTESIAN_POINT('',(109.400000161187,-12.,-101.000000000455));
#1660=CARTESIAN_POINT('',(109.400000161183,-10.975,-86.000000161644));
#1661=CARTESIAN_POINT('',(109.400000161183,-9.94999999999998,-86.000000161644));
#1662=CARTESIAN_POINT('',(-0.517301832219201,-9.94999999999998,-86.0000002629533));
#1663=CARTESIAN_POINT('',(-0.517301832219201,-10.975,-86.0000002629533));
#1664=CARTESIAN_POINT('',(-0.517301832219201,-12.,-86.0000002629533));
#1665=CARTESIAN_POINT('',(9.2407521412809E-7,-12.,-86.0000013371536));
#1666=CARTESIAN_POINT('',(73.202152615177,-9.94999999999998,17.8561533808097));
#1667=CARTESIAN_POINT('',(73.202152615177,-12.,17.8561533808097));
#1668=CARTESIAN_POINT('',(73.2020818068409,-9.94999999999998,26.2948154564714));
#1669=CARTESIAN_POINT('',(73.2020818068409,-12.,26.2948154564714));
#1670=CARTESIAN_POINT('',(70.2699475855103,-9.94999999999999,43.1441329600891));
#1671=CARTESIAN_POINT('',(70.2699475855103,-12.,43.1441329600891));
#1672=CARTESIAN_POINT('',(57.8247148542337,-9.94999999999997,65.4851467901724));
#1673=CARTESIAN_POINT('',(57.8247148542337,-12.,65.4851467901724));
#1674=CARTESIAN_POINT('',(38.8941354796171,-9.94999999999998,82.574216974151));
#1675=CARTESIAN_POINT('',(38.8941354796171,-12.,82.574216974151));
#1676=CARTESIAN_POINT('',(15.6109130128026,-9.94999999999999,92.7970721216485));
#1677=CARTESIAN_POINT('',(15.6109130128026,-12.,92.7970721216485));
#1678=CARTESIAN_POINT('',(-9.62124875065609,-9.94999999999998,95.3343495974489));
#1679=CARTESIAN_POINT('',(-9.62124875065609,-12.,95.3343495974489));
#1680=CARTESIAN_POINT('',(-34.380435225138,-9.94999999999999,90.150313998917));
#1681=CARTESIAN_POINT('',(-34.380435225138,-12.,90.150313998917));
#1682=CARTESIAN_POINT('',(-56.4471424032295,-9.94999999999998,77.9123213929928));
#1683=CARTESIAN_POINT('',(-56.4471424032295,-12.,77.9123213929928));
#1684=CARTESIAN_POINT('',(-73.9849811918281,-9.94999999999998,59.8481654948823));
#1685=CARTESIAN_POINT('',(-73.9849811918281,-12.,59.8481654948823));
#1686=CARTESIAN_POINT('',(-85.6502246991853,-9.94999999999998,37.6008216021299));
#1687=CARTESIAN_POINT('',(-85.6502246991853,-12.,37.6008216021299));
#1688=CARTESIAN_POINT('',(-90.6508250027993,-9.94999999999998,13.0360149901526));
#1689=CARTESIAN_POINT('',(-90.6508250027993,-12.,13.0360149901526));
#1690=CARTESIAN_POINT('',(-88.7680856676785,-9.94999999999998,-11.9042310054335));
#1691=CARTESIAN_POINT('',(-88.7680856676785,-12.,-11.9042310054335));
#1692=CARTESIAN_POINT('',(-80.2837808653122,-9.94999999999999,-35.3928703721247));
#1693=CARTESIAN_POINT('',(-80.2837808653122,-12.,-35.3928703721247));
#1694=CARTESIAN_POINT('',(-65.9564553581044,-9.94999999999998,-55.784734616581));
#1695=CARTESIAN_POINT('',(-65.9564553581044,-12.,-55.784734616581));
#1696=CARTESIAN_POINT('',(-50.1245752879463,-9.94999999999997,-69.0436109223027));
#1697=CARTESIAN_POINT('',(-50.1245752879463,-12.,-69.0436109223027));
#1698=CARTESIAN_POINT('',(-37.3806399719501,-9.94999999999999,-76.1469805649733));
#1699=CARTESIAN_POINT('',(-37.3806399719501,-12.,-76.1469805649733));
#1700=CARTESIAN_POINT('',(-29.8290033948733,-9.94999999999998,-79.4212636867098));
#1701=CARTESIAN_POINT('',(-29.8290033948733,-12.,-79.4212636867098));
#1702=CARTESIAN_POINT('',(-22.127275250972,-9.94999999999999,-82.1256726461138));
#1703=CARTESIAN_POINT('',(-22.127275250972,-12.,-82.1256726461138));
#1704=CARTESIAN_POINT('',(-12.584751531875,-9.94999999999998,-84.3067105706047));
#1705=CARTESIAN_POINT('',(-12.584751531875,-12.,-84.3067105706047));
#1706=CARTESIAN_POINT('',(-4.68496063920147,-9.94999999999998,-85.432607087332));
#1707=CARTESIAN_POINT('',(-4.68496063920147,-12.,-85.432607087332));
#1708=CARTESIAN_POINT('',(-0.517301832219201,-9.94999999999998,-86.0000002629533));
#1709=CARTESIAN_POINT('',(-0.517301832219201,-12.,-86.0000002629533));
#1710=CARTESIAN_POINT('',(73.202152615177,-9.94999999999998,17.8561533808097));
#1711=CARTESIAN_POINT('',(73.2021131378968,-9.94999999999998,22.5609020826296));
#1712=CARTESIAN_POINT('',(72.7510688852179,-9.94999999999998,27.2600314097797));
#1713=CARTESIAN_POINT('',(70.6173864730185,-9.94999999999998,38.3182449350098));
#1714=CARTESIAN_POINT('',(68.5227938953079,-9.94999999999998,44.5771192760063));
#1715=CARTESIAN_POINT('',(62.7448350166696,-9.94999999999998,56.4659128219914));
#1716=CARTESIAN_POINT('',(59.0410875186374,-9.94999999999998,62.063564677046));
#1717=CARTESIAN_POINT('',(50.235139432583,-9.94999999999998,72.22243765748));
#1718=CARTESIAN_POINT('',(45.1225122940873,-9.94999999999998,76.7452784904693));
#1719=CARTESIAN_POINT('',(33.7996564368974,-9.94999999999998,84.4058676625403));
#1720=CARTESIAN_POINT('',(27.5873389187433,-9.94999999999998,87.5045162669855));
#1721=CARTESIAN_POINT('',(14.4463461860134,-9.94999999999998,92.0503237077146));
#1722=CARTESIAN_POINT('',(7.52733189651421,-9.94999999999998,93.4580007686948));
#1723=CARTESIAN_POINT('',(-6.57771752453081,-9.94999999999998,94.4642190392874));
#1724=CARTESIAN_POINT('',(-13.7457296847805,-9.94999999999998,94.0266765744144));
#1725=CARTESIAN_POINT('',(-27.8686347846181,-9.94999999999998,91.3017740975375));
#1726=CARTESIAN_POINT('',(-34.7951889327654,-9.94999999999998,88.9839110274095));
#1727=CARTESIAN_POINT('',(-47.9516525961823,-9.94999999999998,82.5899073078794));
#1728=CARTESIAN_POINT('',(-54.1475023562666,-9.94999999999998,78.4904006561415));
#1729=CARTESIAN_POINT('',(-65.3914622679814,-9.94999999999998,68.7442527979994));
#1730=CARTESIAN_POINT('',(-70.3989586603733,-9.94999999999998,63.0844461321054));
#1731=CARTESIAN_POINT('',(-78.8795643299496,-9.94999999999998,50.5493237209641));
#1732=CARTESIAN_POINT('',(-82.3102495325585,-9.94999999999998,43.67041561789));
#1733=CARTESIAN_POINT('',(-87.3427799171348,-9.94999999999998,29.1209608872078));
#1734=CARTESIAN_POINT('',(-88.9017557905714,-9.94999999999998,21.4586734905254));
#1735=CARTESIAN_POINT('',(-90.0154938534193,-9.94999999999998,5.83822153438407));
#1736=CARTESIAN_POINT('',(-89.5304318756978,-9.94999999999998,-2.10120114919801));
#1737=CARTESIAN_POINT('',(-86.5151318868575,-9.94999999999998,-17.7404026852724));
#1738=CARTESIAN_POINT('',(-83.9499189886833,-9.94999999999998,-25.4136229998579));
#1739=CARTESIAN_POINT('',(-76.8576844458763,-9.94999999999998,-39.9967841813776));
#1740=CARTESIAN_POINT('',(-72.3077500820388,-9.94999999999998,-46.8653716568669));
#1741=CARTESIAN_POINT('',(-61.5380379504339,-9.94999999999998,-59.2996083516448));
#1742=CARTESIAN_POINT('',(-55.2941374169858,-9.94999999999998,-64.8243736528329));
#1743=CARTESIAN_POINT('',(-41.3294405216691,-9.94999999999998,-74.2879326140412));
#1744=CARTESIAN_POINT('',(-33.5850620956077,-9.94999999999998,-78.2163604045883));
#1745=CARTESIAN_POINT('',(-21.6228940626682,-9.94999999999998,-82.1990209931318));
#1746=CARTESIAN_POINT('',(-17.6236739013501,-9.94999999999998,-83.1708914054706));
#1747=CARTESIAN_POINT('',(-9.34542519407709,-9.94999999999998,-84.7686395694901));
#1748=CARTESIAN_POINT('',(-5.05969568971368,-9.94999999999998,-85.3815899287367));
#1749=CARTESIAN_POINT('',(-0.517301832219201,-9.94999999999998,-86.0000002629533));
#1750=CARTESIAN_POINT('',(73.202152615177,-9.94999999999998,17.8561533808097));
#1751=CARTESIAN_POINT('',(73.202152615177,-10.975,17.8561533808097));
#1752=CARTESIAN_POINT('',(73.202152615177,-12.,17.8561533808097));
#1753=CARTESIAN_POINT('',(73.202152615177,-12.,17.8561533808097));
#1754=CARTESIAN_POINT('',(73.2021131378968,-12.,22.5609020826296));
#1755=CARTESIAN_POINT('',(72.7510688852179,-12.,27.2600314097797));
#1756=CARTESIAN_POINT('',(70.6173864730185,-12.,38.3182449350098));
#1757=CARTESIAN_POINT('',(68.5227938953079,-12.,44.5771192760063));
#1758=CARTESIAN_POINT('',(62.7448350166696,-12.,56.4659128219914));
#1759=CARTESIAN_POINT('',(59.0410875186374,-12.,62.063564677046));
#1760=CARTESIAN_POINT('',(50.235139432583,-12.,72.22243765748));
#1761=CARTESIAN_POINT('',(45.1225122940873,-12.,76.7452784904693));
#1762=CARTESIAN_POINT('',(33.7996564368974,-12.,84.4058676625403));
#1763=CARTESIAN_POINT('',(27.5873389187433,-12.,87.5045162669855));
#1764=CARTESIAN_POINT('',(14.4463461860134,-12.,92.0503237077146));
#1765=CARTESIAN_POINT('',(7.52733189651421,-12.,93.4580007686948));
#1766=CARTESIAN_POINT('',(-6.57771752453081,-12.,94.4642190392874));
#1767=CARTESIAN_POINT('',(-13.7457296847805,-12.,94.0266765744144));
#1768=CARTESIAN_POINT('',(-27.8686347846181,-12.,91.3017740975375));
#1769=CARTESIAN_POINT('',(-34.7951889327654,-12.,88.9839110274095));
#1770=CARTESIAN_POINT('',(-47.9516525961823,-12.,82.5899073078794));
#1771=CARTESIAN_POINT('',(-54.1475023562666,-12.,78.4904006561415));
#1772=CARTESIAN_POINT('',(-65.3914622679814,-12.,68.7442527979994));
#1773=CARTESIAN_POINT('',(-70.3989586603733,-12.,63.0844461321054));
#1774=CARTESIAN_POINT('',(-78.8795643299496,-12.,50.5493237209641));
#1775=CARTESIAN_POINT('',(-82.3102495325585,-12.,43.67041561789));
#1776=CARTESIAN_POINT('',(-87.3427799171348,-12.,29.1209608872078));
#1777=CARTESIAN_POINT('',(-88.9017557905714,-12.,21.4586734905254));
#1778=CARTESIAN_POINT('',(-90.0154938534193,-12.,5.83822153438407));
#1779=CARTESIAN_POINT('',(-89.5304318756978,-12.,-2.10120114919801));
#1780=CARTESIAN_POINT('',(-86.5151318868575,-12.,-17.7404026852724));
#1781=CARTESIAN_POINT('',(-83.9499189886833,-12.,-25.4136229998579));
#1782=CARTESIAN_POINT('',(-76.8576844458763,-12.,-39.9967841813776));
#1783=CARTESIAN_POINT('',(-72.3077500820388,-12.,-46.8653716568669));
#1784=CARTESIAN_POINT('',(-61.5380379504339,-12.,-59.2996083516448));
#1785=CARTESIAN_POINT('',(-55.2941374169858,-12.,-64.8243736528329));
#1786=CARTESIAN_POINT('',(-41.3294405216691,-12.,-74.2879326140412));
#1787=CARTESIAN_POINT('',(-33.5850620956077,-12.,-78.2163604045883));
#1788=CARTESIAN_POINT('',(-21.6228940626682,-12.,-82.1990209931318));
#1789=CARTESIAN_POINT('',(-17.6236739013501,-12.,-83.1708914054706));
#1790=CARTESIAN_POINT('',(-9.34542519407709,-12.,-84.7686395694901));
#1791=CARTESIAN_POINT('',(-5.05969568971368,-12.,-85.3815899287367));
#1792=CARTESIAN_POINT('',(-0.517301832219201,-12.,-86.0000002629533));
#1793=CARTESIAN_POINT('',(73.2021526157593,-10.975,-31.1479321879687));
#1794=CARTESIAN_POINT('',(73.2021526157593,-9.94999999999998,-31.1479321879687));
#1795=CARTESIAN_POINT('',(73.2021526157593,-9.94999999999998,-31.1479321879687));
#1796=CARTESIAN_POINT('',(73.2021526157593,-10.975,-31.1479321879687));
#1797=CARTESIAN_POINT('',(73.2021526157593,-12.,-31.1479321879687));
#1798=CARTESIAN_POINT('',(73.2021526153892,-12.,8.69794481876106E-10));
#1799=CARTESIAN_POINT('',(80.2732206905802,-10.975,-31.1479321878847));
#1800=CARTESIAN_POINT('',(80.2732206905802,-9.94999999999998,-31.1479321878847));
#1801=CARTESIAN_POINT('',(80.2732206905802,-12.,-31.1479321878847));
#1802=CARTESIAN_POINT('',(183.,-6.29999999999999,-110.));
#1803=CARTESIAN_POINT('',(183.,-6.29999999999999,-110.));
#1804=CARTESIAN_POINT('',(183.,-3.79999999999999,-110.));
#1805=CARTESIAN_POINT('',(172.179999999997,-10.975,-90.799000262693));
#1806=CARTESIAN_POINT('',(172.179999999997,-9.94999999999998,-90.799000262693));
#1807=CARTESIAN_POINT('',(172.18,-9.94999999999998,-110.));
#1808=CARTESIAN_POINT('',(172.18,-10.975,-110.));
#1809=CARTESIAN_POINT('',(172.18,-12.,-110.));
#1810=CARTESIAN_POINT('',(172.179999999985,-12.,2.34802698593686E-11));
#1811=CARTESIAN_POINT('',(190.,-1.34999999999999,-30.));
#1812=CARTESIAN_POINT('',(190.,-12.,-30.));
#1813=CARTESIAN_POINT('',(190.,-12.,-110.));
#1814=CARTESIAN_POINT('',(190.,-1.34999999999999,-110.));
#1815=CARTESIAN_POINT('',(190.,1.72500000000002,-110.));
#1816=CARTESIAN_POINT('',(190.,1.72500000000002,-110.));
#1817=CARTESIAN_POINT('',(120.,1.72500000000002,-9.99999999999998));
#1818=CARTESIAN_POINT('',(-100.,1.72500000000002,-110.));
#1819=CARTESIAN_POINT('',(-100.,1.72500000000002,-110.));
#1820=CARTESIAN_POINT('',(-100.,1.72500000000002,100.));
#1821=CARTESIAN_POINT('',(-100.,-10.,-100.));
#1822=CARTESIAN_POINT('',(-100.,-1.34999999999999,-110.));
#1823=CARTESIAN_POINT('',(-100.,-12.,-110.));
#1824=CARTESIAN_POINT('',(-100.,-12.,-100.));
#1825=CARTESIAN_POINT('',(0.,-12.,0.));
#1826=CARTESIAN_POINT('',(-100.,-12.,-110.));
#1827=CARTESIAN_POINT('',(124.4,-12.,-110.000000000007));
#1828=CARTESIAN_POINT('',(124.4,-12.,2.75985722218645E-13));
#1829=CARTESIAN_POINT('',(-100.,-12.,-110.));
#1830=CARTESIAN_POINT('',(124.4,-10.975,-110.000000000007));
#1831=CARTESIAN_POINT('',(124.4,-10.975,-110.000000000007));
#1832=CARTESIAN_POINT('',(124.4,-9.94999999999998,-110.));
#1833=CARTESIAN_POINT('',(124.4,-9.94999999999998,-110.000000000007));
#1834=CARTESIAN_POINT('',(80.2732206905802,-9.94999999999998,-31.1479321878847));
#1835=CARTESIAN_POINT('',(172.18,-9.94999999999998,-110.));
#1836=CARTESIAN_POINT('',(0.,0.,-110.));
#1837=MECHANICAL_DESIGN_GEOMETRIC_PRESENTATION_REPRESENTATION('',(#788,
#789,#790,#791,#792,#793,#794,#795,#796,#797,#798,#799,#800,#801,#802,#803,
#804,#805,#806,#807,#808,#809,#810,#811,#812,#813,#814,#815,#816,#817,#818,
#819,#820,#821,#822,#823,#824,#825,#826,#827),#1838);
#1838=(
GEOMETRIC_REPRESENTATION_CONTEXT(3)
GLOBAL_UNCERTAINTY_ASSIGNED_CONTEXT((#1839))
GLOBAL_UNIT_ASSIGNED_CONTEXT((#1842,#1841,#1840))
REPRESENTATION_CONTEXT('Front acrylic plane','TOP_LEVEL_ASSEMBLY_PART')
);
#1839=UNCERTAINTY_MEASURE_WITH_UNIT(LENGTH_MEASURE(0.005),#1842,
'DISTANCE_ACCURACY_VALUE','Maximum Tolerance applied to model');
#1840=(
NAMED_UNIT(*)
SI_UNIT($,.STERADIAN.)
SOLID_ANGLE_UNIT()
);
#1841=(
NAMED_UNIT(*)
PLANE_ANGLE_UNIT()
SI_UNIT($,.RADIAN.)
);
#1842=(
LENGTH_UNIT()
NAMED_UNIT(*)
SI_UNIT(.MILLI.,.METRE.)
);
#1843=PRODUCT_DEFINITION_SHAPE('','',#1844);
#1844=PRODUCT_DEFINITION('','',#1846,#1845);
#1845=PRODUCT_DEFINITION_CONTEXT('',#1852,'design');
#1846=PRODUCT_DEFINITION_FORMATION_WITH_SPECIFIED_SOURCE('','',#1848,
 .NOT_KNOWN.);
#1847=PRODUCT_RELATED_PRODUCT_CATEGORY('','',(#1848));
#1848=PRODUCT('Front acrylic plane','Front acrylic plane',
'Front acrylic plane',(#1850));
#1849=PRODUCT_CATEGORY('','');
#1850=PRODUCT_CONTEXT('',#1852,'mechanical');
#1851=APPLICATION_PROTOCOL_DEFINITION('international standard',
'automotive_design',2010,#1852);
#1852=APPLICATION_CONTEXT(
'core data for automotive mechanical design processes');
ENDSEC;
END-ISO-10303-21;
