ISO-10303-21;
HEADER;
/* Generated by software containing ST-Developer
 * from STEP Tools, Inc. (www.steptools.com) 
 */
/* OPTION: strings as raw bytes, not using required /X/ escapes */

FILE_DESCRIPTION(
/* description */ ('Unknown'),
/* implementation_level */ '2;1');

FILE_NAME(
/* name */ 'Impeller blade',
/* time_stamp */ '2023-02-01T10:16:06-03:00',
/* author */ ('Unknown'),
/* organization */ ('Unknown'),
/* preprocessor_version */ 'ST-DEVELOPER v16.7',
/* originating_system */ 'Solid Edge',
/* authorisation */ 'Unknown');

FILE_SCHEMA (('AUTOMOTIVE_DESIGN {1 0 10303 214 3 1 1}'));
ENDSEC;

DATA;
#10=PROPERTY_DEFINITION_REPRESENTATION(#14,#12);
#11=PROPERTY_DEFINITION_REPRESENTATION(#15,#13);
#12=REPRESENTATION('',(#16),#193);
#13=REPRESENTATION('',(#17),#193);
#14=PROPERTY_DEFINITION('pmi validation property','',#198);
#15=PROPERTY_DEFINITION('pmi validation property','',#198);
#16=VALUE_REPRESENTATION_ITEM('number of annotations',COUNT_MEASURE(0.));
#17=VALUE_REPRESENTATION_ITEM('number of views',COUNT_MEASURE(0.));
#18=SHAPE_REPRESENTATION_RELATIONSHIP('','',#115,#19);
#19=ADVANCED_BREP_SHAPE_REPRESENTATION('',(#113),#193);
#20=PLANE('',#129);
#21=PLANE('',#130);
#22=LINE('',#170,#26);
#23=LINE('',#174,#27);
#24=LINE('',#178,#28);
#25=LINE('',#184,#29);
#26=VECTOR('',#137,1000.);
#27=VECTOR('',#140,1000.);
#28=VECTOR('',#145,1000.);
#29=VECTOR('',#152,1000.);
#30=ORIENTED_EDGE('',*,*,#54,.T.);
#31=ORIENTED_EDGE('',*,*,#55,.F.);
#32=ORIENTED_EDGE('',*,*,#56,.F.);
#33=ORIENTED_EDGE('',*,*,#57,.T.);
#34=ORIENTED_EDGE('',*,*,#58,.T.);
#35=ORIENTED_EDGE('',*,*,#59,.F.);
#36=ORIENTED_EDGE('',*,*,#60,.F.);
#37=ORIENTED_EDGE('',*,*,#55,.T.);
#38=ORIENTED_EDGE('',*,*,#61,.T.);
#39=ORIENTED_EDGE('',*,*,#62,.F.);
#40=ORIENTED_EDGE('',*,*,#63,.F.);
#41=ORIENTED_EDGE('',*,*,#59,.T.);
#42=ORIENTED_EDGE('',*,*,#64,.F.);
#43=ORIENTED_EDGE('',*,*,#57,.F.);
#44=ORIENTED_EDGE('',*,*,#65,.T.);
#45=ORIENTED_EDGE('',*,*,#62,.T.);
#46=ORIENTED_EDGE('',*,*,#56,.T.);
#47=ORIENTED_EDGE('',*,*,#60,.T.);
#48=ORIENTED_EDGE('',*,*,#63,.T.);
#49=ORIENTED_EDGE('',*,*,#65,.F.);
#50=ORIENTED_EDGE('',*,*,#54,.F.);
#51=ORIENTED_EDGE('',*,*,#64,.T.);
#52=ORIENTED_EDGE('',*,*,#61,.F.);
#53=ORIENTED_EDGE('',*,*,#58,.F.);
#54=EDGE_CURVE('',#66,#67,#74,.T.);
#55=EDGE_CURVE('',#68,#67,#22,.T.);
#56=EDGE_CURVE('',#69,#68,#75,.T.);
#57=EDGE_CURVE('',#69,#66,#23,.T.);
#58=EDGE_CURVE('',#67,#70,#76,.T.);
#59=EDGE_CURVE('',#71,#70,#24,.T.);
#60=EDGE_CURVE('',#68,#71,#77,.T.);
#61=EDGE_CURVE('',#70,#72,#78,.T.);
#62=EDGE_CURVE('',#73,#72,#25,.T.);
#63=EDGE_CURVE('',#71,#73,#79,.T.);
#64=EDGE_CURVE('',#66,#72,#80,.T.);
#65=EDGE_CURVE('',#69,#73,#81,.T.);
#66=VERTEX_POINT('',#168);
#67=VERTEX_POINT('',#169);
#68=VERTEX_POINT('',#171);
#69=VERTEX_POINT('',#173);
#70=VERTEX_POINT('',#177);
#71=VERTEX_POINT('',#179);
#72=VERTEX_POINT('',#183);
#73=VERTEX_POINT('',#185);
#74=CIRCLE('',#118,54.5);
#75=CIRCLE('',#119,54.5);
#76=CIRCLE('',#121,45.9570210989919);
#77=CIRCLE('',#122,45.9570210989919);
#78=CIRCLE('',#124,1.76916105663754);
#79=CIRCLE('',#125,1.76916105663754);
#80=CIRCLE('',#127,42.9570210989918);
#81=CIRCLE('',#128,42.9570210989918);
#82=EDGE_LOOP('',(#30,#31,#32,#33));
#83=EDGE_LOOP('',(#34,#35,#36,#37));
#84=EDGE_LOOP('',(#38,#39,#40,#41));
#85=EDGE_LOOP('',(#42,#43,#44,#45));
#86=EDGE_LOOP('',(#46,#47,#48,#49));
#87=EDGE_LOOP('',(#50,#51,#52,#53));
#88=FACE_BOUND('',#82,.T.);
#89=FACE_BOUND('',#83,.T.);
#90=FACE_BOUND('',#84,.T.);
#91=FACE_BOUND('',#85,.T.);
#92=FACE_BOUND('',#86,.T.);
#93=FACE_BOUND('',#87,.T.);
#94=CYLINDRICAL_SURFACE('',#117,54.5);
#95=CYLINDRICAL_SURFACE('',#120,45.9570210989919);
#96=CYLINDRICAL_SURFACE('',#123,1.76916105663754);
#97=CYLINDRICAL_SURFACE('',#126,42.9570210989918);
#98=ADVANCED_FACE('',(#88),#94,.T.);
#99=ADVANCED_FACE('',(#89),#95,.T.);
#100=ADVANCED_FACE('',(#90),#96,.T.);
#101=ADVANCED_FACE('',(#91),#97,.F.);
#102=ADVANCED_FACE('',(#92),#20,.T.);
#103=ADVANCED_FACE('',(#93),#21,.F.);
#104=CLOSED_SHELL('',(#98,#99,#100,#101,#102,#103));
#105=STYLED_ITEM('',(#106),#113);
#106=PRESENTATION_STYLE_ASSIGNMENT((#107));
#107=SURFACE_STYLE_USAGE(.BOTH.,#108);
#108=SURFACE_SIDE_STYLE('',(#109));
#109=SURFACE_STYLE_FILL_AREA(#110);
#110=FILL_AREA_STYLE('',(#111));
#111=FILL_AREA_STYLE_COLOUR('',#112);
#112=COLOUR_RGB('',0.,0.699999988079071,0.699999988079071);
#113=MANIFOLD_SOLID_BREP('',#104);
#114=SHAPE_DEFINITION_REPRESENTATION(#198,#115);
#115=SHAPE_REPRESENTATION('Impeller blade',(#116),#193);
#116=AXIS2_PLACEMENT_3D('',#165,#131,#132);
#117=AXIS2_PLACEMENT_3D('',#166,#133,#134);
#118=AXIS2_PLACEMENT_3D('',#167,#135,#136);
#119=AXIS2_PLACEMENT_3D('',#172,#138,#139);
#120=AXIS2_PLACEMENT_3D('',#175,#141,#142);
#121=AXIS2_PLACEMENT_3D('',#176,#143,#144);
#122=AXIS2_PLACEMENT_3D('',#180,#146,#147);
#123=AXIS2_PLACEMENT_3D('',#181,#148,#149);
#124=AXIS2_PLACEMENT_3D('',#182,#150,#151);
#125=AXIS2_PLACEMENT_3D('',#186,#153,#154);
#126=AXIS2_PLACEMENT_3D('',#187,#155,#156);
#127=AXIS2_PLACEMENT_3D('',#188,#157,#158);
#128=AXIS2_PLACEMENT_3D('',#189,#159,#160);
#129=AXIS2_PLACEMENT_3D('',#190,#161,#162);
#130=AXIS2_PLACEMENT_3D('',#191,#163,#164);
#131=DIRECTION('',(0.,0.,1.));
#132=DIRECTION('',(1.,0.,0.));
#133=DIRECTION('',(0.,0.,-1.));
#134=DIRECTION('',(-1.,0.,0.));
#135=DIRECTION('',(0.,0.,1.));
#136=DIRECTION('',(1.,0.,0.));
#137=DIRECTION('',(0.,0.,-1.));
#138=DIRECTION('',(0.,0.,1.));
#139=DIRECTION('',(1.,0.,0.));
#140=DIRECTION('',(0.,0.,-1.));
#141=DIRECTION('',(0.,0.,-1.));
#142=DIRECTION('',(-1.,0.,0.));
#143=DIRECTION('',(0.,0.,1.));
#144=DIRECTION('',(1.,0.,0.));
#145=DIRECTION('',(0.,0.,-1.));
#146=DIRECTION('',(0.,0.,1.));
#147=DIRECTION('',(1.,0.,0.));
#148=DIRECTION('',(0.,0.,-1.));
#149=DIRECTION('',(-1.,0.,0.));
#150=DIRECTION('',(0.,0.,1.));
#151=DIRECTION('',(1.,0.,0.));
#152=DIRECTION('',(0.,0.,-1.));
#153=DIRECTION('',(0.,0.,1.));
#154=DIRECTION('',(1.,0.,0.));
#155=DIRECTION('',(0.,0.,-1.));
#156=DIRECTION('',(-1.,0.,0.));
#157=DIRECTION('',(0.,0.,1.));
#158=DIRECTION('',(1.,0.,0.));
#159=DIRECTION('',(0.,0.,1.));
#160=DIRECTION('',(1.,0.,0.));
#161=DIRECTION('',(0.,0.,1.));
#162=DIRECTION('',(1.,0.,0.));
#163=DIRECTION('',(0.,0.,1.));
#164=DIRECTION('',(1.,0.,0.));
#165=CARTESIAN_POINT('',(0.,0.,0.));
#166=CARTESIAN_POINT('',(0.,0.,8.));
#167=CARTESIAN_POINT('',(0.,0.,0.));
#168=CARTESIAN_POINT('',(-53.3449286656167,11.1610297759777,0.));
#169=CARTESIAN_POINT('',(-54.2340593803052,5.37743462382695,0.));
#170=CARTESIAN_POINT('',(-54.2340593803052,5.37743462382695,4.));
#171=CARTESIAN_POINT('',(-54.2340593803052,5.37743462382695,8.));
#172=CARTESIAN_POINT('',(0.,0.,8.));
#173=CARTESIAN_POINT('',(-53.3449286656167,11.1610297759777,8.));
#174=CARTESIAN_POINT('',(-53.3449286656167,11.1610297759777,4.));
#175=CARTESIAN_POINT('',(-12.6814647651823,25.0097974221365,8.));
#176=CARTESIAN_POINT('',(-12.6814647651823,25.0097974221365,0.));
#177=CARTESIAN_POINT('',(-13.0649108417793,-20.9456239925293,0.));
#178=CARTESIAN_POINT('',(-13.0649108417793,-20.9456239925293,8.));
#179=CARTESIAN_POINT('',(-13.0649108417793,-20.9456239925293,8.));
#180=CARTESIAN_POINT('',(-12.6814647651823,25.0097974221365,8.));
#181=CARTESIAN_POINT('',(-13.990408996053,-19.4378494700099,8.));
#182=CARTESIAN_POINT('',(-13.990408996053,-19.4378494700099,0.));
#183=CARTESIAN_POINT('',(-13.0398798727764,-17.9457284192483,0.));
#184=CARTESIAN_POINT('',(-13.0398798727764,-17.9457284192483,8.));
#185=CARTESIAN_POINT('',(-13.0398798727764,-17.9457284192483,8.));
#186=CARTESIAN_POINT('',(-13.990408996053,-19.4378494700099,8.));
#187=CARTESIAN_POINT('',(-12.6814647651823,25.0097974221365,8.));
#188=CARTESIAN_POINT('',(-12.6814647651823,25.0097974221365,0.));
#189=CARTESIAN_POINT('',(-12.6814647651823,25.0097974221365,8.));
#190=CARTESIAN_POINT('',(0.,0.,8.));
#191=CARTESIAN_POINT('',(0.,0.,0.));
#192=MECHANICAL_DESIGN_GEOMETRIC_PRESENTATION_REPRESENTATION('',(#105),
#193);
#193=(
GEOMETRIC_REPRESENTATION_CONTEXT(3)
GLOBAL_UNCERTAINTY_ASSIGNED_CONTEXT((#194))
GLOBAL_UNIT_ASSIGNED_CONTEXT((#197,#196,#195))
REPRESENTATION_CONTEXT('Impeller blade','TOP_LEVEL_ASSEMBLY_PART')
);
#194=UNCERTAINTY_MEASURE_WITH_UNIT(LENGTH_MEASURE(0.005),#197,
'DISTANCE_ACCURACY_VALUE','Maximum Tolerance applied to model');
#195=(
NAMED_UNIT(*)
SI_UNIT($,.STERADIAN.)
SOLID_ANGLE_UNIT()
);
#196=(
NAMED_UNIT(*)
PLANE_ANGLE_UNIT()
SI_UNIT($,.RADIAN.)
);
#197=(
LENGTH_UNIT()
NAMED_UNIT(*)
SI_UNIT(.MILLI.,.METRE.)
);
#198=PRODUCT_DEFINITION_SHAPE('','',#199);
#199=PRODUCT_DEFINITION('','',#201,#200);
#200=PRODUCT_DEFINITION_CONTEXT('',#207,'design');
#201=PRODUCT_DEFINITION_FORMATION_WITH_SPECIFIED_SOURCE('','',#203,
 .NOT_KNOWN.);
#202=PRODUCT_RELATED_PRODUCT_CATEGORY('','',(#203));
#203=PRODUCT('Impeller blade','Impeller blade','Impeller blade',(#205));
#204=PRODUCT_CATEGORY('','');
#205=PRODUCT_CONTEXT('',#207,'mechanical');
#206=APPLICATION_PROTOCOL_DEFINITION('international standard',
'automotive_design',2010,#207);
#207=APPLICATION_CONTEXT(
'core data for automotive mechanical design processes');
ENDSEC;
END-ISO-10303-21;
