ISO-10303-21;
HEADER;
/* Generated by software containing ST-Developer
 * from STEP Tools, Inc. (www.steptools.com) 
 */
/* OPTION: strings as raw bytes, not using required /X/ escapes */

FILE_DESCRIPTION(
/* description */ ('Unknown'),
/* implementation_level */ '2;1');

FILE_NAME(
/* name */ 'Inlet port 1',
/* time_stamp */ '2023-02-01T10:18:16-03:00',
/* author */ ('Unknown'),
/* organization */ ('Unknown'),
/* preprocessor_version */ 'ST-DEVELOPER v16.7',
/* originating_system */ 'Solid Edge',
/* authorisation */ 'Unknown');

FILE_SCHEMA (('AUTOMOTIVE_DESIGN {1 0 10303 214 3 1 1}'));
ENDSEC;

DATA;
#10=PROPERTY_DEFINITION_REPRESENTATION(#14,#12);
#11=PROPERTY_DEFINITION_REPRESENTATION(#15,#13);
#12=REPRESENTATION('',(#16),#172);
#13=REPRESENTATION('',(#17),#172);
#14=PROPERTY_DEFINITION('pmi validation property','',#177);
#15=PROPERTY_DEFINITION('pmi validation property','',#177);
#16=VALUE_REPRESENTATION_ITEM('number of annotations',COUNT_MEASURE(0.));
#17=VALUE_REPRESENTATION_ITEM('number of views',COUNT_MEASURE(0.));
#18=SHAPE_REPRESENTATION_RELATIONSHIP('','',#75,#19);
#19=ADVANCED_BREP_SHAPE_REPRESENTATION('',(#73),#172);
#20=PLANE('',#81);
#21=CIRCLE('',#78,13.85);
#22=CIRCLE('',#80,16.85);
#23=ORIENTED_EDGE('',*,*,#31,.F.);
#24=ORIENTED_EDGE('',*,*,#32,.T.);
#25=ORIENTED_EDGE('',*,*,#33,.T.);
#26=ORIENTED_EDGE('',*,*,#34,.F.);
#27=ORIENTED_EDGE('',*,*,#32,.F.);
#28=ORIENTED_EDGE('',*,*,#34,.T.);
#29=ORIENTED_EDGE('',*,*,#31,.T.);
#30=ORIENTED_EDGE('',*,*,#33,.F.);
#31=EDGE_CURVE('',#35,#35,#39,.T.);
#32=EDGE_CURVE('',#36,#36,#21,.T.);
#33=EDGE_CURVE('',#37,#37,#40,.T.);
#34=EDGE_CURVE('',#38,#38,#22,.T.);
#35=VERTEX_POINT('',#129);
#36=VERTEX_POINT('',#131);
#37=VERTEX_POINT('',#166);
#38=VERTEX_POINT('',#168);
#39=B_SPLINE_CURVE_WITH_KNOTS('',3,(#99,#100,#101,#102,#103,#104,#105,#106,
#107,#108,#109,#110,#111,#112,#113,#114,#115,#116,#117,#118,#119,#120,#121,
#122,#123,#124,#125,#126,#127,#128),.UNSPECIFIED.,.T.,.F.,(1,1,1,1,1,1,
1,1,1,1,1,1,1,1,1,1,1,1,1,1,1,1,1,1,1,1,1,1,1,1,1,1,1,1),(-0.00907404487250869,
-0.00604936324833913,-0.00302468162416956,1.03380823355573E-17,0.00302468162416958,
0.00604936324833915,0.00907404487250872,0.0120987264966783,0.0151234081208479,
0.0181480897450174,0.021172771369187,0.0241974529933566,0.0272221346175261,
0.0302468162416957,0.0332714978658653,0.0362961794900349,0.0393208611142044,
0.042345542738374,0.0453702243625436,0.0483949059867131,0.0544442692350523,
0.0604936324833914,0.0665429957317306,0.0725923589800697,0.0786417222284088,
0.0816664038525784,0.084691085476748,0.0877157671009176,0.0907404487250871,
0.0937651303492567,0.0967898119734263,0.0998144935975958,0.102839175221765,
0.105863856845935),.UNSPECIFIED.);
#40=B_SPLINE_CURVE_WITH_KNOTS('',3,(#133,#134,#135,#136,#137,#138,#139,
#140,#141,#142,#143,#144,#145,#146,#147,#148,#149,#150,#151,#152,#153,#154,
#155,#156,#157,#158,#159,#160,#161,#162,#163,#164,#165),.UNSPECIFIED.,.T.,
 .F.,(1,1,1,1,1,1,1,1,1,1,1,1,1,1,1,1,1,1,1,1,1,1,1,1,1,1,1,1,1,1,1,1,1,
1,1,1,1),(-0.0110464433138421,-0.00736429554256143,-0.00368214777128072,
8.67361737988404E-19,0.00368214777128072,0.00736429554256143,0.0110464433138422,
0.0147285910851229,0.0184107388564036,0.0220928866276843,0.025775034398965,
0.0294571821702457,0.0331393299415265,0.0368214777128072,0.0405036254840879,
0.0441857732553686,0.0478679210266493,0.0497089949122897,0.05155006879793,
0.0552322165692108,0.0589143643404915,0.0625965121117722,0.0662786598830529,
0.0736429554256144,0.0773251031968951,0.0810072509681758,0.0883715465107372,
0.0957358420532987,0.0994179898245794,0.10310013759586,0.106782285367141,
0.110464433138422,0.114146580909702,0.117828728680983,0.121510876452264,
0.125193024223544,0.128875171994825),.UNSPECIFIED.);
#41=EDGE_LOOP('',(#23));
#42=EDGE_LOOP('',(#24));
#43=EDGE_LOOP('',(#25));
#44=EDGE_LOOP('',(#26));
#45=EDGE_LOOP('',(#27));
#46=EDGE_LOOP('',(#28));
#47=EDGE_LOOP('',(#29));
#48=EDGE_LOOP('',(#30));
#49=FACE_BOUND('',#41,.T.);
#50=FACE_BOUND('',#42,.T.);
#51=FACE_BOUND('',#43,.T.);
#52=FACE_BOUND('',#44,.T.);
#53=FACE_BOUND('',#45,.T.);
#54=FACE_BOUND('',#46,.T.);
#55=FACE_BOUND('',#47,.T.);
#56=FACE_BOUND('',#48,.T.);
#57=CYLINDRICAL_SURFACE('',#77,13.85);
#58=CYLINDRICAL_SURFACE('',#79,16.85);
#59=CYLINDRICAL_SURFACE('',#82,57.2);
#60=ADVANCED_FACE('',(#49,#50),#57,.F.);
#61=ADVANCED_FACE('',(#51,#52),#58,.T.);
#62=ADVANCED_FACE('',(#53,#54),#20,.T.);
#63=ADVANCED_FACE('',(#55,#56),#59,.F.);
#64=CLOSED_SHELL('',(#60,#61,#62,#63));
#65=STYLED_ITEM('',(#66),#73);
#66=PRESENTATION_STYLE_ASSIGNMENT((#67));
#67=SURFACE_STYLE_USAGE(.BOTH.,#68);
#68=SURFACE_SIDE_STYLE('',(#69));
#69=SURFACE_STYLE_FILL_AREA(#70);
#70=FILL_AREA_STYLE('',(#71));
#71=FILL_AREA_STYLE_COLOUR('',#72);
#72=COLOUR_RGB('',0.506983280181885,0.531564235687256,0.550000011920929);
#73=MANIFOLD_SOLID_BREP('',#64);
#74=SHAPE_DEFINITION_REPRESENTATION(#177,#75);
#75=SHAPE_REPRESENTATION('Inlet port 1',(#76),#172);
#76=AXIS2_PLACEMENT_3D('',#97,#83,#84);
#77=AXIS2_PLACEMENT_3D('',#98,#85,#86);
#78=AXIS2_PLACEMENT_3D('',#130,#87,#88);
#79=AXIS2_PLACEMENT_3D('',#132,#89,#90);
#80=AXIS2_PLACEMENT_3D('',#167,#91,#92);
#81=AXIS2_PLACEMENT_3D('',#169,#93,#94);
#82=AXIS2_PLACEMENT_3D('',#170,#95,#96);
#83=DIRECTION('',(0.,0.,1.));
#84=DIRECTION('',(1.,0.,0.));
#85=DIRECTION('',(0.,1.,0.));
#86=DIRECTION('',(0.,0.,1.));
#87=DIRECTION('',(0.,-1.,0.));
#88=DIRECTION('',(0.,0.,-1.));
#89=DIRECTION('',(0.,1.,0.));
#90=DIRECTION('',(0.,0.,1.));
#91=DIRECTION('',(0.,-1.,0.));
#92=DIRECTION('',(0.,0.,-1.));
#93=DIRECTION('',(0.,-1.,0.));
#94=DIRECTION('',(0.,0.,-1.));
#95=DIRECTION('',(0.,0.573576436351046,-0.819152044288992));
#96=DIRECTION('',(0.,0.819152044288992,0.573576436351046));
#97=CARTESIAN_POINT('',(0.,0.,0.));
#98=CARTESIAN_POINT('',(0.,-100.,0.));
#99=CARTESIAN_POINT('',(3.51897368403618,-79.1824742748757,13.5053915129051));
#100=CARTESIAN_POINT('',(0.513115059349254,-79.6293631357169,13.9533122626377));
#101=CARTESIAN_POINT('',(-2.54225641933809,-79.402167253283,13.7261309977977));
#102=CARTESIAN_POINT('',(-5.3771012477834,-78.5568991927396,12.8710971433665));
#103=CARTESIAN_POINT('',(-7.82167799588454,-77.2667481979648,11.5342781727269));
#104=CARTESIAN_POINT('',(-9.82824127506337,-75.7123485833295,9.8692093085432));
#105=CARTESIAN_POINT('',(-11.4394803799126,-73.9813730076807,7.9353184039118));
#106=CARTESIAN_POINT('',(-12.6403998974699,-72.1890562014889,5.83154636640296));
#107=CARTESIAN_POINT('',(-13.4650845489889,-70.3393074690794,3.53027695331192));
#108=CARTESIAN_POINT('',(-13.8749169716695,-68.5488075740237,1.15099652009389));
#109=CARTESIAN_POINT('',(-13.8591690363627,-66.7911370573433,-1.36609991545162));
#110=CARTESIAN_POINT('',(-13.3845743454231,-65.1824790095614,-3.86913234595853));
#111=CARTESIAN_POINT('',(-12.3911918141938,-63.7070517128011,-6.38192704733529));
#112=CARTESIAN_POINT('',(-10.9122281302889,-62.4775318383934,-8.68305595422518));
#113=CARTESIAN_POINT('',(-8.8762487602201,-61.4631046018397,-10.7652969043298));
#114=CARTESIAN_POINT('',(-6.42942174990916,-60.7377840500852,-12.3872005146873));
#115=CARTESIAN_POINT('',(-3.59585350537956,-60.2749369693146,-13.4907111503334));
#116=CARTESIAN_POINT('',(0.43815196529433,-60.028917288949,-14.1053556702173));
#117=CARTESIAN_POINT('',(5.54984266714364,-60.3917171706485,-13.1748539741206));
#118=CARTESIAN_POINT('',(10.4811067970425,-61.9385176023839,-9.66053437858892));
#119=CARTESIAN_POINT('',(13.3558889277999,-64.5479533188081,-4.7983931911428));
#120=CARTESIAN_POINT('',(14.1427307575534,-67.8820102852252,0.319664719761347));
#121=CARTESIAN_POINT('',(13.3214740479419,-70.95700539247,4.34377246937872));
#122=CARTESIAN_POINT('',(11.8953215118161,-73.3732315447487,7.23406767752856));
#123=CARTESIAN_POINT('',(10.4094424442402,-75.1504858192278,9.25132721765384));
#124=CARTESIAN_POINT('',(8.54448718915026,-76.7667294282692,11.0053901752011));
#125=CARTESIAN_POINT('',(6.23623199895733,-78.1690047236797,12.473361593167));
#126=CARTESIAN_POINT('',(3.51897368403618,-79.1824742748757,13.5053915129051));
#127=CARTESIAN_POINT('',(0.513115059349254,-79.6293631357169,13.9533122626377));
#128=CARTESIAN_POINT('',(-2.54225641933809,-79.402167253283,13.7261309977977));
#129=CARTESIAN_POINT('',(0.504862917015841,-79.5170156785044,13.8407952602089));
#130=CARTESIAN_POINT('',(0.,-120.,0.));
#131=CARTESIAN_POINT('',(0.,-120.,-13.85));
#132=CARTESIAN_POINT('',(0.,-100.,0.));
#133=CARTESIAN_POINT('',(0.921319072093763,-81.7477911412269,16.9638538840175));
#134=CARTESIAN_POINT('',(-2.80968017439514,-81.5187377661309,16.7487885282562));
#135=CARTESIAN_POINT('',(-6.26118519529422,-80.4906936303242,15.7724336802233));
#136=CARTESIAN_POINT('',(-9.25725516665264,-78.8806634704307,14.2036667264095));
#137=CARTESIAN_POINT('',(-11.7171623348554,-76.9356161393861,12.2385997888838));
#138=CARTESIAN_POINT('',(-13.7039549131164,-74.7744530020062,9.95144604021274));
#139=CARTESIAN_POINT('',(-15.2058874836207,-72.5409236615915,7.45323968022525));
#140=CARTESIAN_POINT('',(-16.2670755177161,-70.2422985623385,4.7052947688621));
#141=CARTESIAN_POINT('',(-16.836453165641,-68.0274024964561,1.84555760427362));
#142=CARTESIAN_POINT('',(-16.8998601688191,-65.8661406962878,-1.20646736465038));
#143=CARTESIAN_POINT('',(-16.4033630284563,-63.9038447306078,-4.27601462898644));
#144=CARTESIAN_POINT('',(-15.2671689054465,-62.1328256787437,-7.38358820464557));
#145=CARTESIAN_POINT('',(-13.5199389024993,-60.6868815332309,-10.2540175026535));
#146=CARTESIAN_POINT('',(-11.0744121813062,-59.5249058056125,-12.8671240073121));
#147=CARTESIAN_POINT('',(-8.61733761730984,-58.8519989125002,-14.5701802781322));
#148=CARTESIAN_POINT('',(-6.38379730511573,-58.4582273905028,-15.6301485936421));
#149=CARTESIAN_POINT('',(-4.08097544079227,-58.1730945239451,-16.428446175351));
#150=CARTESIAN_POINT('',(-0.99822855474093,-57.9932461683404,-16.958255423013));
#151=CARTESIAN_POINT('',(2.71042717978073,-58.0571476003108,-16.7674817410532));
#152=CARTESIAN_POINT('',(6.29697268250224,-58.4014038604545,-15.7751030391445));
#153=CARTESIAN_POINT('',(10.6390638749813,-59.2667712823808,-13.4607500495307));
#154=CARTESIAN_POINT('',(13.9296227290686,-60.7836613573278,-9.9523506174286));
#155=CARTESIAN_POINT('',(15.8939768600083,-62.9477795120295,-5.90654050466859));
#156=CARTESIAN_POINT('',(16.986796370036,-65.4400556783104,-1.77121816290531));
#157=CARTESIAN_POINT('',(16.8629835218772,-69.068298957872,3.34378130965009));
#158=CARTESIAN_POINT('',(15.1105497492741,-72.8995312201797,7.89657069486107));
#159=CARTESIAN_POINT('',(12.7752699684341,-75.8685945199508,11.1241955211098));
#160=CARTESIAN_POINT('',(10.5647551226176,-77.9287420037105,13.2520025944189));
#161=CARTESIAN_POINT('',(7.82887044275481,-79.7402686484939,15.0475453097913));
#162=CARTESIAN_POINT('',(4.58349994426812,-81.0946352908174,16.3483009577228));
#163=CARTESIAN_POINT('',(0.921319072093763,-81.7477911412269,16.9638538840175));
#164=CARTESIAN_POINT('',(-2.80968017439514,-81.5187377661309,16.7487885282562));
#165=CARTESIAN_POINT('',(-6.26118519529422,-80.4906936303242,15.7724336802233));
#166=CARTESIAN_POINT('',(-2.7630978034635,-81.3855726393458,16.6219069462109));
#167=CARTESIAN_POINT('',(0.,-120.,0.));
#168=CARTESIAN_POINT('',(0.,-120.,-16.85));
#169=CARTESIAN_POINT('',(0.,-120.,0.));
#170=CARTESIAN_POINT('',(0.,-57.4600738823893,82.0614899823889));
#171=MECHANICAL_DESIGN_GEOMETRIC_PRESENTATION_REPRESENTATION('',(#65),#172);
#172=(
GEOMETRIC_REPRESENTATION_CONTEXT(3)
GLOBAL_UNCERTAINTY_ASSIGNED_CONTEXT((#173))
GLOBAL_UNIT_ASSIGNED_CONTEXT((#176,#175,#174))
REPRESENTATION_CONTEXT('Inlet port 1','TOP_LEVEL_ASSEMBLY_PART')
);
#173=UNCERTAINTY_MEASURE_WITH_UNIT(LENGTH_MEASURE(0.005),#176,
'DISTANCE_ACCURACY_VALUE','Maximum Tolerance applied to model');
#174=(
NAMED_UNIT(*)
SI_UNIT($,.STERADIAN.)
SOLID_ANGLE_UNIT()
);
#175=(
NAMED_UNIT(*)
PLANE_ANGLE_UNIT()
SI_UNIT($,.RADIAN.)
);
#176=(
LENGTH_UNIT()
NAMED_UNIT(*)
SI_UNIT(.MILLI.,.METRE.)
);
#177=PRODUCT_DEFINITION_SHAPE('','',#178);
#178=PRODUCT_DEFINITION('','',#180,#179);
#179=PRODUCT_DEFINITION_CONTEXT('',#186,'design');
#180=PRODUCT_DEFINITION_FORMATION_WITH_SPECIFIED_SOURCE('','',#182,
 .NOT_KNOWN.);
#181=PRODUCT_RELATED_PRODUCT_CATEGORY('','',(#182));
#182=PRODUCT('Inlet port 1','Inlet port 1','Inlet port 1',(#184));
#183=PRODUCT_CATEGORY('','');
#184=PRODUCT_CONTEXT('',#186,'mechanical');
#185=APPLICATION_PROTOCOL_DEFINITION('international standard',
'automotive_design',2010,#186);
#186=APPLICATION_CONTEXT(
'core data for automotive mechanical design processes');
ENDSEC;
END-ISO-10303-21;
