ISO-10303-21;
HEADER;
/* Generated by software containing ST-Developer
 * from STEP Tools, Inc. (www.steptools.com) 
 */
/* OPTION: strings as raw bytes, not using required /X/ escapes */

FILE_DESCRIPTION(
/* description */ ('Unknown'),
/* implementation_level */ '2;1');

FILE_NAME(
/* name */ 'Seal 1',
/* time_stamp */ '2023-02-01T10:24:30-03:00',
/* author */ ('Unknown'),
/* organization */ ('Unknown'),
/* preprocessor_version */ 'ST-DEVELOPER v16.7',
/* originating_system */ 'Solid Edge',
/* authorisation */ 'Unknown');

FILE_SCHEMA (('AUTOMOTIVE_DESIGN {1 0 10303 214 3 1 1}'));
ENDSEC;

DATA;
#10=PROPERTY_DEFINITION_REPRESENTATION(#14,#12);
#11=PROPERTY_DEFINITION_REPRESENTATION(#15,#13);
#12=REPRESENTATION('',(#16),#413);
#13=REPRESENTATION('',(#17),#413);
#14=PROPERTY_DEFINITION('pmi validation property','',#418);
#15=PROPERTY_DEFINITION('pmi validation property','',#418);
#16=VALUE_REPRESENTATION_ITEM('number of annotations',COUNT_MEASURE(0.));
#17=VALUE_REPRESENTATION_ITEM('number of views',COUNT_MEASURE(0.));
#18=SHAPE_REPRESENTATION_RELATIONSHIP('','',#241,#19);
#19=ADVANCED_BREP_SHAPE_REPRESENTATION('',(#239),#413);
#20=CONICAL_SURFACE('',#257,16.665,0.785398163397447);
#21=CONICAL_SURFACE('',#258,16.665,0.785398163397447);
#22=PLANE('',#252);
#23=PLANE('',#254);
#24=CIRCLE('',#247,11.11);
#25=CIRCLE('',#248,11.11);
#26=CIRCLE('',#250,16.665);
#27=CIRCLE('',#251,16.665);
#28=CIRCLE('',#253,15.665);
#29=CIRCLE('',#255,15.665);
#30=ORIENTED_EDGE('',*,*,#58,.T.);
#31=ORIENTED_EDGE('',*,*,#59,.F.);
#32=ORIENTED_EDGE('',*,*,#60,.T.);
#33=ORIENTED_EDGE('',*,*,#61,.F.);
#34=ORIENTED_EDGE('',*,*,#62,.T.);
#35=ORIENTED_EDGE('',*,*,#63,.F.);
#36=ORIENTED_EDGE('',*,*,#58,.F.);
#37=ORIENTED_EDGE('',*,*,#60,.F.);
#38=ORIENTED_EDGE('',*,*,#62,.F.);
#39=ORIENTED_EDGE('',*,*,#64,.F.);
#40=ORIENTED_EDGE('',*,*,#65,.F.);
#41=ORIENTED_EDGE('',*,*,#66,.T.);
#42=ORIENTED_EDGE('',*,*,#67,.T.);
#43=ORIENTED_EDGE('',*,*,#68,.T.);
#44=ORIENTED_EDGE('',*,*,#59,.T.);
#45=ORIENTED_EDGE('',*,*,#61,.T.);
#46=ORIENTED_EDGE('',*,*,#63,.T.);
#47=ORIENTED_EDGE('',*,*,#69,.T.);
#48=ORIENTED_EDGE('',*,*,#70,.T.);
#49=ORIENTED_EDGE('',*,*,#66,.F.);
#50=ORIENTED_EDGE('',*,*,#71,.T.);
#51=ORIENTED_EDGE('',*,*,#65,.T.);
#52=ORIENTED_EDGE('',*,*,#64,.T.);
#53=ORIENTED_EDGE('',*,*,#69,.F.);
#54=ORIENTED_EDGE('',*,*,#70,.F.);
#55=ORIENTED_EDGE('',*,*,#68,.F.);
#56=ORIENTED_EDGE('',*,*,#71,.F.);
#57=ORIENTED_EDGE('',*,*,#67,.F.);
#58=EDGE_CURVE('',#72,#72,#86,.T.);
#59=EDGE_CURVE('',#73,#73,#87,.T.);
#60=EDGE_CURVE('',#74,#74,#88,.T.);
#61=EDGE_CURVE('',#75,#75,#89,.T.);
#62=EDGE_CURVE('',#76,#76,#90,.T.);
#63=EDGE_CURVE('',#77,#77,#91,.T.);
#64=EDGE_CURVE('',#78,#78,#92,.T.);
#65=EDGE_CURVE('',#79,#79,#24,.T.);
#66=EDGE_CURVE('',#80,#80,#25,.T.);
#67=EDGE_CURVE('',#81,#81,#26,.T.);
#68=EDGE_CURVE('',#82,#82,#27,.F.);
#69=EDGE_CURVE('',#83,#83,#93,.T.);
#70=EDGE_CURVE('',#84,#84,#28,.T.);
#71=EDGE_CURVE('',#85,#85,#29,.F.);
#72=VERTEX_POINT('',#306);
#73=VERTEX_POINT('',#318);
#74=VERTEX_POINT('',#331);
#75=VERTEX_POINT('',#343);
#76=VERTEX_POINT('',#356);
#77=VERTEX_POINT('',#368);
#78=VERTEX_POINT('',#381);
#79=VERTEX_POINT('',#383);
#80=VERTEX_POINT('',#385);
#81=VERTEX_POINT('',#388);
#82=VERTEX_POINT('',#390);
#83=VERTEX_POINT('',#402);
#84=VERTEX_POINT('',#405);
#85=VERTEX_POINT('',#408);
#86=B_SPLINE_CURVE_WITH_KNOTS('',3,(#295,#296,#297,#298,#299,#300,#301,
#302,#303,#304,#305),.UNSPECIFIED.,.T.,.F.,(1,1,1,1,1,1,1,1,1,1,1,1,1,1,
1),(-0.00485701348285357,-0.00323800898856905,-0.00161900449428452,1.0842021724855E-19,
0.00161900449428452,0.00323800898856905,0.00485701348285357,0.00647601797713809,
0.00809502247142262,0.00971402696570714,0.0113330314599917,0.0129520359542762,
0.0145710404485607,0.0161900449428452,0.0178090494371298),.UNSPECIFIED.);
#87=B_SPLINE_CURVE_WITH_KNOTS('',3,(#307,#308,#309,#310,#311,#312,#313,
#314,#315,#316,#317),.UNSPECIFIED.,.T.,.F.,(1,1,1,1,1,1,1,1,1,1,1,1,1,1,
1),(-0.00485097719062999,-0.00323398479375333,-0.00161699239687666,2.98155597433514E-19,
0.00161699239687666,0.00323398479375333,0.00485097719062999,0.00646796958750665,
0.00808496198438332,0.00970195438125998,0.0113189467781366,0.0129359391750133,
0.01455293157189,0.0161699239687666,0.0177869163656433),.UNSPECIFIED.);
#88=B_SPLINE_CURVE_WITH_KNOTS('',3,(#320,#321,#322,#323,#324,#325,#326,
#327,#328,#329,#330),.UNSPECIFIED.,.T.,.F.,(1,1,1,1,1,1,1,1,1,1,1,1,1,1,
1),(-0.00485701348285358,-0.00323800898856905,-0.00161900449428453,1.0842021724855E-19,
0.00161900449428453,0.00323800898856905,0.00485701348285358,0.0064760179771381,
0.00809502247142263,0.00971402696570715,0.0113330314599917,0.0129520359542762,
0.0145710404485607,0.0161900449428453,0.0178090494371298),.UNSPECIFIED.);
#89=B_SPLINE_CURVE_WITH_KNOTS('',3,(#332,#333,#334,#335,#336,#337,#338,
#339,#340,#341,#342),.UNSPECIFIED.,.T.,.F.,(1,1,1,1,1,1,1,1,1,1,1,1,1,1,
1),(-0.00485097719062999,-0.00323398479375333,-0.00161699239687666,2.98155597433514E-19,
0.00161699239687666,0.00323398479375333,0.00485097719062999,0.00646796958750665,
0.00808496198438332,0.00970195438125998,0.0113189467781366,0.0129359391750133,
0.01455293157189,0.0161699239687666,0.0177869163656433),.UNSPECIFIED.);
#90=B_SPLINE_CURVE_WITH_KNOTS('',3,(#345,#346,#347,#348,#349,#350,#351,
#352,#353,#354,#355),.UNSPECIFIED.,.T.,.F.,(1,1,1,1,1,1,1,1,1,1,1,1,1,1,
1),(-0.00485701348285357,-0.00323800898856905,-0.00161900449428452,1.0842021724855E-19,
0.00161900449428452,0.00323800898856905,0.00485701348285357,0.00647601797713809,
0.00809502247142262,0.00971402696570714,0.0113330314599917,0.0129520359542762,
0.0145710404485607,0.0161900449428452,0.0178090494371298),.UNSPECIFIED.);
#91=B_SPLINE_CURVE_WITH_KNOTS('',3,(#357,#358,#359,#360,#361,#362,#363,
#364,#365,#366,#367),.UNSPECIFIED.,.T.,.F.,(1,1,1,1,1,1,1,1,1,1,1,1,1,1,
1),(-0.00485097719062999,-0.00323398479375333,-0.00161699239687666,2.98155597433514E-19,
0.00161699239687666,0.00323398479375333,0.00485097719062999,0.00646796958750665,
0.00808496198438331,0.00970195438125998,0.0113189467781366,0.0129359391750133,
0.01455293157189,0.0161699239687666,0.0177869163656433),.UNSPECIFIED.);
#92=B_SPLINE_CURVE_WITH_KNOTS('',3,(#370,#371,#372,#373,#374,#375,#376,
#377,#378,#379,#380),.UNSPECIFIED.,.T.,.F.,(1,1,1,1,1,1,1,1,1,1,1,1,1,1,
1),(-0.00485701348285357,-0.00323800898856905,-0.00161900449428452,1.0842021724855E-19,
0.00161900449428452,0.00323800898856905,0.00485701348285357,0.0064760179771381,
0.00809502247142262,0.00971402696570715,0.0113330314599917,0.0129520359542762,
0.0145710404485607,0.0161900449428452,0.0178090494371298),.UNSPECIFIED.);
#93=B_SPLINE_CURVE_WITH_KNOTS('',3,(#391,#392,#393,#394,#395,#396,#397,
#398,#399,#400,#401),.UNSPECIFIED.,.T.,.F.,(1,1,1,1,1,1,1,1,1,1,1,1,1,1,
1),(-0.00485097719062999,-0.00323398479375333,-0.00161699239687666,2.98155597433514E-19,
0.00161699239687666,0.00323398479375333,0.00485097719062999,0.00646796958750665,
0.00808496198438332,0.00970195438125998,0.0113189467781366,0.0129359391750133,
0.01455293157189,0.0161699239687666,0.0177869163656433),.UNSPECIFIED.);
#94=EDGE_LOOP('',(#30));
#95=EDGE_LOOP('',(#31));
#96=EDGE_LOOP('',(#32));
#97=EDGE_LOOP('',(#33));
#98=EDGE_LOOP('',(#34));
#99=EDGE_LOOP('',(#35));
#100=EDGE_LOOP('',(#36));
#101=EDGE_LOOP('',(#37));
#102=EDGE_LOOP('',(#38));
#103=EDGE_LOOP('',(#39));
#104=EDGE_LOOP('',(#40));
#105=EDGE_LOOP('',(#41));
#106=EDGE_LOOP('',(#42));
#107=EDGE_LOOP('',(#43));
#108=EDGE_LOOP('',(#44));
#109=EDGE_LOOP('',(#45));
#110=EDGE_LOOP('',(#46));
#111=EDGE_LOOP('',(#47));
#112=EDGE_LOOP('',(#48));
#113=EDGE_LOOP('',(#49));
#114=EDGE_LOOP('',(#50));
#115=EDGE_LOOP('',(#51));
#116=EDGE_LOOP('',(#52));
#117=EDGE_LOOP('',(#53));
#118=EDGE_LOOP('',(#54));
#119=EDGE_LOOP('',(#55));
#120=EDGE_LOOP('',(#56));
#121=EDGE_LOOP('',(#57));
#122=FACE_BOUND('',#94,.T.);
#123=FACE_BOUND('',#95,.T.);
#124=FACE_BOUND('',#96,.T.);
#125=FACE_BOUND('',#97,.T.);
#126=FACE_BOUND('',#98,.T.);
#127=FACE_BOUND('',#99,.T.);
#128=FACE_BOUND('',#100,.T.);
#129=FACE_BOUND('',#101,.T.);
#130=FACE_BOUND('',#102,.T.);
#131=FACE_BOUND('',#103,.T.);
#132=FACE_BOUND('',#104,.T.);
#133=FACE_BOUND('',#105,.T.);
#134=FACE_BOUND('',#106,.T.);
#135=FACE_BOUND('',#107,.T.);
#136=FACE_BOUND('',#108,.T.);
#137=FACE_BOUND('',#109,.T.);
#138=FACE_BOUND('',#110,.T.);
#139=FACE_BOUND('',#111,.T.);
#140=FACE_BOUND('',#112,.T.);
#141=FACE_BOUND('',#113,.T.);
#142=FACE_BOUND('',#114,.T.);
#143=FACE_BOUND('',#115,.T.);
#144=FACE_BOUND('',#116,.T.);
#145=FACE_BOUND('',#117,.T.);
#146=FACE_BOUND('',#118,.T.);
#147=FACE_BOUND('',#119,.T.);
#148=FACE_BOUND('',#120,.T.);
#149=FACE_BOUND('',#121,.T.);
#150=CYLINDRICAL_SURFACE('',#243,2.067);
#151=CYLINDRICAL_SURFACE('',#244,2.067);
#152=CYLINDRICAL_SURFACE('',#245,2.067);
#153=CYLINDRICAL_SURFACE('',#246,11.11);
#154=CYLINDRICAL_SURFACE('',#249,16.665);
#155=CYLINDRICAL_SURFACE('',#256,2.067);
#156=STYLED_ITEM('',(#166),#228);
#157=STYLED_ITEM('',(#167),#229);
#158=STYLED_ITEM('',(#168),#230);
#159=STYLED_ITEM('',(#169),#231);
#160=STYLED_ITEM('',(#170),#232);
#161=STYLED_ITEM('',(#171),#233);
#162=STYLED_ITEM('',(#172),#234);
#163=STYLED_ITEM('',(#173),#235);
#164=STYLED_ITEM('',(#174),#236);
#165=STYLED_ITEM('',(#175),#237);
#166=PRESENTATION_STYLE_ASSIGNMENT((#176));
#167=PRESENTATION_STYLE_ASSIGNMENT((#177));
#168=PRESENTATION_STYLE_ASSIGNMENT((#178));
#169=PRESENTATION_STYLE_ASSIGNMENT((#179));
#170=PRESENTATION_STYLE_ASSIGNMENT((#180));
#171=PRESENTATION_STYLE_ASSIGNMENT((#181));
#172=PRESENTATION_STYLE_ASSIGNMENT((#182));
#173=PRESENTATION_STYLE_ASSIGNMENT((#183));
#174=PRESENTATION_STYLE_ASSIGNMENT((#184));
#175=PRESENTATION_STYLE_ASSIGNMENT((#185));
#176=SURFACE_STYLE_USAGE(.BOTH.,#186);
#177=SURFACE_STYLE_USAGE(.BOTH.,#187);
#178=SURFACE_STYLE_USAGE(.BOTH.,#188);
#179=SURFACE_STYLE_USAGE(.BOTH.,#189);
#180=SURFACE_STYLE_USAGE(.BOTH.,#190);
#181=SURFACE_STYLE_USAGE(.BOTH.,#191);
#182=SURFACE_STYLE_USAGE(.BOTH.,#192);
#183=SURFACE_STYLE_USAGE(.BOTH.,#193);
#184=SURFACE_STYLE_USAGE(.BOTH.,#194);
#185=SURFACE_STYLE_USAGE(.BOTH.,#195);
#186=SURFACE_SIDE_STYLE('',(#196));
#187=SURFACE_SIDE_STYLE('',(#197));
#188=SURFACE_SIDE_STYLE('',(#198));
#189=SURFACE_SIDE_STYLE('',(#199));
#190=SURFACE_SIDE_STYLE('',(#200));
#191=SURFACE_SIDE_STYLE('',(#201));
#192=SURFACE_SIDE_STYLE('',(#202));
#193=SURFACE_SIDE_STYLE('',(#203));
#194=SURFACE_SIDE_STYLE('',(#204));
#195=SURFACE_SIDE_STYLE('',(#205));
#196=SURFACE_STYLE_FILL_AREA(#206);
#197=SURFACE_STYLE_FILL_AREA(#207);
#198=SURFACE_STYLE_FILL_AREA(#208);
#199=SURFACE_STYLE_FILL_AREA(#209);
#200=SURFACE_STYLE_FILL_AREA(#210);
#201=SURFACE_STYLE_FILL_AREA(#211);
#202=SURFACE_STYLE_FILL_AREA(#212);
#203=SURFACE_STYLE_FILL_AREA(#213);
#204=SURFACE_STYLE_FILL_AREA(#214);
#205=SURFACE_STYLE_FILL_AREA(#215);
#206=FILL_AREA_STYLE('',(#216));
#207=FILL_AREA_STYLE('',(#217));
#208=FILL_AREA_STYLE('',(#218));
#209=FILL_AREA_STYLE('',(#219));
#210=FILL_AREA_STYLE('',(#220));
#211=FILL_AREA_STYLE('',(#221));
#212=FILL_AREA_STYLE('',(#222));
#213=FILL_AREA_STYLE('',(#223));
#214=FILL_AREA_STYLE('',(#224));
#215=FILL_AREA_STYLE('',(#225));
#216=FILL_AREA_STYLE_COLOUR('',#226);
#217=FILL_AREA_STYLE_COLOUR('',#226);
#218=FILL_AREA_STYLE_COLOUR('',#226);
#219=FILL_AREA_STYLE_COLOUR('',#227);
#220=FILL_AREA_STYLE_COLOUR('',#227);
#221=FILL_AREA_STYLE_COLOUR('',#227);
#222=FILL_AREA_STYLE_COLOUR('',#227);
#223=FILL_AREA_STYLE_COLOUR('',#226);
#224=FILL_AREA_STYLE_COLOUR('',#227);
#225=FILL_AREA_STYLE_COLOUR('',#227);
#226=COLOUR_RGB('',0.1875,0.75,0.581249892711639);
#227=COLOUR_RGB('',0.506983280181885,0.531564235687256,0.550000011920929);
#228=ADVANCED_FACE('',(#122,#123),#150,.F.);
#229=ADVANCED_FACE('',(#124,#125),#151,.F.);
#230=ADVANCED_FACE('',(#126,#127),#152,.F.);
#231=ADVANCED_FACE('',(#128,#129,#130,#131,#132,#133),#153,.F.);
#232=ADVANCED_FACE('',(#134,#135,#136,#137,#138,#139),#154,.T.);
#233=ADVANCED_FACE('',(#140,#141),#22,.T.);
#234=ADVANCED_FACE('',(#142,#143),#23,.F.);
#235=ADVANCED_FACE('',(#144,#145),#155,.F.);
#236=ADVANCED_FACE('',(#146,#147),#20,.T.);
#237=ADVANCED_FACE('',(#148,#149),#21,.T.);
#238=CLOSED_SHELL('',(#228,#229,#230,#231,#232,#233,#234,#235,#236,#237));
#239=MANIFOLD_SOLID_BREP('',#238);
#240=SHAPE_DEFINITION_REPRESENTATION(#418,#241);
#241=SHAPE_REPRESENTATION('Seal 1',(#242),#413);
#242=AXIS2_PLACEMENT_3D('',#293,#259,#260);
#243=AXIS2_PLACEMENT_3D('',#294,#261,#262);
#244=AXIS2_PLACEMENT_3D('',#319,#263,#264);
#245=AXIS2_PLACEMENT_3D('',#344,#265,#266);
#246=AXIS2_PLACEMENT_3D('',#369,#267,#268);
#247=AXIS2_PLACEMENT_3D('',#382,#269,#270);
#248=AXIS2_PLACEMENT_3D('',#384,#271,#272);
#249=AXIS2_PLACEMENT_3D('',#386,#273,#274);
#250=AXIS2_PLACEMENT_3D('',#387,#275,#276);
#251=AXIS2_PLACEMENT_3D('',#389,#277,#278);
#252=AXIS2_PLACEMENT_3D('',#403,#279,#280);
#253=AXIS2_PLACEMENT_3D('',#404,#281,#282);
#254=AXIS2_PLACEMENT_3D('',#406,#283,#284);
#255=AXIS2_PLACEMENT_3D('',#407,#285,#286);
#256=AXIS2_PLACEMENT_3D('',#409,#287,#288);
#257=AXIS2_PLACEMENT_3D('',#410,#289,#290);
#258=AXIS2_PLACEMENT_3D('',#411,#291,#292);
#259=DIRECTION('',(0.,0.,1.));
#260=DIRECTION('',(1.,0.,0.));
#261=DIRECTION('',(1.,0.,1.83697019872103E-16));
#262=DIRECTION('',(0.,-1.,0.));
#263=DIRECTION('',(-1.22464679914735E-16,0.,1.));
#264=DIRECTION('',(0.,-1.,0.));
#265=DIRECTION('',(-1.,0.,-6.12323399573677E-17));
#266=DIRECTION('',(0.,-1.,0.));
#267=DIRECTION('',(0.,1.,0.));
#268=DIRECTION('',(0.,0.,1.));
#269=DIRECTION('',(0.,-1.,0.));
#270=DIRECTION('',(0.,0.,-1.));
#271=DIRECTION('',(0.,-1.,0.));
#272=DIRECTION('',(0.,0.,-1.));
#273=DIRECTION('',(0.,1.,0.));
#274=DIRECTION('',(0.,0.,1.));
#275=DIRECTION('',(0.,-1.,0.));
#276=DIRECTION('',(0.,0.,-1.));
#277=DIRECTION('',(0.,-1.,0.));
#278=DIRECTION('',(0.,0.,-1.));
#279=DIRECTION('',(0.,-1.,0.));
#280=DIRECTION('',(0.,0.,-1.));
#281=DIRECTION('',(0.,-1.,0.));
#282=DIRECTION('',(0.,0.,-1.));
#283=DIRECTION('',(0.,-1.,0.));
#284=DIRECTION('',(0.,0.,-1.));
#285=DIRECTION('',(0.,-1.,0.));
#286=DIRECTION('',(0.,0.,-1.));
#287=DIRECTION('',(0.,0.,-1.));
#288=DIRECTION('',(0.,-1.,0.));
#289=DIRECTION('',(0.,1.,0.));
#290=DIRECTION('',(0.,0.,1.));
#291=DIRECTION('',(0.,-1.,0.));
#292=DIRECTION('',(0.,0.,-1.));
#293=CARTESIAN_POINT('',(0.,0.,0.));
#294=CARTESIAN_POINT('',(-1.12481983699639E-31,-5.,6.12323399573677E-16));
#295=CARTESIAN_POINT('',(10.9785039602222,-3.5899628262924,1.8054619053537));
#296=CARTESIAN_POINT('',(11.1539073564519,-2.72582784394427,0.279376254856459));
#297=CARTESIAN_POINT('',(11.0487440596664,-3.19709061885004,-1.41217714524567));
#298=CARTESIAN_POINT('',(10.8715734243346,-4.71836723828207,-2.27309347560195));
#299=CARTESIAN_POINT('',(10.9786940728893,-6.41185607145726,-1.80424831380786));
#300=CARTESIAN_POINT('',(11.1537485966856,-7.27296292097881,-0.280227211288371));
#301=CARTESIAN_POINT('',(11.0490848021617,-6.80536337216685,1.40977866591847));
#302=CARTESIAN_POINT('',(10.8715458644767,-5.28100020031916,2.2733359524693));
#303=CARTESIAN_POINT('',(10.9785039602222,-3.5899628262924,1.8054619053537));
#304=CARTESIAN_POINT('',(11.1539073564519,-2.72582784394427,0.279376254856459));
#305=CARTESIAN_POINT('',(11.0487440596664,-3.19709061885004,-1.41217714524567));
#306=CARTESIAN_POINT('',(11.1071462409493,-2.94839413681992,0.251798296588978));
#307=CARTESIAN_POINT('',(16.5791725692596,-3.57383249938154,1.79290588130573));
#308=CARTESIAN_POINT('',(16.6946763311244,-2.72333903150571,0.257680167940116));
#309=CARTESIAN_POINT('',(16.6223826645235,-3.20958106344412,-1.4280626174769));
#310=CARTESIAN_POINT('',(16.5065370513218,-4.74019507023331,-2.27560774536851));
#311=CARTESIAN_POINT('',(16.579271671231,-6.4273900600016,-1.79197786078792));
#312=CARTESIAN_POINT('',(16.694578309315,-7.27566004306145,-0.258416784211175));
#313=CARTESIAN_POINT('',(16.6226127768839,-6.79268997096441,1.42558400133437));
#314=CARTESIAN_POINT('',(16.5065192721104,-5.25998950208691,2.27587481735062));
#315=CARTESIAN_POINT('',(16.5791725692596,-3.57383249938154,1.79290588130573));
#316=CARTESIAN_POINT('',(16.6946763311244,-2.72333903150571,0.257680167940116));
#317=CARTESIAN_POINT('',(16.6223826645235,-3.20958106344412,-1.4280626174769));
#318=CARTESIAN_POINT('',(16.6633767597134,-2.94612828147475,0.232593989264881));
#319=CARTESIAN_POINT('',(-6.12323399573677E-16,-5.,-7.49879891330929E-32));
#320=CARTESIAN_POINT('',(-1.8054619053537,-3.5899628262924,10.9785039602222));
#321=CARTESIAN_POINT('',(-0.279376254856459,-2.72582784394427,11.1539073564519));
#322=CARTESIAN_POINT('',(1.41217714524567,-3.19709061885004,11.0487440596664));
#323=CARTESIAN_POINT('',(2.27309347560195,-4.71836723828207,10.8715734243346));
#324=CARTESIAN_POINT('',(1.80424831380786,-6.41185607145726,10.9786940728893));
#325=CARTESIAN_POINT('',(0.280227211288366,-7.27296292097881,11.1537485966856));
#326=CARTESIAN_POINT('',(-1.40977866591847,-6.80536337216685,11.0490848021617));
#327=CARTESIAN_POINT('',(-2.2733359524693,-5.28100020031916,10.8715458644767));
#328=CARTESIAN_POINT('',(-1.8054619053537,-3.5899628262924,10.9785039602222));
#329=CARTESIAN_POINT('',(-0.279376254856459,-2.72582784394427,11.1539073564519));
#330=CARTESIAN_POINT('',(1.41217714524567,-3.19709061885004,11.0487440596664));
#331=CARTESIAN_POINT('',(-0.251798296588977,-2.94839413681992,11.1071462409493));
#332=CARTESIAN_POINT('',(-1.79290588130572,-3.57383249938154,16.5791725692596));
#333=CARTESIAN_POINT('',(-0.257680167940116,-2.72333903150571,16.6946763311244));
#334=CARTESIAN_POINT('',(1.42806261747691,-3.20958106344412,16.6223826645235));
#335=CARTESIAN_POINT('',(2.27560774536851,-4.74019507023331,16.5065370513218));
#336=CARTESIAN_POINT('',(1.79197786078792,-6.4273900600016,16.579271671231));
#337=CARTESIAN_POINT('',(0.258416784211179,-7.27566004306145,16.694578309315));
#338=CARTESIAN_POINT('',(-1.42558400133438,-6.79268997096441,16.6226127768839));
#339=CARTESIAN_POINT('',(-2.27587481735061,-5.25998950208691,16.5065192721104));
#340=CARTESIAN_POINT('',(-1.79290588130572,-3.57383249938154,16.5791725692596));
#341=CARTESIAN_POINT('',(-0.257680167940116,-2.72333903150571,16.6946763311244));
#342=CARTESIAN_POINT('',(1.42806261747691,-3.20958106344412,16.6223826645235));
#343=CARTESIAN_POINT('',(-0.23259398926488,-2.94612828147475,16.6633767597134));
#344=CARTESIAN_POINT('',(3.74939945665464E-32,-5.,-6.12323399573677E-16));
#345=CARTESIAN_POINT('',(-10.9785039602222,-3.5899628262924,-1.80546190535369));
#346=CARTESIAN_POINT('',(-11.1539073564519,-2.72582784394427,-0.279376254856458));
#347=CARTESIAN_POINT('',(-11.0487440596664,-3.19709061885004,1.41217714524567));
#348=CARTESIAN_POINT('',(-10.8715734243346,-4.71836723828207,2.27309347560195));
#349=CARTESIAN_POINT('',(-10.9786940728893,-6.41185607145726,1.80424831380786));
#350=CARTESIAN_POINT('',(-11.1537485966856,-7.27296292097881,0.280227211288373));
#351=CARTESIAN_POINT('',(-11.0490848021617,-6.80536337216685,-1.40977866591847));
#352=CARTESIAN_POINT('',(-10.8715458644767,-5.28100020031916,-2.2733359524693));
#353=CARTESIAN_POINT('',(-10.9785039602222,-3.5899628262924,-1.80546190535369));
#354=CARTESIAN_POINT('',(-11.1539073564519,-2.72582784394427,-0.279376254856458));
#355=CARTESIAN_POINT('',(-11.0487440596664,-3.19709061885004,1.41217714524567));
#356=CARTESIAN_POINT('',(-11.1071462409493,-2.94839413681992,-0.251798296588976));
#357=CARTESIAN_POINT('',(-16.5791725692596,-3.57383249938154,-1.79290588130572));
#358=CARTESIAN_POINT('',(-16.6946763311244,-2.72333903150571,-0.257680167940115));
#359=CARTESIAN_POINT('',(-16.6223826645235,-3.20958106344412,1.42806261747691));
#360=CARTESIAN_POINT('',(-16.5065370513218,-4.74019507023331,2.27560774536851));
#361=CARTESIAN_POINT('',(-16.579271671231,-6.42739006000159,1.79197786078792));
#362=CARTESIAN_POINT('',(-16.694578309315,-7.27566004306145,0.258416784211177));
#363=CARTESIAN_POINT('',(-16.6226127768839,-6.79268997096441,-1.42558400133437));
#364=CARTESIAN_POINT('',(-16.5065192721104,-5.25998950208692,-2.27587481735061));
#365=CARTESIAN_POINT('',(-16.5791725692596,-3.57383249938154,-1.79290588130572));
#366=CARTESIAN_POINT('',(-16.6946763311244,-2.72333903150571,-0.257680167940115));
#367=CARTESIAN_POINT('',(-16.6223826645235,-3.20958106344412,1.42806261747691));
#368=CARTESIAN_POINT('',(-16.6633767597134,-2.94612828147475,-0.232593989264879));
#369=CARTESIAN_POINT('',(0.,-10.,0.));
#370=CARTESIAN_POINT('',(1.8054619053537,-3.5899628262924,-10.9785039602222));
#371=CARTESIAN_POINT('',(0.279376254856456,-2.72582784394427,-11.1539073564519));
#372=CARTESIAN_POINT('',(-1.41217714524567,-3.19709061885004,-11.0487440596664));
#373=CARTESIAN_POINT('',(-2.27309347560195,-4.71836723828207,-10.8715734243346));
#374=CARTESIAN_POINT('',(-1.80424831380786,-6.41185607145726,-10.9786940728893));
#375=CARTESIAN_POINT('',(-0.280227211288375,-7.27296292097881,-11.1537485966856));
#376=CARTESIAN_POINT('',(1.40977866591847,-6.80536337216685,-11.0490848021617));
#377=CARTESIAN_POINT('',(2.2733359524693,-5.28100020031917,-10.8715458644767));
#378=CARTESIAN_POINT('',(1.8054619053537,-3.5899628262924,-10.9785039602222));
#379=CARTESIAN_POINT('',(0.279376254856456,-2.72582784394427,-11.1539073564519));
#380=CARTESIAN_POINT('',(-1.41217714524567,-3.19709061885004,-11.0487440596664));
#381=CARTESIAN_POINT('',(0.251798296588976,-2.94839413681992,-11.1071462409493));
#382=CARTESIAN_POINT('',(0.,0.,0.));
#383=CARTESIAN_POINT('',(0.,0.,-11.11));
#384=CARTESIAN_POINT('',(0.,-10.,0.));
#385=CARTESIAN_POINT('',(0.,-10.,-11.11));
#386=CARTESIAN_POINT('',(0.,-10.,0.));
#387=CARTESIAN_POINT('',(0.,-1.,0.));
#388=CARTESIAN_POINT('',(0.,-1.,-16.665));
#389=CARTESIAN_POINT('',(0.,-9.,0.));
#390=CARTESIAN_POINT('',(0.,-9.,-16.665));
#391=CARTESIAN_POINT('',(1.79290588130572,-3.57383249938154,-16.5791725692596));
#392=CARTESIAN_POINT('',(0.257680167940114,-2.72333903150571,-16.6946763311244));
#393=CARTESIAN_POINT('',(-1.42806261747691,-3.20958106344412,-16.6223826645235));
#394=CARTESIAN_POINT('',(-2.27560774536851,-4.74019507023331,-16.5065370513218));
#395=CARTESIAN_POINT('',(-1.79197786078792,-6.4273900600016,-16.579271671231));
#396=CARTESIAN_POINT('',(-0.25841678421118,-7.27566004306145,-16.694578309315));
#397=CARTESIAN_POINT('',(1.42558400133437,-6.79268997096441,-16.6226127768839));
#398=CARTESIAN_POINT('',(2.27587481735061,-5.25998950208691,-16.5065192721104));
#399=CARTESIAN_POINT('',(1.79290588130572,-3.57383249938154,-16.5791725692596));
#400=CARTESIAN_POINT('',(0.257680167940114,-2.72333903150571,-16.6946763311244));
#401=CARTESIAN_POINT('',(-1.42806261747691,-3.20958106344412,-16.6223826645235));
#402=CARTESIAN_POINT('',(0.232593989264878,-2.94612828147475,-16.6633767597134));
#403=CARTESIAN_POINT('',(0.,-10.,0.));
#404=CARTESIAN_POINT('',(0.,-10.,0.));
#405=CARTESIAN_POINT('',(0.,-10.,-15.665));
#406=CARTESIAN_POINT('',(0.,0.,0.));
#407=CARTESIAN_POINT('',(0.,0.,0.));
#408=CARTESIAN_POINT('',(0.,0.,-15.665));
#409=CARTESIAN_POINT('',(6.12323399573677E-16,-5.,0.));
#410=CARTESIAN_POINT('',(0.,-9.,0.));
#411=CARTESIAN_POINT('',(0.,-1.,0.));
#412=MECHANICAL_DESIGN_GEOMETRIC_PRESENTATION_REPRESENTATION('',(#156,#157,
#158,#159,#160,#161,#162,#163,#164,#165),#413);
#413=(
GEOMETRIC_REPRESENTATION_CONTEXT(3)
GLOBAL_UNCERTAINTY_ASSIGNED_CONTEXT((#414))
GLOBAL_UNIT_ASSIGNED_CONTEXT((#417,#416,#415))
REPRESENTATION_CONTEXT('Seal 1','TOP_LEVEL_ASSEMBLY_PART')
);
#414=UNCERTAINTY_MEASURE_WITH_UNIT(LENGTH_MEASURE(0.005),#417,
'DISTANCE_ACCURACY_VALUE','Maximum Tolerance applied to model');
#415=(
NAMED_UNIT(*)
SI_UNIT($,.STERADIAN.)
SOLID_ANGLE_UNIT()
);
#416=(
NAMED_UNIT(*)
PLANE_ANGLE_UNIT()
SI_UNIT($,.RADIAN.)
);
#417=(
LENGTH_UNIT()
NAMED_UNIT(*)
SI_UNIT(.MILLI.,.METRE.)
);
#418=PRODUCT_DEFINITION_SHAPE('','',#419);
#419=PRODUCT_DEFINITION('','',#421,#420);
#420=PRODUCT_DEFINITION_CONTEXT('',#427,'design');
#421=PRODUCT_DEFINITION_FORMATION_WITH_SPECIFIED_SOURCE('','',#423,
 .NOT_KNOWN.);
#422=PRODUCT_RELATED_PRODUCT_CATEGORY('','',(#423));
#423=PRODUCT('Seal 1','Seal 1','Seal 1',(#425));
#424=PRODUCT_CATEGORY('','');
#425=PRODUCT_CONTEXT('',#427,'mechanical');
#426=APPLICATION_PROTOCOL_DEFINITION('international standard',
'automotive_design',2010,#427);
#427=APPLICATION_CONTEXT(
'core data for automotive mechanical design processes');
ENDSEC;
END-ISO-10303-21;
